1.000000000000000000e+00 7.022428318118949164e+01 8.971999999999999975e-01 3.779600000000000000e+04
2.000000000000000000e+00 6.551190746955485622e+01 9.237999999999999545e-01 3.099700000000000000e+04
3.000000000000000000e+00 6.626454984628968248e+01 9.210000000000000409e-01 3.463300000000000000e+04
4.000000000000000000e+00 6.681404840674132117e+01 9.225999999999999757e-01 3.806600000000000000e+04
5.000000000000000000e+00 6.559112849765982389e+01 9.195999999999999730e-01 3.362600000000000000e+04
6.000000000000000000e+00 6.527489484009285547e+01 9.222000000000000197e-01 3.539100000000000000e+04
7.000000000000000000e+00 6.599434936847177369e+01 9.282000000000000250e-01 2.000000000000000000e+05
8.000000000000000000e+00 6.573754881107853976e+01 9.195999999999999730e-01 3.268200000000000000e+04
9.000000000000000000e+00 6.707331460891455777e+01 9.223999999999999977e-01 3.454100000000000000e+04
1.000000000000000000e+01 6.612439559712686332e+01 9.272000000000000242e-01 3.750700000000000000e+04
1.100000000000000000e+01 6.592085079039740947e+01 9.177999999999999492e-01 3.602900000000000000e+04
1.200000000000000000e+01 6.677391066132888398e+01 9.254000000000000004e-01 3.565600000000000000e+04
1.300000000000000000e+01 6.576433445786750553e+01 9.173999999999999932e-01 3.236000000000000000e+04
1.400000000000000000e+01 6.648866193986960127e+01 9.242000000000000215e-01 3.315400000000000000e+04
1.500000000000000000e+01 6.715129699188881318e+01 9.225999999999999757e-01 3.643500000000000000e+04
1.600000000000000000e+01 6.636175727945840208e+01 9.264000000000000012e-01 3.261800000000000000e+04
1.700000000000000000e+01 6.837024320149038203e+01 9.267999999999999572e-01 2.000000000000000000e+05
1.800000000000000000e+01 6.561324800775159360e+01 9.245999999999999774e-01 3.503300000000000000e+04
1.900000000000000000e+01 6.654937864556502802e+01 9.232000000000000206e-01 3.866300000000000000e+04
2.000000000000000000e+01 6.587810674437085368e+01 9.200000000000000400e-01 3.448900000000000000e+04
2.100000000000000000e+01 6.663907886700951622e+01 9.197999999999999510e-01 3.533200000000000000e+04
2.200000000000000000e+01 6.626639678990564164e+01 9.152000000000000135e-01 3.455100000000000000e+04
2.300000000000000000e+01 6.625024423638465976e+01 9.265999999999999792e-01 3.630500000000000000e+04
2.400000000000000000e+01 6.593755782693750689e+01 9.267999999999999572e-01 3.924900000000000000e+04
2.500000000000000000e+01 6.608993528636040082e+01 9.200000000000000400e-01 3.444400000000000000e+04
2.600000000000000000e+01 6.545689511740576449e+01 9.092000000000000082e-01 3.641200000000000000e+04
2.700000000000000000e+01 6.314018701431574243e+01 9.133999999999999897e-01 1.994200000000000000e+04
2.800000000000000000e+01 6.562440639116437069e+01 9.170000000000000373e-01 3.218100000000000000e+04
2.900000000000000000e+01 6.489979733841528287e+01 9.215999999999999748e-01 3.078300000000000000e+04
3.000000000000000000e+01 6.615796812839860763e+01 9.260000000000000453e-01 3.335600000000000000e+04
3.100000000000000000e+01 6.576396535244646202e+01 9.185999999999999721e-01 3.406400000000000000e+04
3.200000000000000000e+01 6.627679967537977745e+01 9.183999999999999941e-01 3.471400000000000000e+04
3.300000000000000000e+01 6.637358788990529490e+01 9.110000000000000320e-01 3.454800000000000000e+04
3.400000000000000000e+01 6.498779218920306278e+01 9.175999999999999712e-01 3.687700000000000000e+04
3.500000000000000000e+01 6.647044071097390372e+01 9.187999999999999501e-01 3.957900000000000000e+04
3.600000000000000000e+01 6.511596347344944036e+01 9.142000000000000126e-01 3.787700000000000000e+04
3.700000000000000000e+01 6.591140954172256272e+01 9.152000000000000135e-01 3.797800000000000000e+04
3.800000000000000000e+01 6.598473889982487606e+01 9.193999999999999950e-01 3.780400000000000000e+04
3.900000000000000000e+01 6.518171508753798093e+01 9.140000000000000346e-01 3.803900000000000000e+04
4.000000000000000000e+01 6.541758613351075269e+01 9.142000000000000126e-01 3.400600000000000000e+04
4.100000000000000000e+01 6.532680215886526298e+01 9.172000000000000153e-01 3.424200000000000000e+04
4.200000000000000000e+01 6.555188621705147511e+01 9.220000000000000417e-01 3.489200000000000000e+04
4.300000000000000000e+01 6.544620125080160733e+01 9.187999999999999501e-01 3.472600000000000000e+04
4.400000000000000000e+01 6.600708632097999384e+01 9.162000000000000144e-01 3.403900000000000000e+04
4.500000000000000000e+01 6.621273688452166084e+01 9.160000000000000364e-01 3.383600000000000000e+04
4.600000000000000000e+01 6.530657687350547747e+01 9.197999999999999510e-01 3.499200000000000000e+04
4.700000000000000000e+01 6.600887748569041946e+01 9.220000000000000417e-01 3.515800000000000000e+04
4.800000000000000000e+01 6.590611567694743655e+01 9.230000000000000426e-01 3.271100000000000000e+04
4.900000000000000000e+01 6.660843214133815593e+01 9.197999999999999510e-01 3.776000000000000000e+04
5.000000000000000000e+01 6.733507304180392339e+01 9.277999999999999581e-01 3.479300000000000000e+04
