%!PS-Adobe-2.0 EPSF-2.0
%%Title: rs_unsat_0.5_all_scaled.tex
%%Creator: gnuplot 5.0 patchlevel 5
%%CreationDate: Mon Nov 13 16:53:46 2017
%%DocumentFonts: 
%%BoundingBox: 50 50 410 302
%%EndComments
%%BeginProlog
/gnudict 256 dict def
gnudict begin
%
% The following true/false flags may be edited by hand if desired.
% The unit line width and grayscale image gamma correction may also be changed.
%
/Color true def
/Blacktext true def
/Solid false def
/Dashlength 1 def
/Landscape false def
/Level1 false def
/Level3 false def
/Rounded false def
/ClipToBoundingBox false def
/SuppressPDFMark false def
/TransparentPatterns false def
/gnulinewidth 5.000 def
/userlinewidth gnulinewidth def
/Gamma 1.0 def
/BackgroundColor {-1.000 -1.000 -1.000} def
%
/vshift -73 def
/dl1 {
  10.0 Dashlength userlinewidth gnulinewidth div mul mul mul
  Rounded { currentlinewidth 0.75 mul sub dup 0 le { pop 0.01 } if } if
} def
/dl2 {
  10.0 Dashlength userlinewidth gnulinewidth div mul mul mul
  Rounded { currentlinewidth 0.75 mul add } if
} def
/hpt_ 31.5 def
/vpt_ 31.5 def
/hpt hpt_ def
/vpt vpt_ def
/doclip {
  ClipToBoundingBox {
    newpath 50 50 moveto 410 50 lineto 410 302 lineto 50 302 lineto closepath
    clip
  } if
} def
%
% Gnuplot Prolog Version 5.1 (Oct 2015)
%
%/SuppressPDFMark true def
%
/M {moveto} bind def
/L {lineto} bind def
/R {rmoveto} bind def
/V {rlineto} bind def
/N {newpath moveto} bind def
/Z {closepath} bind def
/C {setrgbcolor} bind def
/f {rlineto fill} bind def
/g {setgray} bind def
/Gshow {show} def   % May be redefined later in the file to support UTF-8
/vpt2 vpt 2 mul def
/hpt2 hpt 2 mul def
/Lshow {currentpoint stroke M 0 vshift R 
	Blacktext {gsave 0 setgray textshow grestore} {textshow} ifelse} def
/Rshow {currentpoint stroke M dup stringwidth pop neg vshift R
	Blacktext {gsave 0 setgray textshow grestore} {textshow} ifelse} def
/Cshow {currentpoint stroke M dup stringwidth pop -2 div vshift R 
	Blacktext {gsave 0 setgray textshow grestore} {textshow} ifelse} def
/UP {dup vpt_ mul /vpt exch def hpt_ mul /hpt exch def
  /hpt2 hpt 2 mul def /vpt2 vpt 2 mul def} def
/DL {Color {setrgbcolor Solid {pop []} if 0 setdash}
 {pop pop pop 0 setgray Solid {pop []} if 0 setdash} ifelse} def
/BL {stroke userlinewidth 2 mul setlinewidth
	Rounded {1 setlinejoin 1 setlinecap} if} def
/AL {stroke userlinewidth 2 div setlinewidth
	Rounded {1 setlinejoin 1 setlinecap} if} def
/UL {dup gnulinewidth mul /userlinewidth exch def
	dup 1 lt {pop 1} if 10 mul /udl exch def} def
/PL {stroke userlinewidth setlinewidth
	Rounded {1 setlinejoin 1 setlinecap} if} def
3.8 setmiterlimit
% Classic Line colors (version 5.0)
/LCw {1 1 1} def
/LCb {0 0 0} def
/LCa {0 0 0} def
/LC0 {1 0 0} def
/LC1 {0 1 0} def
/LC2 {0 0 1} def
/LC3 {1 0 1} def
/LC4 {0 1 1} def
/LC5 {1 1 0} def
/LC6 {0 0 0} def
/LC7 {1 0.3 0} def
/LC8 {0.5 0.5 0.5} def
% Default dash patterns (version 5.0)
/LTB {BL [] LCb DL} def
/LTw {PL [] 1 setgray} def
/LTb {PL [] LCb DL} def
/LTa {AL [1 udl mul 2 udl mul] 0 setdash LCa setrgbcolor} def
/LT0 {PL [] LC0 DL} def
/LT1 {PL [2 dl1 3 dl2] LC1 DL} def
/LT2 {PL [1 dl1 1.5 dl2] LC2 DL} def
/LT3 {PL [6 dl1 2 dl2 1 dl1 2 dl2] LC3 DL} def
/LT4 {PL [1 dl1 2 dl2 6 dl1 2 dl2 1 dl1 2 dl2] LC4 DL} def
/LT5 {PL [4 dl1 2 dl2] LC5 DL} def
/LT6 {PL [1.5 dl1 1.5 dl2 1.5 dl1 1.5 dl2 1.5 dl1 6 dl2] LC6 DL} def
/LT7 {PL [3 dl1 3 dl2 1 dl1 3 dl2] LC7 DL} def
/LT8 {PL [2 dl1 2 dl2 2 dl1 6 dl2] LC8 DL} def
/SL {[] 0 setdash} def
/Pnt {stroke [] 0 setdash gsave 1 setlinecap M 0 0 V stroke grestore} def
/Dia {stroke [] 0 setdash 2 copy vpt add M
  hpt neg vpt neg V hpt vpt neg V
  hpt vpt V hpt neg vpt V closepath stroke
  Pnt} def
/Pls {stroke [] 0 setdash vpt sub M 0 vpt2 V
  currentpoint stroke M
  hpt neg vpt neg R hpt2 0 V stroke
 } def
/Box {stroke [] 0 setdash 2 copy exch hpt sub exch vpt add M
  0 vpt2 neg V hpt2 0 V 0 vpt2 V
  hpt2 neg 0 V closepath stroke
  Pnt} def
/Crs {stroke [] 0 setdash exch hpt sub exch vpt add M
  hpt2 vpt2 neg V currentpoint stroke M
  hpt2 neg 0 R hpt2 vpt2 V stroke} def
/TriU {stroke [] 0 setdash 2 copy vpt 1.12 mul add M
  hpt neg vpt -1.62 mul V
  hpt 2 mul 0 V
  hpt neg vpt 1.62 mul V closepath stroke
  Pnt} def
/Star {2 copy Pls Crs} def
/BoxF {stroke [] 0 setdash exch hpt sub exch vpt add M
  0 vpt2 neg V hpt2 0 V 0 vpt2 V
  hpt2 neg 0 V closepath fill} def
/TriUF {stroke [] 0 setdash vpt 1.12 mul add M
  hpt neg vpt -1.62 mul V
  hpt 2 mul 0 V
  hpt neg vpt 1.62 mul V closepath fill} def
/TriD {stroke [] 0 setdash 2 copy vpt 1.12 mul sub M
  hpt neg vpt 1.62 mul V
  hpt 2 mul 0 V
  hpt neg vpt -1.62 mul V closepath stroke
  Pnt} def
/TriDF {stroke [] 0 setdash vpt 1.12 mul sub M
  hpt neg vpt 1.62 mul V
  hpt 2 mul 0 V
  hpt neg vpt -1.62 mul V closepath fill} def
/DiaF {stroke [] 0 setdash vpt add M
  hpt neg vpt neg V hpt vpt neg V
  hpt vpt V hpt neg vpt V closepath fill} def
/Pent {stroke [] 0 setdash 2 copy gsave
  translate 0 hpt M 4 {72 rotate 0 hpt L} repeat
  closepath stroke grestore Pnt} def
/PentF {stroke [] 0 setdash gsave
  translate 0 hpt M 4 {72 rotate 0 hpt L} repeat
  closepath fill grestore} def
/Circle {stroke [] 0 setdash 2 copy
  hpt 0 360 arc stroke Pnt} def
/CircleF {stroke [] 0 setdash hpt 0 360 arc fill} def
/C0 {BL [] 0 setdash 2 copy moveto vpt 90 450 arc} bind def
/C1 {BL [] 0 setdash 2 copy moveto
	2 copy vpt 0 90 arc closepath fill
	vpt 0 360 arc closepath} bind def
/C2 {BL [] 0 setdash 2 copy moveto
	2 copy vpt 90 180 arc closepath fill
	vpt 0 360 arc closepath} bind def
/C3 {BL [] 0 setdash 2 copy moveto
	2 copy vpt 0 180 arc closepath fill
	vpt 0 360 arc closepath} bind def
/C4 {BL [] 0 setdash 2 copy moveto
	2 copy vpt 180 270 arc closepath fill
	vpt 0 360 arc closepath} bind def
/C5 {BL [] 0 setdash 2 copy moveto
	2 copy vpt 0 90 arc
	2 copy moveto
	2 copy vpt 180 270 arc closepath fill
	vpt 0 360 arc} bind def
/C6 {BL [] 0 setdash 2 copy moveto
	2 copy vpt 90 270 arc closepath fill
	vpt 0 360 arc closepath} bind def
/C7 {BL [] 0 setdash 2 copy moveto
	2 copy vpt 0 270 arc closepath fill
	vpt 0 360 arc closepath} bind def
/C8 {BL [] 0 setdash 2 copy moveto
	2 copy vpt 270 360 arc closepath fill
	vpt 0 360 arc closepath} bind def
/C9 {BL [] 0 setdash 2 copy moveto
	2 copy vpt 270 450 arc closepath fill
	vpt 0 360 arc closepath} bind def
/C10 {BL [] 0 setdash 2 copy 2 copy moveto vpt 270 360 arc closepath fill
	2 copy moveto
	2 copy vpt 90 180 arc closepath fill
	vpt 0 360 arc closepath} bind def
/C11 {BL [] 0 setdash 2 copy moveto
	2 copy vpt 0 180 arc closepath fill
	2 copy moveto
	2 copy vpt 270 360 arc closepath fill
	vpt 0 360 arc closepath} bind def
/C12 {BL [] 0 setdash 2 copy moveto
	2 copy vpt 180 360 arc closepath fill
	vpt 0 360 arc closepath} bind def
/C13 {BL [] 0 setdash 2 copy moveto
	2 copy vpt 0 90 arc closepath fill
	2 copy moveto
	2 copy vpt 180 360 arc closepath fill
	vpt 0 360 arc closepath} bind def
/C14 {BL [] 0 setdash 2 copy moveto
	2 copy vpt 90 360 arc closepath fill
	vpt 0 360 arc} bind def
/C15 {BL [] 0 setdash 2 copy vpt 0 360 arc closepath fill
	vpt 0 360 arc closepath} bind def
/Rec {newpath 4 2 roll moveto 1 index 0 rlineto 0 exch rlineto
	neg 0 rlineto closepath} bind def
/Square {dup Rec} bind def
/Bsquare {vpt sub exch vpt sub exch vpt2 Square} bind def
/S0 {BL [] 0 setdash 2 copy moveto 0 vpt rlineto BL Bsquare} bind def
/S1 {BL [] 0 setdash 2 copy vpt Square fill Bsquare} bind def
/S2 {BL [] 0 setdash 2 copy exch vpt sub exch vpt Square fill Bsquare} bind def
/S3 {BL [] 0 setdash 2 copy exch vpt sub exch vpt2 vpt Rec fill Bsquare} bind def
/S4 {BL [] 0 setdash 2 copy exch vpt sub exch vpt sub vpt Square fill Bsquare} bind def
/S5 {BL [] 0 setdash 2 copy 2 copy vpt Square fill
	exch vpt sub exch vpt sub vpt Square fill Bsquare} bind def
/S6 {BL [] 0 setdash 2 copy exch vpt sub exch vpt sub vpt vpt2 Rec fill Bsquare} bind def
/S7 {BL [] 0 setdash 2 copy exch vpt sub exch vpt sub vpt vpt2 Rec fill
	2 copy vpt Square fill Bsquare} bind def
/S8 {BL [] 0 setdash 2 copy vpt sub vpt Square fill Bsquare} bind def
/S9 {BL [] 0 setdash 2 copy vpt sub vpt vpt2 Rec fill Bsquare} bind def
/S10 {BL [] 0 setdash 2 copy vpt sub vpt Square fill 2 copy exch vpt sub exch vpt Square fill
	Bsquare} bind def
/S11 {BL [] 0 setdash 2 copy vpt sub vpt Square fill 2 copy exch vpt sub exch vpt2 vpt Rec fill
	Bsquare} bind def
/S12 {BL [] 0 setdash 2 copy exch vpt sub exch vpt sub vpt2 vpt Rec fill Bsquare} bind def
/S13 {BL [] 0 setdash 2 copy exch vpt sub exch vpt sub vpt2 vpt Rec fill
	2 copy vpt Square fill Bsquare} bind def
/S14 {BL [] 0 setdash 2 copy exch vpt sub exch vpt sub vpt2 vpt Rec fill
	2 copy exch vpt sub exch vpt Square fill Bsquare} bind def
/S15 {BL [] 0 setdash 2 copy Bsquare fill Bsquare} bind def
/D0 {gsave translate 45 rotate 0 0 S0 stroke grestore} bind def
/D1 {gsave translate 45 rotate 0 0 S1 stroke grestore} bind def
/D2 {gsave translate 45 rotate 0 0 S2 stroke grestore} bind def
/D3 {gsave translate 45 rotate 0 0 S3 stroke grestore} bind def
/D4 {gsave translate 45 rotate 0 0 S4 stroke grestore} bind def
/D5 {gsave translate 45 rotate 0 0 S5 stroke grestore} bind def
/D6 {gsave translate 45 rotate 0 0 S6 stroke grestore} bind def
/D7 {gsave translate 45 rotate 0 0 S7 stroke grestore} bind def
/D8 {gsave translate 45 rotate 0 0 S8 stroke grestore} bind def
/D9 {gsave translate 45 rotate 0 0 S9 stroke grestore} bind def
/D10 {gsave translate 45 rotate 0 0 S10 stroke grestore} bind def
/D11 {gsave translate 45 rotate 0 0 S11 stroke grestore} bind def
/D12 {gsave translate 45 rotate 0 0 S12 stroke grestore} bind def
/D13 {gsave translate 45 rotate 0 0 S13 stroke grestore} bind def
/D14 {gsave translate 45 rotate 0 0 S14 stroke grestore} bind def
/D15 {gsave translate 45 rotate 0 0 S15 stroke grestore} bind def
/DiaE {stroke [] 0 setdash vpt add M
  hpt neg vpt neg V hpt vpt neg V
  hpt vpt V hpt neg vpt V closepath stroke} def
/BoxE {stroke [] 0 setdash exch hpt sub exch vpt add M
  0 vpt2 neg V hpt2 0 V 0 vpt2 V
  hpt2 neg 0 V closepath stroke} def
/TriUE {stroke [] 0 setdash vpt 1.12 mul add M
  hpt neg vpt -1.62 mul V
  hpt 2 mul 0 V
  hpt neg vpt 1.62 mul V closepath stroke} def
/TriDE {stroke [] 0 setdash vpt 1.12 mul sub M
  hpt neg vpt 1.62 mul V
  hpt 2 mul 0 V
  hpt neg vpt -1.62 mul V closepath stroke} def
/PentE {stroke [] 0 setdash gsave
  translate 0 hpt M 4 {72 rotate 0 hpt L} repeat
  closepath stroke grestore} def
/CircE {stroke [] 0 setdash 
  hpt 0 360 arc stroke} def
/Opaque {gsave closepath 1 setgray fill grestore 0 setgray closepath} def
/DiaW {stroke [] 0 setdash vpt add M
  hpt neg vpt neg V hpt vpt neg V
  hpt vpt V hpt neg vpt V Opaque stroke} def
/BoxW {stroke [] 0 setdash exch hpt sub exch vpt add M
  0 vpt2 neg V hpt2 0 V 0 vpt2 V
  hpt2 neg 0 V Opaque stroke} def
/TriUW {stroke [] 0 setdash vpt 1.12 mul add M
  hpt neg vpt -1.62 mul V
  hpt 2 mul 0 V
  hpt neg vpt 1.62 mul V Opaque stroke} def
/TriDW {stroke [] 0 setdash vpt 1.12 mul sub M
  hpt neg vpt 1.62 mul V
  hpt 2 mul 0 V
  hpt neg vpt -1.62 mul V Opaque stroke} def
/PentW {stroke [] 0 setdash gsave
  translate 0 hpt M 4 {72 rotate 0 hpt L} repeat
  Opaque stroke grestore} def
/CircW {stroke [] 0 setdash 
  hpt 0 360 arc Opaque stroke} def
/BoxFill {gsave Rec 1 setgray fill grestore} def
/Density {
  /Fillden exch def
  currentrgbcolor
  /ColB exch def /ColG exch def /ColR exch def
  /ColR ColR Fillden mul Fillden sub 1 add def
  /ColG ColG Fillden mul Fillden sub 1 add def
  /ColB ColB Fillden mul Fillden sub 1 add def
  ColR ColG ColB setrgbcolor} def
/BoxColFill {gsave Rec PolyFill} def
/PolyFill {gsave Density fill grestore grestore} def
/h {rlineto rlineto rlineto gsave closepath fill grestore} bind def
%
% PostScript Level 1 Pattern Fill routine for rectangles
% Usage: x y w h s a XX PatternFill
%	x,y = lower left corner of box to be filled
%	w,h = width and height of box
%	  a = angle in degrees between lines and x-axis
%	 XX = 0/1 for no/yes cross-hatch
%
/PatternFill {gsave /PFa [ 9 2 roll ] def
  PFa 0 get PFa 2 get 2 div add PFa 1 get PFa 3 get 2 div add translate
  PFa 2 get -2 div PFa 3 get -2 div PFa 2 get PFa 3 get Rec
  TransparentPatterns {} {gsave 1 setgray fill grestore} ifelse
  clip
  currentlinewidth 0.5 mul setlinewidth
  /PFs PFa 2 get dup mul PFa 3 get dup mul add sqrt def
  0 0 M PFa 5 get rotate PFs -2 div dup translate
  0 1 PFs PFa 4 get div 1 add floor cvi
	{PFa 4 get mul 0 M 0 PFs V} for
  0 PFa 6 get ne {
	0 1 PFs PFa 4 get div 1 add floor cvi
	{PFa 4 get mul 0 2 1 roll M PFs 0 V} for
 } if
  stroke grestore} def
%
/languagelevel where
 {pop languagelevel} {1} ifelse
dup 2 lt
	{/InterpretLevel1 true def
	 /InterpretLevel3 false def}
	{/InterpretLevel1 Level1 def
	 2 gt
	    {/InterpretLevel3 Level3 def}
	    {/InterpretLevel3 false def}
	 ifelse }
 ifelse
%
% PostScript level 2 pattern fill definitions
%
/Level2PatternFill {
/Tile8x8 {/PaintType 2 /PatternType 1 /TilingType 1 /BBox [0 0 8 8] /XStep 8 /YStep 8}
	bind def
/KeepColor {currentrgbcolor [/Pattern /DeviceRGB] setcolorspace} bind def
<< Tile8x8
 /PaintProc {0.5 setlinewidth pop 0 0 M 8 8 L 0 8 M 8 0 L stroke} 
>> matrix makepattern
/Pat1 exch def
<< Tile8x8
 /PaintProc {0.5 setlinewidth pop 0 0 M 8 8 L 0 8 M 8 0 L stroke
	0 4 M 4 8 L 8 4 L 4 0 L 0 4 L stroke}
>> matrix makepattern
/Pat2 exch def
<< Tile8x8
 /PaintProc {0.5 setlinewidth pop 0 0 M 0 8 L
	8 8 L 8 0 L 0 0 L fill}
>> matrix makepattern
/Pat3 exch def
<< Tile8x8
 /PaintProc {0.5 setlinewidth pop -4 8 M 8 -4 L
	0 12 M 12 0 L stroke}
>> matrix makepattern
/Pat4 exch def
<< Tile8x8
 /PaintProc {0.5 setlinewidth pop -4 0 M 8 12 L
	0 -4 M 12 8 L stroke}
>> matrix makepattern
/Pat5 exch def
<< Tile8x8
 /PaintProc {0.5 setlinewidth pop -2 8 M 4 -4 L
	0 12 M 8 -4 L 4 12 M 10 0 L stroke}
>> matrix makepattern
/Pat6 exch def
<< Tile8x8
 /PaintProc {0.5 setlinewidth pop -2 0 M 4 12 L
	0 -4 M 8 12 L 4 -4 M 10 8 L stroke}
>> matrix makepattern
/Pat7 exch def
<< Tile8x8
 /PaintProc {0.5 setlinewidth pop 8 -2 M -4 4 L
	12 0 M -4 8 L 12 4 M 0 10 L stroke}
>> matrix makepattern
/Pat8 exch def
<< Tile8x8
 /PaintProc {0.5 setlinewidth pop 0 -2 M 12 4 L
	-4 0 M 12 8 L -4 4 M 8 10 L stroke}
>> matrix makepattern
/Pat9 exch def
/Pattern1 {PatternBgnd KeepColor Pat1 setpattern} bind def
/Pattern2 {PatternBgnd KeepColor Pat2 setpattern} bind def
/Pattern3 {PatternBgnd KeepColor Pat3 setpattern} bind def
/Pattern4 {PatternBgnd KeepColor Landscape {Pat5} {Pat4} ifelse setpattern} bind def
/Pattern5 {PatternBgnd KeepColor Landscape {Pat4} {Pat5} ifelse setpattern} bind def
/Pattern6 {PatternBgnd KeepColor Landscape {Pat9} {Pat6} ifelse setpattern} bind def
/Pattern7 {PatternBgnd KeepColor Landscape {Pat8} {Pat7} ifelse setpattern} bind def
} def
%
%
%End of PostScript Level 2 code
%
/PatternBgnd {
  TransparentPatterns {} {gsave 1 setgray fill grestore} ifelse
} def
%
% Substitute for Level 2 pattern fill codes with
% grayscale if Level 2 support is not selected.
%
/Level1PatternFill {
/Pattern1 {0.250 Density} bind def
/Pattern2 {0.500 Density} bind def
/Pattern3 {0.750 Density} bind def
/Pattern4 {0.125 Density} bind def
/Pattern5 {0.375 Density} bind def
/Pattern6 {0.625 Density} bind def
/Pattern7 {0.875 Density} bind def
} def
%
% Now test for support of Level 2 code
%
Level1 {Level1PatternFill} {Level2PatternFill} ifelse
%
/Symbol-Oblique /Symbol findfont [1 0 .167 1 0 0] makefont
dup length dict begin {1 index /FID eq {pop pop} {def} ifelse} forall
currentdict end definefont pop
%
Level1 SuppressPDFMark or 
{} {
/SDict 10 dict def
systemdict /pdfmark known not {
  userdict /pdfmark systemdict /cleartomark get put
} if
SDict begin [
  /Title (rs_unsat_0.5_all_scaled.tex)
  /Subject (gnuplot plot)
  /Creator (gnuplot 5.0 patchlevel 5)
%  /Producer (gnuplot)
%  /Keywords ()
  /CreationDate (Mon Nov 13 16:53:46 2017)
  /DOCINFO pdfmark
end
} ifelse
%
% Support for boxed text - Ethan A Merritt May 2005
%
/InitTextBox { userdict /TBy2 3 -1 roll put userdict /TBx2 3 -1 roll put
           userdict /TBy1 3 -1 roll put userdict /TBx1 3 -1 roll put
	   /Boxing true def } def
/ExtendTextBox { Boxing
    { gsave dup false charpath pathbbox
      dup TBy2 gt {userdict /TBy2 3 -1 roll put} {pop} ifelse
      dup TBx2 gt {userdict /TBx2 3 -1 roll put} {pop} ifelse
      dup TBy1 lt {userdict /TBy1 3 -1 roll put} {pop} ifelse
      dup TBx1 lt {userdict /TBx1 3 -1 roll put} {pop} ifelse
      grestore } if } def
/PopTextBox { newpath TBx1 TBxmargin sub TBy1 TBymargin sub M
               TBx1 TBxmargin sub TBy2 TBymargin add L
	       TBx2 TBxmargin add TBy2 TBymargin add L
	       TBx2 TBxmargin add TBy1 TBymargin sub L closepath } def
/DrawTextBox { PopTextBox stroke /Boxing false def} def
/FillTextBox { gsave PopTextBox 1 1 1 setrgbcolor fill grestore /Boxing false def} def
0 0 0 0 InitTextBox
/TBxmargin 20 def
/TBymargin 20 def
/Boxing false def
/textshow { ExtendTextBox Gshow } def
%
% redundant definitions for compatibility with prologue.ps older than 5.0.2
/LTB {BL [] LCb DL} def
/LTb {PL [] LCb DL} def
end
%%EndProlog
%%Page: 1 1
gnudict begin
gsave
doclip
50 50 translate
0.050 0.050 scale
0 setgray
newpath
LCb setrgbcolor
LTb
1.000 UL
LTb
726 3655 M
63 0 V
6014 0 R
-63 0 V
stroke
726 3905 M
63 0 V
6014 0 R
-63 0 V
stroke
726 4155 M
63 0 V
6014 0 R
-63 0 V
stroke
726 4405 M
63 0 V
6014 0 R
-63 0 V
stroke
726 3653 M
0 63 V
0 839 R
0 -63 V
stroke
1334 3653 M
0 63 V
0 839 R
0 -63 V
stroke
1941 3653 M
0 63 V
0 839 R
0 -63 V
stroke
2549 3653 M
0 63 V
0 839 R
0 -63 V
stroke
3157 3653 M
0 63 V
0 839 R
0 -63 V
stroke
3765 3653 M
0 63 V
0 839 R
0 -63 V
stroke
4372 3653 M
0 63 V
0 839 R
0 -63 V
stroke
4980 3653 M
0 63 V
0 839 R
0 -63 V
stroke
5588 3653 M
0 63 V
0 839 R
0 -63 V
stroke
6195 3653 M
0 63 V
0 839 R
0 -63 V
stroke
6803 3653 M
0 63 V
0 839 R
0 -63 V
stroke
1.000 UL
LTb
726 4555 N
0 -902 V
6077 0 V
0 902 V
-6077 0 V
Z stroke
1.000 UP
1.000 UL
LTb
% Begin plot #1
1.000 UP
1.000 UL
LTb
0.58 0.00 0.83 C 848 4555 M
969 4171 L
122 -77 V
121 -55 V
122 -50 V
121 15 V
122 -82 V
121 -30 V
122 0 V
121 -40 V
122 -54 V
121 21 V
122 -20 V
122 -22 V
121 18 V
122 -20 V
121 40 V
122 -21 V
121 -22 V
122 -14 V
121 -3 V
122 3 V
121 -37 V
122 -16 V
122 51 V
121 -49 V
122 21 V
121 -2 V
122 5 V
121 -25 V
122 10 V
121 -31 V
122 26 V
121 -34 V
122 2 V
121 8 V
122 53 V
122 -19 V
121 0 V
122 -50 V
121 44 V
122 -17 V
121 36 V
122 -44 V
121 -2 V
122 6 V
121 -25 V
122 18 V
121 -34 V
122 36 V
848 4555 Pls
969 4171 Pls
1091 4094 Pls
1212 4039 Pls
1334 3989 Pls
1455 4004 Pls
1577 3922 Pls
1698 3892 Pls
1820 3892 Pls
1941 3852 Pls
2063 3798 Pls
2184 3819 Pls
2306 3799 Pls
2428 3777 Pls
2549 3795 Pls
2671 3775 Pls
2792 3815 Pls
2914 3794 Pls
3035 3772 Pls
3157 3758 Pls
3278 3755 Pls
3400 3758 Pls
3521 3721 Pls
3643 3705 Pls
3765 3756 Pls
3886 3707 Pls
4008 3728 Pls
4129 3726 Pls
4251 3731 Pls
4372 3706 Pls
4494 3716 Pls
4615 3685 Pls
4737 3711 Pls
4858 3677 Pls
4980 3679 Pls
5101 3687 Pls
5223 3740 Pls
5345 3721 Pls
5466 3721 Pls
5588 3671 Pls
5709 3715 Pls
5831 3698 Pls
5952 3734 Pls
6074 3690 Pls
6195 3688 Pls
6317 3694 Pls
6438 3669 Pls
6560 3687 Pls
6681 3653 Pls
6803 3689 Pls
LTw
% End plot #1
2.000 UL
LTb
LCb setrgbcolor
[] 0 setdash
1.000 UL
LTb
726 4555 N
0 -902 V
6077 0 V
0 902 V
-6077 0 V
Z stroke
1.000 UP
1.000 UL
LTb
1.000 UL
LTb
726 2064 M
63 0 V
6014 0 R
-63 0 V
stroke
726 2310 M
63 0 V
6014 0 R
-63 0 V
stroke
726 2557 M
63 0 V
6014 0 R
-63 0 V
stroke
726 2804 M
63 0 V
6014 0 R
-63 0 V
stroke
726 2046 M
0 63 V
0 840 R
0 -63 V
stroke
1334 2046 M
0 63 V
0 840 R
0 -63 V
stroke
1941 2046 M
0 63 V
0 840 R
0 -63 V
stroke
2549 2046 M
0 63 V
0 840 R
0 -63 V
stroke
3157 2046 M
0 63 V
0 840 R
0 -63 V
stroke
3765 2046 M
0 63 V
0 840 R
0 -63 V
stroke
4372 2046 M
0 63 V
0 840 R
0 -63 V
stroke
4980 2046 M
0 63 V
0 840 R
0 -63 V
stroke
5588 2046 M
0 63 V
0 840 R
0 -63 V
stroke
6195 2046 M
0 63 V
0 840 R
0 -63 V
stroke
6803 2046 M
0 63 V
0 840 R
0 -63 V
stroke
1.000 UL
LTb
726 2949 N
0 -903 V
6077 0 V
0 903 V
-6077 0 V
Z stroke
1.000 UP
1.000 UL
LTb
% Begin plot #1
1.000 UP
1.000 UL
LTb
0.58 0.00 0.83 C 787 2949 M
61 -376 V
60 -66 V
61 -24 V
61 -19 V
61 -109 V
60 17 V
61 -66 V
61 -20 V
61 -43 V
60 34 V
61 -58 V
61 -52 V
61 40 V
61 -2 V
60 -22 V
61 21 V
61 -47 V
61 26 V
60 -39 V
61 -40 V
61 30 V
61 -10 V
60 1 V
61 -7 V
61 -29 V
61 12 V
61 11 V
60 -40 V
61 26 V
61 -15 V
61 -4 V
60 18 V
61 6 V
61 -21 V
61 37 V
60 -4 V
61 -12 V
61 -17 V
61 16 V
61 2 V
60 16 V
61 2 V
61 -10 V
61 -28 V
60 22 V
61 -2 V
61 -23 V
61 -4 V
61 34 V
60 -29 V
61 10 V
61 19 V
61 -17 V
60 -12 V
61 19 V
61 0 V
61 -1 V
60 -36 V
61 39 V
61 -29 V
61 -28 V
61 30 V
60 3 V
61 20 V
61 17 V
61 -27 V
60 9 V
61 9 V
61 -7 V
61 -29 V
60 -1 V
61 -10 V
61 17 V
61 15 V
61 10 V
60 -6 V
61 8 V
61 -26 V
61 57 V
60 -42 V
61 3 V
61 7 V
61 -6 V
60 -5 V
61 -4 V
61 24 V
61 5 V
61 -10 V
60 12 V
61 -16 V
61 -8 V
61 -1 V
60 26 V
61 -4 V
61 -19 V
61 -5 V
60 -33 V
61 39 V
61 -4 V
787 2949 Pls
848 2573 Pls
908 2507 Pls
969 2483 Pls
1030 2464 Pls
1091 2355 Pls
1151 2372 Pls
1212 2306 Pls
1273 2286 Pls
1334 2243 Pls
1394 2277 Pls
1455 2219 Pls
1516 2167 Pls
1577 2207 Pls
1638 2205 Pls
1698 2183 Pls
1759 2204 Pls
1820 2157 Pls
1881 2183 Pls
1941 2144 Pls
2002 2104 Pls
2063 2134 Pls
2124 2124 Pls
2184 2125 Pls
2245 2118 Pls
2306 2089 Pls
2367 2101 Pls
2428 2112 Pls
2488 2072 Pls
2549 2098 Pls
2610 2083 Pls
2671 2079 Pls
2731 2097 Pls
2792 2103 Pls
2853 2082 Pls
2914 2119 Pls
2974 2115 Pls
3035 2103 Pls
3096 2086 Pls
3157 2102 Pls
3218 2104 Pls
3278 2120 Pls
3339 2122 Pls
3400 2112 Pls
3461 2084 Pls
3521 2106 Pls
3582 2104 Pls
3643 2081 Pls
3704 2077 Pls
3765 2111 Pls
3825 2082 Pls
3886 2092 Pls
3947 2111 Pls
4008 2094 Pls
4068 2082 Pls
4129 2101 Pls
4190 2101 Pls
4251 2100 Pls
4311 2064 Pls
4372 2103 Pls
4433 2074 Pls
4494 2046 Pls
4555 2076 Pls
4615 2079 Pls
4676 2099 Pls
4737 2116 Pls
4798 2089 Pls
4858 2098 Pls
4919 2107 Pls
4980 2100 Pls
5041 2071 Pls
5101 2070 Pls
5162 2060 Pls
5223 2077 Pls
5284 2092 Pls
5345 2102 Pls
5405 2096 Pls
5466 2104 Pls
5527 2078 Pls
5588 2135 Pls
5648 2093 Pls
5709 2096 Pls
5770 2103 Pls
5831 2097 Pls
5891 2092 Pls
5952 2088 Pls
6013 2112 Pls
6074 2117 Pls
6135 2107 Pls
6195 2119 Pls
6256 2103 Pls
6317 2095 Pls
6378 2094 Pls
6438 2120 Pls
6499 2116 Pls
6560 2097 Pls
6621 2092 Pls
6681 2059 Pls
6742 2098 Pls
6803 2094 Pls
LTw
% End plot #1
2.000 UL
LTb
LCb setrgbcolor
[] 0 setdash
1.000 UL
LTb
726 2949 N
0 -903 V
6077 0 V
0 903 V
-6077 0 V
Z stroke
1.000 UP
1.000 UL
LTb
1.000 UL
LTb
726 485 M
63 0 V
6014 0 R
-63 0 V
stroke
726 740 M
63 0 V
6014 0 R
-63 0 V
stroke
726 995 M
63 0 V
6014 0 R
-63 0 V
stroke
726 1250 M
63 0 V
6014 0 R
-63 0 V
stroke
726 440 M
0 63 V
0 839 R
0 -63 V
stroke
1334 440 M
0 63 V
0 839 R
0 -63 V
stroke
1941 440 M
0 63 V
0 839 R
0 -63 V
stroke
2549 440 M
0 63 V
0 839 R
0 -63 V
stroke
3157 440 M
0 63 V
0 839 R
0 -63 V
stroke
3765 440 M
0 63 V
0 839 R
0 -63 V
stroke
4372 440 M
0 63 V
0 839 R
0 -63 V
stroke
4980 440 M
0 63 V
0 839 R
0 -63 V
stroke
5588 440 M
0 63 V
0 839 R
0 -63 V
stroke
6195 440 M
0 63 V
0 839 R
0 -63 V
stroke
6803 440 M
0 63 V
0 839 R
0 -63 V
stroke
1.000 UL
LTb
726 1342 N
0 -902 V
6077 0 V
0 902 V
-6077 0 V
Z stroke
1.000 UP
1.000 UL
LTb
% Begin plot #1
1.000 UP
1.000 UL
LTb
0.58 0.00 0.83 C 738 1342 M
750 981 L
12 -39 V
13 -66 V
12 -75 V
12 -23 V
12 -16 V
12 -38 V
12 -23 V
13 -22 V
12 -54 V
12 48 V
12 -51 V
12 1 V
12 -4 V
12 -24 V
13 17 V
12 29 V
12 -3 V
12 -34 V
12 25 V
12 -33 V
13 4 V
12 -33 V
12 11 V
12 -31 V
12 26 V
12 10 V
12 -2 V
13 -2 V
12 2 V
12 17 V
12 -67 V
12 30 V
12 -3 V
13 -50 V
12 43 V
12 -18 V
12 34 V
12 1 V
12 -29 V
12 30 V
13 -21 V
12 -12 V
12 18 V
12 -32 V
12 60 V
12 -22 V
13 -14 V
12 20 V
12 24 V
12 -51 V
12 12 V
12 29 V
12 -26 V
13 -15 V
12 -15 V
12 6 V
12 0 V
12 0 V
12 11 V
13 24 V
12 -26 V
12 4 V
12 15 V
12 -5 V
12 5 V
12 -26 V
13 37 V
12 -34 V
12 0 V
12 -2 V
12 -20 V
12 40 V
13 -57 V
12 37 V
12 -11 V
12 -5 V
12 1 V
12 1 V
12 20 V
13 15 V
12 -45 V
12 19 V
12 18 V
12 -3 V
12 -24 V
13 34 V
12 -58 V
12 -8 V
12 10 V
12 12 V
12 -18 V
12 11 V
13 9 V
12 2 V
12 -26 V
12 36 V
12 -31 V
12 13 V
13 -24 V
12 44 V
12 -13 V
12 -6 V
12 -32 V
12 24 V
stroke 2014 498 M
12 34 V
13 -2 V
12 -20 V
12 -24 V
12 18 V
12 -20 V
12 42 V
13 -11 V
12 -30 V
12 1 V
12 0 V
12 -12 V
12 18 V
12 4 V
13 38 V
12 -22 V
12 -44 V
12 -23 V
12 0 V
12 51 V
13 -16 V
12 -1 V
12 -39 V
12 49 V
12 13 V
12 15 V
12 -16 V
13 -18 V
12 34 V
12 -23 V
12 6 V
12 -3 V
12 -19 V
13 18 V
12 0 V
12 14 V
12 -46 V
12 22 V
12 37 V
12 1 V
13 -10 V
12 -12 V
12 22 V
12 -18 V
12 -48 V
12 39 V
13 -18 V
12 18 V
12 4 V
12 -21 V
12 19 V
12 24 V
12 14 V
13 -16 V
12 -3 V
12 2 V
12 11 V
12 -24 V
12 -16 V
13 39 V
12 -15 V
12 1 V
12 23 V
12 2 V
12 -6 V
12 1 V
13 -21 V
12 12 V
12 13 V
12 13 V
12 -3 V
12 10 V
13 21 V
12 -31 V
12 0 V
12 4 V
12 -25 V
12 17 V
12 -8 V
13 -15 V
12 -12 V
12 36 V
12 -27 V
12 -11 V
12 10 V
13 -5 V
12 -13 V
12 -2 V
12 1 V
12 30 V
12 -26 V
12 12 V
13 15 V
12 -3 V
12 21 V
12 1 V
12 -22 V
12 7 V
13 13 V
12 -5 V
12 -15 V
12 34 V
12 -19 V
12 13 V
stroke 3278 556 M
12 -20 V
13 3 V
12 11 V
12 -34 V
12 -3 V
12 6 V
12 -12 V
13 -8 V
12 5 V
12 18 V
12 -17 V
12 3 V
12 11 V
12 -17 V
13 -27 V
12 48 V
12 -20 V
12 18 V
12 -32 V
12 -21 V
13 14 V
12 14 V
12 18 V
12 6 V
12 -25 V
12 0 V
12 20 V
13 -14 V
12 35 V
12 34 V
12 -29 V
12 35 V
12 -25 V
13 18 V
12 2 V
12 -56 V
12 38 V
12 30 V
12 -43 V
13 45 V
12 -40 V
12 6 V
12 22 V
12 -25 V
12 -23 V
12 22 V
13 -21 V
12 -7 V
12 -4 V
12 21 V
12 31 V
12 21 V
13 -47 V
12 28 V
12 -43 V
12 11 V
12 -18 V
12 7 V
12 -34 V
13 27 V
12 9 V
12 -2 V
12 2 V
12 35 V
12 -43 V
13 24 V
12 -28 V
12 2 V
12 17 V
12 -35 V
12 -4 V
12 44 V
13 -5 V
12 -17 V
12 27 V
12 -10 V
12 -30 V
12 22 V
13 34 V
12 -29 V
12 3 V
12 -31 V
12 13 V
12 4 V
12 23 V
13 -7 V
12 -3 V
12 -21 V
12 24 V
12 -13 V
12 -30 V
13 18 V
12 -15 V
12 8 V
12 -37 V
12 25 V
12 23 V
12 14 V
13 -4 V
12 -15 V
12 22 V
12 -7 V
12 -4 V
12 0 V
stroke 4542 522 M
13 13 V
12 -12 V
12 13 V
12 21 V
12 -54 V
12 -26 V
12 44 V
13 -18 V
12 2 V
12 25 V
12 -59 V
12 51 V
12 -27 V
13 22 V
12 -20 V
12 21 V
12 -23 V
12 4 V
12 4 V
12 16 V
13 -30 V
12 1 V
12 50 V
12 -50 V
12 -3 V
12 5 V
13 -1 V
12 7 V
12 28 V
12 -25 V
12 13 V
12 31 V
12 -35 V
13 -15 V
12 23 V
12 5 V
12 -10 V
12 -47 V
12 53 V
13 7 V
12 -27 V
12 44 V
12 -24 V
12 -10 V
12 3 V
12 -8 V
13 8 V
12 41 V
12 -53 V
12 17 V
12 -10 V
12 20 V
13 -3 V
12 21 V
12 -47 V
12 29 V
12 0 V
12 17 V
12 -10 V
13 -16 V
12 -13 V
12 9 V
12 -34 V
12 38 V
12 -29 V
13 26 V
12 -8 V
12 9 V
12 -16 V
12 -22 V
12 26 V
12 -23 V
13 -10 V
12 51 V
12 -21 V
12 16 V
12 -24 V
12 6 V
13 -6 V
12 31 V
12 7 V
12 -7 V
12 0 V
12 -21 V
12 16 V
13 -12 V
12 -9 V
12 1 V
12 23 V
12 -13 V
12 -2 V
13 -16 V
12 51 V
12 -30 V
12 -8 V
12 24 V
12 6 V
12 1 V
13 -7 V
12 -23 V
12 13 V
12 11 V
12 0 V
12 -19 V
stroke 5806 510 M
13 5 V
12 -22 V
12 15 V
12 21 V
12 -36 V
12 28 V
12 -44 V
13 61 V
12 -46 V
12 40 V
12 -40 V
12 40 V
12 -22 V
13 5 V
12 14 V
12 -3 V
12 2 V
12 19 V
12 -35 V
12 12 V
13 -31 V
12 6 V
12 42 V
12 20 V
12 -17 V
12 -37 V
13 2 V
12 8 V
12 -43 V
12 16 V
12 25 V
12 3 V
12 15 V
13 5 V
12 0 V
12 -2 V
12 -58 V
12 8 V
12 24 V
13 -14 V
12 1 V
12 -5 V
12 41 V
12 -44 V
12 22 V
12 -8 V
13 -10 V
12 17 V
12 23 V
12 -28 V
12 -11 V
12 14 V
13 2 V
12 -8 V
12 -1 V
12 11 V
12 -38 V
12 27 V
12 -4 V
13 2 V
12 45 V
12 -58 V
12 67 V
12 -21 V
12 10 V
13 -10 V
12 2 V
12 -18 V
12 21 V
12 -50 V
12 39 V
12 -20 V
13 -2 V
12 4 V
12 29 V
12 -27 V
12 -25 V
12 -2 V
13 22 V
12 22 V
12 12 V
12 -34 V
738 1342 Pls
750 981 Pls
762 942 Pls
775 876 Pls
787 801 Pls
799 778 Pls
811 762 Pls
823 724 Pls
835 701 Pls
848 679 Pls
860 625 Pls
872 673 Pls
884 622 Pls
896 623 Pls
908 619 Pls
920 595 Pls
933 612 Pls
945 641 Pls
957 638 Pls
969 604 Pls
981 629 Pls
993 596 Pls
1006 600 Pls
1018 567 Pls
1030 578 Pls
1042 547 Pls
1054 573 Pls
1066 583 Pls
1078 581 Pls
1091 579 Pls
1103 581 Pls
1115 598 Pls
1127 531 Pls
1139 561 Pls
1151 558 Pls
1164 508 Pls
1176 551 Pls
1188 533 Pls
1200 567 Pls
1212 568 Pls
1224 539 Pls
1236 569 Pls
1249 548 Pls
1261 536 Pls
1273 554 Pls
1285 522 Pls
1297 582 Pls
1309 560 Pls
1322 546 Pls
1334 566 Pls
1346 590 Pls
1358 539 Pls
1370 551 Pls
1382 580 Pls
1394 554 Pls
1407 539 Pls
1419 524 Pls
1431 530 Pls
1443 530 Pls
1455 530 Pls
1467 541 Pls
1480 565 Pls
1492 539 Pls
1504 543 Pls
1516 558 Pls
1528 553 Pls
1540 558 Pls
1552 532 Pls
1565 569 Pls
1577 535 Pls
1589 535 Pls
1601 533 Pls
1613 513 Pls
1625 553 Pls
1638 496 Pls
1650 533 Pls
1662 522 Pls
1674 517 Pls
1686 518 Pls
1698 519 Pls
1710 539 Pls
1723 554 Pls
1735 509 Pls
1747 528 Pls
1759 546 Pls
1771 543 Pls
1783 519 Pls
1796 553 Pls
1808 495 Pls
1820 487 Pls
1832 497 Pls
1844 509 Pls
1856 491 Pls
1868 502 Pls
1881 511 Pls
1893 513 Pls
1905 487 Pls
1917 523 Pls
1929 492 Pls
1941 505 Pls
1954 481 Pls
1966 525 Pls
1978 512 Pls
1990 506 Pls
2002 474 Pls
2014 498 Pls
2026 532 Pls
2039 530 Pls
2051 510 Pls
2063 486 Pls
2075 504 Pls
2087 484 Pls
2099 526 Pls
2112 515 Pls
2124 485 Pls
2136 486 Pls
2148 486 Pls
2160 474 Pls
2172 492 Pls
2184 496 Pls
2197 534 Pls
2209 512 Pls
2221 468 Pls
2233 445 Pls
2245 445 Pls
2257 496 Pls
2270 480 Pls
2282 479 Pls
2294 440 Pls
2306 489 Pls
2318 502 Pls
2330 517 Pls
2342 501 Pls
2355 483 Pls
2367 517 Pls
2379 494 Pls
2391 500 Pls
2403 497 Pls
2415 478 Pls
2428 496 Pls
2440 496 Pls
2452 510 Pls
2464 464 Pls
2476 486 Pls
2488 523 Pls
2500 524 Pls
2513 514 Pls
2525 502 Pls
2537 524 Pls
2549 506 Pls
2561 458 Pls
2573 497 Pls
2586 479 Pls
2598 497 Pls
2610 501 Pls
2622 480 Pls
2634 499 Pls
2646 523 Pls
2658 537 Pls
2671 521 Pls
2683 518 Pls
2695 520 Pls
2707 531 Pls
2719 507 Pls
2731 491 Pls
2744 530 Pls
2756 515 Pls
2768 516 Pls
2780 539 Pls
2792 541 Pls
2804 535 Pls
2816 536 Pls
2829 515 Pls
2841 527 Pls
2853 540 Pls
2865 553 Pls
2877 550 Pls
2889 560 Pls
2902 581 Pls
2914 550 Pls
2926 550 Pls
2938 554 Pls
2950 529 Pls
2962 546 Pls
2974 538 Pls
2987 523 Pls
2999 511 Pls
3011 547 Pls
3023 520 Pls
3035 509 Pls
3047 519 Pls
3060 514 Pls
3072 501 Pls
3084 499 Pls
3096 500 Pls
3108 530 Pls
3120 504 Pls
3132 516 Pls
3145 531 Pls
3157 528 Pls
3169 549 Pls
3181 550 Pls
3193 528 Pls
3205 535 Pls
3218 548 Pls
3230 543 Pls
3242 528 Pls
3254 562 Pls
3266 543 Pls
3278 556 Pls
3290 536 Pls
3303 539 Pls
3315 550 Pls
3327 516 Pls
3339 513 Pls
3351 519 Pls
3363 507 Pls
3376 499 Pls
3388 504 Pls
3400 522 Pls
3412 505 Pls
3424 508 Pls
3436 519 Pls
3448 502 Pls
3461 475 Pls
3473 523 Pls
3485 503 Pls
3497 521 Pls
3509 489 Pls
3521 468 Pls
3534 482 Pls
3546 496 Pls
3558 514 Pls
3570 520 Pls
3582 495 Pls
3594 495 Pls
3606 515 Pls
3619 501 Pls
3631 536 Pls
3643 570 Pls
3655 541 Pls
3667 576 Pls
3679 551 Pls
3692 569 Pls
3704 571 Pls
3716 515 Pls
3728 553 Pls
3740 583 Pls
3752 540 Pls
3765 585 Pls
3777 545 Pls
3789 551 Pls
3801 573 Pls
3813 548 Pls
3825 525 Pls
3837 547 Pls
3850 526 Pls
3862 519 Pls
3874 515 Pls
3886 536 Pls
3898 567 Pls
3910 588 Pls
3923 541 Pls
3935 569 Pls
3947 526 Pls
3959 537 Pls
3971 519 Pls
3983 526 Pls
3995 492 Pls
4008 519 Pls
4020 528 Pls
4032 526 Pls
4044 528 Pls
4056 563 Pls
4068 520 Pls
4081 544 Pls
4093 516 Pls
4105 518 Pls
4117 535 Pls
4129 500 Pls
4141 496 Pls
4153 540 Pls
4166 535 Pls
4178 518 Pls
4190 545 Pls
4202 535 Pls
4214 505 Pls
4226 527 Pls
4239 561 Pls
4251 532 Pls
4263 535 Pls
4275 504 Pls
4287 517 Pls
4299 521 Pls
4311 544 Pls
4324 537 Pls
4336 534 Pls
4348 513 Pls
4360 537 Pls
4372 524 Pls
4384 494 Pls
4397 512 Pls
4409 497 Pls
4421 505 Pls
4433 468 Pls
4445 493 Pls
4457 516 Pls
4469 530 Pls
4482 526 Pls
4494 511 Pls
4506 533 Pls
4518 526 Pls
4530 522 Pls
4542 522 Pls
4555 535 Pls
4567 523 Pls
4579 536 Pls
4591 557 Pls
4603 503 Pls
4615 477 Pls
4627 521 Pls
4640 503 Pls
4652 505 Pls
4664 530 Pls
4676 471 Pls
4688 522 Pls
4700 495 Pls
4713 517 Pls
4725 497 Pls
4737 518 Pls
4749 495 Pls
4761 499 Pls
4773 503 Pls
4785 519 Pls
4798 489 Pls
4810 490 Pls
4822 540 Pls
4834 490 Pls
4846 487 Pls
4858 492 Pls
4871 491 Pls
4883 498 Pls
4895 526 Pls
4907 501 Pls
4919 514 Pls
4931 545 Pls
4943 510 Pls
4956 495 Pls
4968 518 Pls
4980 523 Pls
4992 513 Pls
5004 466 Pls
5016 519 Pls
5029 526 Pls
5041 499 Pls
5053 543 Pls
5065 519 Pls
5077 509 Pls
5089 512 Pls
5101 504 Pls
5114 512 Pls
5126 553 Pls
5138 500 Pls
5150 517 Pls
5162 507 Pls
5174 527 Pls
5187 524 Pls
5199 545 Pls
5211 498 Pls
5223 527 Pls
5235 527 Pls
5247 544 Pls
5259 534 Pls
5272 518 Pls
5284 505 Pls
5296 514 Pls
5308 480 Pls
5320 518 Pls
5332 489 Pls
5345 515 Pls
5357 507 Pls
5369 516 Pls
5381 500 Pls
5393 478 Pls
5405 504 Pls
5417 481 Pls
5430 471 Pls
5442 522 Pls
5454 501 Pls
5466 517 Pls
5478 493 Pls
5490 499 Pls
5503 493 Pls
5515 524 Pls
5527 531 Pls
5539 524 Pls
5551 524 Pls
5563 503 Pls
5575 519 Pls
5588 507 Pls
5600 498 Pls
5612 499 Pls
5624 522 Pls
5636 509 Pls
5648 507 Pls
5661 491 Pls
5673 542 Pls
5685 512 Pls
5697 504 Pls
5709 528 Pls
5721 534 Pls
5733 535 Pls
5746 528 Pls
5758 505 Pls
5770 518 Pls
5782 529 Pls
5794 529 Pls
5806 510 Pls
5819 515 Pls
5831 493 Pls
5843 508 Pls
5855 529 Pls
5867 493 Pls
5879 521 Pls
5891 477 Pls
5904 538 Pls
5916 492 Pls
5928 532 Pls
5940 492 Pls
5952 532 Pls
5964 510 Pls
5977 515 Pls
5989 529 Pls
6001 526 Pls
6013 528 Pls
6025 547 Pls
6037 512 Pls
6049 524 Pls
6062 493 Pls
6074 499 Pls
6086 541 Pls
6098 561 Pls
6110 544 Pls
6122 507 Pls
6135 509 Pls
6147 517 Pls
6159 474 Pls
6171 490 Pls
6183 515 Pls
6195 518 Pls
6207 533 Pls
6220 538 Pls
6232 538 Pls
6244 536 Pls
6256 478 Pls
6268 486 Pls
6280 510 Pls
6293 496 Pls
6305 497 Pls
6317 492 Pls
6329 533 Pls
6341 489 Pls
6353 511 Pls
6365 503 Pls
6378 493 Pls
6390 510 Pls
6402 533 Pls
6414 505 Pls
6426 494 Pls
6438 508 Pls
6451 510 Pls
6463 502 Pls
6475 501 Pls
6487 512 Pls
6499 474 Pls
6511 501 Pls
6523 497 Pls
6536 499 Pls
6548 544 Pls
6560 486 Pls
6572 553 Pls
6584 532 Pls
6596 542 Pls
6609 532 Pls
6621 534 Pls
6633 516 Pls
6645 537 Pls
6657 487 Pls
6669 526 Pls
6681 506 Pls
6694 504 Pls
6706 508 Pls
6718 537 Pls
6730 510 Pls
6742 485 Pls
6754 483 Pls
6767 505 Pls
6779 527 Pls
6791 539 Pls
6803 505 Pls
LTw
% End plot #1
2.000 UL
LTb
LCb setrgbcolor
[] 0 setdash
1.000 UL
LTb
726 1342 N
0 -902 V
6077 0 V
0 902 V
-6077 0 V
Z stroke
1.000 UP
1.000 UL
LTb
stroke
grestore
end
showpage
%%Trailer
