%!PS-Adobe-2.0
%%Title: rs_unsat_0.5_all_scaled.ps
%%Creator: gnuplot 5.0 patchlevel 5
%%CreationDate: Mon Nov 13 17:03:02 2017
%%DocumentFonts: (atend)
%%BoundingBox: 50 50 554 770
%%Orientation: Portrait
%%Pages: (atend)
%%EndComments
%%BeginProlog
/gnudict 256 dict def
gnudict begin
%
% The following true/false flags may be edited by hand if desired.
% The unit line width and grayscale image gamma correction may also be changed.
%
/Color true def
/Blacktext false def
/Solid false def
/Dashlength 1 def
/Landscape false def
/Level1 false def
/Level3 false def
/Rounded false def
/ClipToBoundingBox false def
/SuppressPDFMark false def
/TransparentPatterns false def
/gnulinewidth 5.000 def
/userlinewidth gnulinewidth def
/Gamma 1.0 def
/BackgroundColor {-1.000 -1.000 -1.000} def
%
/vshift -46 def
/dl1 {
  10.0 Dashlength userlinewidth gnulinewidth div mul mul mul
  Rounded { currentlinewidth 0.75 mul sub dup 0 le { pop 0.01 } if } if
} def
/dl2 {
  10.0 Dashlength userlinewidth gnulinewidth div mul mul mul
  Rounded { currentlinewidth 0.75 mul add } if
} def
/hpt_ 31.5 def
/vpt_ 31.5 def
/hpt hpt_ def
/vpt vpt_ def
/doclip {
  ClipToBoundingBox {
    newpath 50 50 moveto 554 50 lineto 554 770 lineto 50 770 lineto closepath
    clip
  } if
} def
%
% Gnuplot Prolog Version 5.1 (Oct 2015)
%
%/SuppressPDFMark true def
%
/M {moveto} bind def
/L {lineto} bind def
/R {rmoveto} bind def
/V {rlineto} bind def
/N {newpath moveto} bind def
/Z {closepath} bind def
/C {setrgbcolor} bind def
/f {rlineto fill} bind def
/g {setgray} bind def
/Gshow {show} def   % May be redefined later in the file to support UTF-8
/vpt2 vpt 2 mul def
/hpt2 hpt 2 mul def
/Lshow {currentpoint stroke M 0 vshift R 
	Blacktext {gsave 0 setgray textshow grestore} {textshow} ifelse} def
/Rshow {currentpoint stroke M dup stringwidth pop neg vshift R
	Blacktext {gsave 0 setgray textshow grestore} {textshow} ifelse} def
/Cshow {currentpoint stroke M dup stringwidth pop -2 div vshift R 
	Blacktext {gsave 0 setgray textshow grestore} {textshow} ifelse} def
/UP {dup vpt_ mul /vpt exch def hpt_ mul /hpt exch def
  /hpt2 hpt 2 mul def /vpt2 vpt 2 mul def} def
/DL {Color {setrgbcolor Solid {pop []} if 0 setdash}
 {pop pop pop 0 setgray Solid {pop []} if 0 setdash} ifelse} def
/BL {stroke userlinewidth 2 mul setlinewidth
	Rounded {1 setlinejoin 1 setlinecap} if} def
/AL {stroke userlinewidth 2 div setlinewidth
	Rounded {1 setlinejoin 1 setlinecap} if} def
/UL {dup gnulinewidth mul /userlinewidth exch def
	dup 1 lt {pop 1} if 10 mul /udl exch def} def
/PL {stroke userlinewidth setlinewidth
	Rounded {1 setlinejoin 1 setlinecap} if} def
3.8 setmiterlimit
% Classic Line colors (version 5.0)
/LCw {1 1 1} def
/LCb {0 0 0} def
/LCa {0 0 0} def
/LC0 {1 0 0} def
/LC1 {0 1 0} def
/LC2 {0 0 1} def
/LC3 {1 0 1} def
/LC4 {0 1 1} def
/LC5 {1 1 0} def
/LC6 {0 0 0} def
/LC7 {1 0.3 0} def
/LC8 {0.5 0.5 0.5} def
% Default dash patterns (version 5.0)
/LTB {BL [] LCb DL} def
/LTw {PL [] 1 setgray} def
/LTb {PL [] LCb DL} def
/LTa {AL [1 udl mul 2 udl mul] 0 setdash LCa setrgbcolor} def
/LT0 {PL [] LC0 DL} def
/LT1 {PL [2 dl1 3 dl2] LC1 DL} def
/LT2 {PL [1 dl1 1.5 dl2] LC2 DL} def
/LT3 {PL [6 dl1 2 dl2 1 dl1 2 dl2] LC3 DL} def
/LT4 {PL [1 dl1 2 dl2 6 dl1 2 dl2 1 dl1 2 dl2] LC4 DL} def
/LT5 {PL [4 dl1 2 dl2] LC5 DL} def
/LT6 {PL [1.5 dl1 1.5 dl2 1.5 dl1 1.5 dl2 1.5 dl1 6 dl2] LC6 DL} def
/LT7 {PL [3 dl1 3 dl2 1 dl1 3 dl2] LC7 DL} def
/LT8 {PL [2 dl1 2 dl2 2 dl1 6 dl2] LC8 DL} def
/SL {[] 0 setdash} def
/Pnt {stroke [] 0 setdash gsave 1 setlinecap M 0 0 V stroke grestore} def
/Dia {stroke [] 0 setdash 2 copy vpt add M
  hpt neg vpt neg V hpt vpt neg V
  hpt vpt V hpt neg vpt V closepath stroke
  Pnt} def
/Pls {stroke [] 0 setdash vpt sub M 0 vpt2 V
  currentpoint stroke M
  hpt neg vpt neg R hpt2 0 V stroke
 } def
/Box {stroke [] 0 setdash 2 copy exch hpt sub exch vpt add M
  0 vpt2 neg V hpt2 0 V 0 vpt2 V
  hpt2 neg 0 V closepath stroke
  Pnt} def
/Crs {stroke [] 0 setdash exch hpt sub exch vpt add M
  hpt2 vpt2 neg V currentpoint stroke M
  hpt2 neg 0 R hpt2 vpt2 V stroke} def
/TriU {stroke [] 0 setdash 2 copy vpt 1.12 mul add M
  hpt neg vpt -1.62 mul V
  hpt 2 mul 0 V
  hpt neg vpt 1.62 mul V closepath stroke
  Pnt} def
/Star {2 copy Pls Crs} def
/BoxF {stroke [] 0 setdash exch hpt sub exch vpt add M
  0 vpt2 neg V hpt2 0 V 0 vpt2 V
  hpt2 neg 0 V closepath fill} def
/TriUF {stroke [] 0 setdash vpt 1.12 mul add M
  hpt neg vpt -1.62 mul V
  hpt 2 mul 0 V
  hpt neg vpt 1.62 mul V closepath fill} def
/TriD {stroke [] 0 setdash 2 copy vpt 1.12 mul sub M
  hpt neg vpt 1.62 mul V
  hpt 2 mul 0 V
  hpt neg vpt -1.62 mul V closepath stroke
  Pnt} def
/TriDF {stroke [] 0 setdash vpt 1.12 mul sub M
  hpt neg vpt 1.62 mul V
  hpt 2 mul 0 V
  hpt neg vpt -1.62 mul V closepath fill} def
/DiaF {stroke [] 0 setdash vpt add M
  hpt neg vpt neg V hpt vpt neg V
  hpt vpt V hpt neg vpt V closepath fill} def
/Pent {stroke [] 0 setdash 2 copy gsave
  translate 0 hpt M 4 {72 rotate 0 hpt L} repeat
  closepath stroke grestore Pnt} def
/PentF {stroke [] 0 setdash gsave
  translate 0 hpt M 4 {72 rotate 0 hpt L} repeat
  closepath fill grestore} def
/Circle {stroke [] 0 setdash 2 copy
  hpt 0 360 arc stroke Pnt} def
/CircleF {stroke [] 0 setdash hpt 0 360 arc fill} def
/C0 {BL [] 0 setdash 2 copy moveto vpt 90 450 arc} bind def
/C1 {BL [] 0 setdash 2 copy moveto
	2 copy vpt 0 90 arc closepath fill
	vpt 0 360 arc closepath} bind def
/C2 {BL [] 0 setdash 2 copy moveto
	2 copy vpt 90 180 arc closepath fill
	vpt 0 360 arc closepath} bind def
/C3 {BL [] 0 setdash 2 copy moveto
	2 copy vpt 0 180 arc closepath fill
	vpt 0 360 arc closepath} bind def
/C4 {BL [] 0 setdash 2 copy moveto
	2 copy vpt 180 270 arc closepath fill
	vpt 0 360 arc closepath} bind def
/C5 {BL [] 0 setdash 2 copy moveto
	2 copy vpt 0 90 arc
	2 copy moveto
	2 copy vpt 180 270 arc closepath fill
	vpt 0 360 arc} bind def
/C6 {BL [] 0 setdash 2 copy moveto
	2 copy vpt 90 270 arc closepath fill
	vpt 0 360 arc closepath} bind def
/C7 {BL [] 0 setdash 2 copy moveto
	2 copy vpt 0 270 arc closepath fill
	vpt 0 360 arc closepath} bind def
/C8 {BL [] 0 setdash 2 copy moveto
	2 copy vpt 270 360 arc closepath fill
	vpt 0 360 arc closepath} bind def
/C9 {BL [] 0 setdash 2 copy moveto
	2 copy vpt 270 450 arc closepath fill
	vpt 0 360 arc closepath} bind def
/C10 {BL [] 0 setdash 2 copy 2 copy moveto vpt 270 360 arc closepath fill
	2 copy moveto
	2 copy vpt 90 180 arc closepath fill
	vpt 0 360 arc closepath} bind def
/C11 {BL [] 0 setdash 2 copy moveto
	2 copy vpt 0 180 arc closepath fill
	2 copy moveto
	2 copy vpt 270 360 arc closepath fill
	vpt 0 360 arc closepath} bind def
/C12 {BL [] 0 setdash 2 copy moveto
	2 copy vpt 180 360 arc closepath fill
	vpt 0 360 arc closepath} bind def
/C13 {BL [] 0 setdash 2 copy moveto
	2 copy vpt 0 90 arc closepath fill
	2 copy moveto
	2 copy vpt 180 360 arc closepath fill
	vpt 0 360 arc closepath} bind def
/C14 {BL [] 0 setdash 2 copy moveto
	2 copy vpt 90 360 arc closepath fill
	vpt 0 360 arc} bind def
/C15 {BL [] 0 setdash 2 copy vpt 0 360 arc closepath fill
	vpt 0 360 arc closepath} bind def
/Rec {newpath 4 2 roll moveto 1 index 0 rlineto 0 exch rlineto
	neg 0 rlineto closepath} bind def
/Square {dup Rec} bind def
/Bsquare {vpt sub exch vpt sub exch vpt2 Square} bind def
/S0 {BL [] 0 setdash 2 copy moveto 0 vpt rlineto BL Bsquare} bind def
/S1 {BL [] 0 setdash 2 copy vpt Square fill Bsquare} bind def
/S2 {BL [] 0 setdash 2 copy exch vpt sub exch vpt Square fill Bsquare} bind def
/S3 {BL [] 0 setdash 2 copy exch vpt sub exch vpt2 vpt Rec fill Bsquare} bind def
/S4 {BL [] 0 setdash 2 copy exch vpt sub exch vpt sub vpt Square fill Bsquare} bind def
/S5 {BL [] 0 setdash 2 copy 2 copy vpt Square fill
	exch vpt sub exch vpt sub vpt Square fill Bsquare} bind def
/S6 {BL [] 0 setdash 2 copy exch vpt sub exch vpt sub vpt vpt2 Rec fill Bsquare} bind def
/S7 {BL [] 0 setdash 2 copy exch vpt sub exch vpt sub vpt vpt2 Rec fill
	2 copy vpt Square fill Bsquare} bind def
/S8 {BL [] 0 setdash 2 copy vpt sub vpt Square fill Bsquare} bind def
/S9 {BL [] 0 setdash 2 copy vpt sub vpt vpt2 Rec fill Bsquare} bind def
/S10 {BL [] 0 setdash 2 copy vpt sub vpt Square fill 2 copy exch vpt sub exch vpt Square fill
	Bsquare} bind def
/S11 {BL [] 0 setdash 2 copy vpt sub vpt Square fill 2 copy exch vpt sub exch vpt2 vpt Rec fill
	Bsquare} bind def
/S12 {BL [] 0 setdash 2 copy exch vpt sub exch vpt sub vpt2 vpt Rec fill Bsquare} bind def
/S13 {BL [] 0 setdash 2 copy exch vpt sub exch vpt sub vpt2 vpt Rec fill
	2 copy vpt Square fill Bsquare} bind def
/S14 {BL [] 0 setdash 2 copy exch vpt sub exch vpt sub vpt2 vpt Rec fill
	2 copy exch vpt sub exch vpt Square fill Bsquare} bind def
/S15 {BL [] 0 setdash 2 copy Bsquare fill Bsquare} bind def
/D0 {gsave translate 45 rotate 0 0 S0 stroke grestore} bind def
/D1 {gsave translate 45 rotate 0 0 S1 stroke grestore} bind def
/D2 {gsave translate 45 rotate 0 0 S2 stroke grestore} bind def
/D3 {gsave translate 45 rotate 0 0 S3 stroke grestore} bind def
/D4 {gsave translate 45 rotate 0 0 S4 stroke grestore} bind def
/D5 {gsave translate 45 rotate 0 0 S5 stroke grestore} bind def
/D6 {gsave translate 45 rotate 0 0 S6 stroke grestore} bind def
/D7 {gsave translate 45 rotate 0 0 S7 stroke grestore} bind def
/D8 {gsave translate 45 rotate 0 0 S8 stroke grestore} bind def
/D9 {gsave translate 45 rotate 0 0 S9 stroke grestore} bind def
/D10 {gsave translate 45 rotate 0 0 S10 stroke grestore} bind def
/D11 {gsave translate 45 rotate 0 0 S11 stroke grestore} bind def
/D12 {gsave translate 45 rotate 0 0 S12 stroke grestore} bind def
/D13 {gsave translate 45 rotate 0 0 S13 stroke grestore} bind def
/D14 {gsave translate 45 rotate 0 0 S14 stroke grestore} bind def
/D15 {gsave translate 45 rotate 0 0 S15 stroke grestore} bind def
/DiaE {stroke [] 0 setdash vpt add M
  hpt neg vpt neg V hpt vpt neg V
  hpt vpt V hpt neg vpt V closepath stroke} def
/BoxE {stroke [] 0 setdash exch hpt sub exch vpt add M
  0 vpt2 neg V hpt2 0 V 0 vpt2 V
  hpt2 neg 0 V closepath stroke} def
/TriUE {stroke [] 0 setdash vpt 1.12 mul add M
  hpt neg vpt -1.62 mul V
  hpt 2 mul 0 V
  hpt neg vpt 1.62 mul V closepath stroke} def
/TriDE {stroke [] 0 setdash vpt 1.12 mul sub M
  hpt neg vpt 1.62 mul V
  hpt 2 mul 0 V
  hpt neg vpt -1.62 mul V closepath stroke} def
/PentE {stroke [] 0 setdash gsave
  translate 0 hpt M 4 {72 rotate 0 hpt L} repeat
  closepath stroke grestore} def
/CircE {stroke [] 0 setdash 
  hpt 0 360 arc stroke} def
/Opaque {gsave closepath 1 setgray fill grestore 0 setgray closepath} def
/DiaW {stroke [] 0 setdash vpt add M
  hpt neg vpt neg V hpt vpt neg V
  hpt vpt V hpt neg vpt V Opaque stroke} def
/BoxW {stroke [] 0 setdash exch hpt sub exch vpt add M
  0 vpt2 neg V hpt2 0 V 0 vpt2 V
  hpt2 neg 0 V Opaque stroke} def
/TriUW {stroke [] 0 setdash vpt 1.12 mul add M
  hpt neg vpt -1.62 mul V
  hpt 2 mul 0 V
  hpt neg vpt 1.62 mul V Opaque stroke} def
/TriDW {stroke [] 0 setdash vpt 1.12 mul sub M
  hpt neg vpt 1.62 mul V
  hpt 2 mul 0 V
  hpt neg vpt -1.62 mul V Opaque stroke} def
/PentW {stroke [] 0 setdash gsave
  translate 0 hpt M 4 {72 rotate 0 hpt L} repeat
  Opaque stroke grestore} def
/CircW {stroke [] 0 setdash 
  hpt 0 360 arc Opaque stroke} def
/BoxFill {gsave Rec 1 setgray fill grestore} def
/Density {
  /Fillden exch def
  currentrgbcolor
  /ColB exch def /ColG exch def /ColR exch def
  /ColR ColR Fillden mul Fillden sub 1 add def
  /ColG ColG Fillden mul Fillden sub 1 add def
  /ColB ColB Fillden mul Fillden sub 1 add def
  ColR ColG ColB setrgbcolor} def
/BoxColFill {gsave Rec PolyFill} def
/PolyFill {gsave Density fill grestore grestore} def
/h {rlineto rlineto rlineto gsave closepath fill grestore} bind def
%
% PostScript Level 1 Pattern Fill routine for rectangles
% Usage: x y w h s a XX PatternFill
%	x,y = lower left corner of box to be filled
%	w,h = width and height of box
%	  a = angle in degrees between lines and x-axis
%	 XX = 0/1 for no/yes cross-hatch
%
/PatternFill {gsave /PFa [ 9 2 roll ] def
  PFa 0 get PFa 2 get 2 div add PFa 1 get PFa 3 get 2 div add translate
  PFa 2 get -2 div PFa 3 get -2 div PFa 2 get PFa 3 get Rec
  TransparentPatterns {} {gsave 1 setgray fill grestore} ifelse
  clip
  currentlinewidth 0.5 mul setlinewidth
  /PFs PFa 2 get dup mul PFa 3 get dup mul add sqrt def
  0 0 M PFa 5 get rotate PFs -2 div dup translate
  0 1 PFs PFa 4 get div 1 add floor cvi
	{PFa 4 get mul 0 M 0 PFs V} for
  0 PFa 6 get ne {
	0 1 PFs PFa 4 get div 1 add floor cvi
	{PFa 4 get mul 0 2 1 roll M PFs 0 V} for
 } if
  stroke grestore} def
%
/languagelevel where
 {pop languagelevel} {1} ifelse
dup 2 lt
	{/InterpretLevel1 true def
	 /InterpretLevel3 false def}
	{/InterpretLevel1 Level1 def
	 2 gt
	    {/InterpretLevel3 Level3 def}
	    {/InterpretLevel3 false def}
	 ifelse }
 ifelse
%
% PostScript level 2 pattern fill definitions
%
/Level2PatternFill {
/Tile8x8 {/PaintType 2 /PatternType 1 /TilingType 1 /BBox [0 0 8 8] /XStep 8 /YStep 8}
	bind def
/KeepColor {currentrgbcolor [/Pattern /DeviceRGB] setcolorspace} bind def
<< Tile8x8
 /PaintProc {0.5 setlinewidth pop 0 0 M 8 8 L 0 8 M 8 0 L stroke} 
>> matrix makepattern
/Pat1 exch def
<< Tile8x8
 /PaintProc {0.5 setlinewidth pop 0 0 M 8 8 L 0 8 M 8 0 L stroke
	0 4 M 4 8 L 8 4 L 4 0 L 0 4 L stroke}
>> matrix makepattern
/Pat2 exch def
<< Tile8x8
 /PaintProc {0.5 setlinewidth pop 0 0 M 0 8 L
	8 8 L 8 0 L 0 0 L fill}
>> matrix makepattern
/Pat3 exch def
<< Tile8x8
 /PaintProc {0.5 setlinewidth pop -4 8 M 8 -4 L
	0 12 M 12 0 L stroke}
>> matrix makepattern
/Pat4 exch def
<< Tile8x8
 /PaintProc {0.5 setlinewidth pop -4 0 M 8 12 L
	0 -4 M 12 8 L stroke}
>> matrix makepattern
/Pat5 exch def
<< Tile8x8
 /PaintProc {0.5 setlinewidth pop -2 8 M 4 -4 L
	0 12 M 8 -4 L 4 12 M 10 0 L stroke}
>> matrix makepattern
/Pat6 exch def
<< Tile8x8
 /PaintProc {0.5 setlinewidth pop -2 0 M 4 12 L
	0 -4 M 8 12 L 4 -4 M 10 8 L stroke}
>> matrix makepattern
/Pat7 exch def
<< Tile8x8
 /PaintProc {0.5 setlinewidth pop 8 -2 M -4 4 L
	12 0 M -4 8 L 12 4 M 0 10 L stroke}
>> matrix makepattern
/Pat8 exch def
<< Tile8x8
 /PaintProc {0.5 setlinewidth pop 0 -2 M 12 4 L
	-4 0 M 12 8 L -4 4 M 8 10 L stroke}
>> matrix makepattern
/Pat9 exch def
/Pattern1 {PatternBgnd KeepColor Pat1 setpattern} bind def
/Pattern2 {PatternBgnd KeepColor Pat2 setpattern} bind def
/Pattern3 {PatternBgnd KeepColor Pat3 setpattern} bind def
/Pattern4 {PatternBgnd KeepColor Landscape {Pat5} {Pat4} ifelse setpattern} bind def
/Pattern5 {PatternBgnd KeepColor Landscape {Pat4} {Pat5} ifelse setpattern} bind def
/Pattern6 {PatternBgnd KeepColor Landscape {Pat9} {Pat6} ifelse setpattern} bind def
/Pattern7 {PatternBgnd KeepColor Landscape {Pat8} {Pat7} ifelse setpattern} bind def
} def
%
%
%End of PostScript Level 2 code
%
/PatternBgnd {
  TransparentPatterns {} {gsave 1 setgray fill grestore} ifelse
} def
%
% Substitute for Level 2 pattern fill codes with
% grayscale if Level 2 support is not selected.
%
/Level1PatternFill {
/Pattern1 {0.250 Density} bind def
/Pattern2 {0.500 Density} bind def
/Pattern3 {0.750 Density} bind def
/Pattern4 {0.125 Density} bind def
/Pattern5 {0.375 Density} bind def
/Pattern6 {0.625 Density} bind def
/Pattern7 {0.875 Density} bind def
} def
%
% Now test for support of Level 2 code
%
Level1 {Level1PatternFill} {Level2PatternFill} ifelse
%
/Symbol-Oblique /Symbol findfont [1 0 .167 1 0 0] makefont
dup length dict begin {1 index /FID eq {pop pop} {def} ifelse} forall
currentdict end definefont pop
%
/MFshow {
   { dup 5 get 3 ge
     { 5 get 3 eq {gsave} {grestore} ifelse }
     {dup dup 0 get findfont exch 1 get scalefont setfont
     [ currentpoint ] exch dup 2 get 0 exch R dup 5 get 2 ne {dup dup 6
     get exch 4 get {textshow} {stringwidth pop 0 R} ifelse }if dup 5 get 0 eq
     {dup 3 get {2 get neg 0 exch R pop} {pop aload pop M} ifelse} {dup 5
     get 1 eq {dup 2 get exch dup 3 get exch 6 get stringwidth pop -2 div
     dup 0 R} {dup 6 get stringwidth pop -2 div 0 R 6 get
     textshow 2 index {aload pop M neg 3 -1 roll neg R pop pop} {pop pop pop
     pop aload pop M} ifelse }ifelse }ifelse }
     ifelse }
   forall} def
/Gswidth {dup type /stringtype eq {stringwidth} {pop (n) stringwidth} ifelse} def
/MFwidth {0 exch { dup 5 get 3 ge { 5 get 3 eq { 0 } { pop } ifelse }
 {dup 3 get{dup dup 0 get findfont exch 1 get scalefont setfont
     6 get Gswidth pop add} {pop} ifelse} ifelse} forall} def
/MLshow { currentpoint stroke M
  0 exch R
  Blacktext {gsave 0 setgray MFshow grestore} {MFshow} ifelse } bind def
/MRshow { currentpoint stroke M
  exch dup MFwidth neg 3 -1 roll R
  Blacktext {gsave 0 setgray MFshow grestore} {MFshow} ifelse } bind def
/MCshow { currentpoint stroke M
  exch dup MFwidth -2 div 3 -1 roll R
  Blacktext {gsave 0 setgray MFshow grestore} {MFshow} ifelse } bind def
/XYsave    { [( ) 1 2 true false 3 ()] } bind def
/XYrestore { [( ) 1 2 true false 4 ()] } bind def
Level1 SuppressPDFMark or 
{} {
/SDict 10 dict def
systemdict /pdfmark known not {
  userdict /pdfmark systemdict /cleartomark get put
} if
SDict begin [
  /Title (rs_unsat_0.5_all_scaled.ps)
  /Subject (gnuplot plot)
  /Creator (gnuplot 5.0 patchlevel 5)
%  /Producer (gnuplot)
%  /Keywords ()
  /CreationDate (Mon Nov 13 17:03:02 2017)
  /DOCINFO pdfmark
end
} ifelse
%
% Support for boxed text - Ethan A Merritt May 2005
%
/InitTextBox { userdict /TBy2 3 -1 roll put userdict /TBx2 3 -1 roll put
           userdict /TBy1 3 -1 roll put userdict /TBx1 3 -1 roll put
	   /Boxing true def } def
/ExtendTextBox { Boxing
    { gsave dup false charpath pathbbox
      dup TBy2 gt {userdict /TBy2 3 -1 roll put} {pop} ifelse
      dup TBx2 gt {userdict /TBx2 3 -1 roll put} {pop} ifelse
      dup TBy1 lt {userdict /TBy1 3 -1 roll put} {pop} ifelse
      dup TBx1 lt {userdict /TBx1 3 -1 roll put} {pop} ifelse
      grestore } if } def
/PopTextBox { newpath TBx1 TBxmargin sub TBy1 TBymargin sub M
               TBx1 TBxmargin sub TBy2 TBymargin add L
	       TBx2 TBxmargin add TBy2 TBymargin add L
	       TBx2 TBxmargin add TBy1 TBymargin sub L closepath } def
/DrawTextBox { PopTextBox stroke /Boxing false def} def
/FillTextBox { gsave PopTextBox 1 1 1 setrgbcolor fill grestore /Boxing false def} def
0 0 0 0 InitTextBox
/TBxmargin 20 def
/TBymargin 20 def
/Boxing false def
/textshow { ExtendTextBox Gshow } def
%
% redundant definitions for compatibility with prologue.ps older than 5.0.2
/LTB {BL [] LCb DL} def
/LTb {PL [] LCb DL} def
end
%%EndProlog
%%Page: 1 1
gnudict begin
gsave
doclip
50 50 translate
0.100 0.100 scale
0 setgray
newpath
(Helvetica) findfont 140 scalefont setfont
BackgroundColor 0 lt 3 1 roll 0 lt exch 0 lt or or not {gsave BackgroundColor C clippath fill grestore} if
LCb setrgbcolor
2520 7060 M
[ [(Symbol) 140.0 0.0 true true 0 (a)]
[(Helvetica) 140.0 0.0 true true 0 (  = 50.0, m = 0.57, N = 100, )]
[(Symbol) 140.0 0.0 true true 0 (s)]
[(Helvetica) 140.0 0.0 true true 0 ( = 0.5 \(Scaled\))]
] -46.7 MCshow
LTb
1.000 UL
LTb
LCb setrgbcolor
546 4989 M
63 0 V
4178 0 R
-63 0 V
stroke
462 4989 M
[ [(Helvetica) 140.0 0.0 true true 0 ( 0.3)]
] -46.7 MRshow
1.000 UL
LTb
LCb setrgbcolor
546 5517 M
63 0 V
4178 0 R
-63 0 V
stroke
462 5517 M
[ [(Helvetica) 140.0 0.0 true true 0 ( 0.5)]
] -46.7 MRshow
1.000 UL
LTb
LCb setrgbcolor
546 6045 M
63 0 V
4178 0 R
-63 0 V
stroke
462 6045 M
[ [(Helvetica) 140.0 0.0 true true 0 ( 0.7)]
] -46.7 MRshow
1.000 UL
LTb
LCb setrgbcolor
546 6574 M
63 0 V
4178 0 R
-63 0 V
stroke
462 6574 M
[ [(Helvetica) 140.0 0.0 true true 0 ( 0.9)]
] -46.7 MRshow
1.000 UL
LTb
LCb setrgbcolor
546 4986 M
0 63 V
0 1842 R
0 -63 V
stroke
546 4846 M
[ [(Helvetica) 140.0 0.0 true true 0 ( 0)]
] -46.7 MCshow
1.000 UL
LTb
LCb setrgbcolor
970 4986 M
0 63 V
0 1842 R
0 -63 V
stroke
970 4846 M
[ [(Helvetica) 140.0 0.0 true true 0 ( 5)]
] -46.7 MCshow
1.000 UL
LTb
LCb setrgbcolor
1394 4986 M
0 63 V
0 1842 R
0 -63 V
stroke
1394 4846 M
[ [(Helvetica) 140.0 0.0 true true 0 ( 10)]
] -46.7 MCshow
1.000 UL
LTb
LCb setrgbcolor
1818 4986 M
0 63 V
0 1842 R
0 -63 V
stroke
1818 4846 M
[ [(Helvetica) 140.0 0.0 true true 0 ( 15)]
] -46.7 MCshow
1.000 UL
LTb
LCb setrgbcolor
2242 4986 M
0 63 V
0 1842 R
0 -63 V
stroke
2242 4846 M
[ [(Helvetica) 140.0 0.0 true true 0 ( 20)]
] -46.7 MCshow
1.000 UL
LTb
LCb setrgbcolor
2667 4986 M
0 63 V
0 1842 R
0 -63 V
stroke
2667 4846 M
[ [(Helvetica) 140.0 0.0 true true 0 ( 25)]
] -46.7 MCshow
1.000 UL
LTb
LCb setrgbcolor
3091 4986 M
0 63 V
0 1842 R
0 -63 V
stroke
3091 4846 M
[ [(Helvetica) 140.0 0.0 true true 0 ( 30)]
] -46.7 MCshow
1.000 UL
LTb
LCb setrgbcolor
3515 4986 M
0 63 V
0 1842 R
0 -63 V
stroke
3515 4846 M
[ [(Helvetica) 140.0 0.0 true true 0 ( 35)]
] -46.7 MCshow
1.000 UL
LTb
LCb setrgbcolor
3939 4986 M
0 63 V
0 1842 R
0 -63 V
stroke
3939 4846 M
[ [(Helvetica) 140.0 0.0 true true 0 ( 40)]
] -46.7 MCshow
1.000 UL
LTb
LCb setrgbcolor
4363 4986 M
0 63 V
0 1842 R
0 -63 V
stroke
4363 4846 M
[ [(Helvetica) 140.0 0.0 true true 0 ( 45)]
] -46.7 MCshow
1.000 UL
LTb
LCb setrgbcolor
4787 4986 M
0 63 V
0 1842 R
0 -63 V
stroke
4787 4846 M
[ [(Helvetica) 140.0 0.0 true true 0 ( 50)]
] -46.7 MCshow
1.000 UL
LTb
LCb setrgbcolor
1.000 UL
LTB
LCb setrgbcolor
546 6891 N
0 -1905 V
4241 0 V
0 1905 V
-4241 0 V
Z stroke
1.000 UP
1.000 UL
LTb
LCb setrgbcolor
% Begin plot #1
1.000 UP
1.000 UL
LTb
0.58 0.00 0.83 C 631 6891 M
85 -811 V
84 -163 V
85 -116 V
85 -106 V
85 32 V
85 -174 V
85 -63 V
84 1 V
85 -84 V
85 -116 V
85 45 V
85 -41 V
84 -46 V
85 37 V
85 -41 V
85 83 V
85 -45 V
85 -45 V
84 -30 V
85 -8 V
85 8 V
85 -78 V
85 -33 V
85 107 V
84 -104 V
85 44 V
85 -4 V
85 10 V
85 -53 V
84 22 V
85 -66 V
85 56 V
85 -72 V
85 5 V
85 15 V
84 113 V
85 -41 V
85 1 V
85 -106 V
85 94 V
84 -37 V
85 77 V
85 -94 V
85 -4 V
85 13 V
85 -54 V
84 39 V
85 -72 V
85 77 V
631 6891 Pls
716 6080 Pls
800 5917 Pls
885 5801 Pls
970 5695 Pls
1055 5727 Pls
1140 5553 Pls
1225 5490 Pls
1309 5491 Pls
1394 5407 Pls
1479 5291 Pls
1564 5336 Pls
1649 5295 Pls
1733 5249 Pls
1818 5286 Pls
1903 5245 Pls
1988 5328 Pls
2073 5283 Pls
2158 5238 Pls
2242 5208 Pls
2327 5200 Pls
2412 5208 Pls
2497 5130 Pls
2582 5097 Pls
2667 5204 Pls
2751 5100 Pls
2836 5144 Pls
2921 5140 Pls
3006 5150 Pls
3091 5097 Pls
3175 5119 Pls
3260 5053 Pls
3345 5109 Pls
3430 5037 Pls
3515 5042 Pls
3600 5057 Pls
3684 5170 Pls
3769 5129 Pls
3854 5130 Pls
3939 5024 Pls
4024 5118 Pls
4108 5081 Pls
4193 5158 Pls
4278 5064 Pls
4363 5060 Pls
4448 5073 Pls
4533 5019 Pls
4617 5058 Pls
4702 4986 Pls
4787 5063 Pls
% End plot #1
2.000 UL
LTb
LCb setrgbcolor
1.000 UL
LTB
LCb setrgbcolor
546 6891 N
0 -1905 V
4241 0 V
0 1905 V
-4241 0 V
Z stroke
1.000 UP
1.000 UL
LTb
LCb setrgbcolor
1.000 UL
LTb
LCb setrgbcolor
546 2670 M
63 0 V
4178 0 R
-63 0 V
stroke
462 2670 M
[ [(Helvetica) 140.0 0.0 true true 0 ( 0.3)]
] -46.7 MRshow
1.000 UL
LTb
LCb setrgbcolor
546 3191 M
63 0 V
4178 0 R
-63 0 V
stroke
462 3191 M
[ [(Helvetica) 140.0 0.0 true true 0 ( 0.5)]
] -46.7 MRshow
1.000 UL
LTb
LCb setrgbcolor
546 3712 M
63 0 V
4178 0 R
-63 0 V
stroke
462 3712 M
[ [(Helvetica) 140.0 0.0 true true 0 ( 0.7)]
] -46.7 MRshow
1.000 UL
LTb
LCb setrgbcolor
546 4232 M
63 0 V
4178 0 R
-63 0 V
stroke
462 4232 M
[ [(Helvetica) 140.0 0.0 true true 0 ( 0.9)]
] -46.7 MRshow
1.000 UL
LTb
LCb setrgbcolor
546 2633 M
0 63 V
0 1842 R
0 -63 V
stroke
546 2493 M
[ [(Helvetica) 140.0 0.0 true true 0 ( 0)]
] -46.7 MCshow
1.000 UL
LTb
LCb setrgbcolor
970 2633 M
0 63 V
0 1842 R
0 -63 V
stroke
970 2493 M
[ [(Helvetica) 140.0 0.0 true true 0 ( 10)]
] -46.7 MCshow
1.000 UL
LTb
LCb setrgbcolor
1394 2633 M
0 63 V
0 1842 R
0 -63 V
stroke
1394 2493 M
[ [(Helvetica) 140.0 0.0 true true 0 ( 20)]
] -46.7 MCshow
1.000 UL
LTb
LCb setrgbcolor
1818 2633 M
0 63 V
0 1842 R
0 -63 V
stroke
1818 2493 M
[ [(Helvetica) 140.0 0.0 true true 0 ( 30)]
] -46.7 MCshow
1.000 UL
LTb
LCb setrgbcolor
2242 2633 M
0 63 V
0 1842 R
0 -63 V
stroke
2242 2493 M
[ [(Helvetica) 140.0 0.0 true true 0 ( 40)]
] -46.7 MCshow
1.000 UL
LTb
LCb setrgbcolor
2667 2633 M
0 63 V
0 1842 R
0 -63 V
stroke
2667 2493 M
[ [(Helvetica) 140.0 0.0 true true 0 ( 50)]
] -46.7 MCshow
1.000 UL
LTb
LCb setrgbcolor
3091 2633 M
0 63 V
0 1842 R
0 -63 V
stroke
3091 2493 M
[ [(Helvetica) 140.0 0.0 true true 0 ( 60)]
] -46.7 MCshow
1.000 UL
LTb
LCb setrgbcolor
3515 2633 M
0 63 V
0 1842 R
0 -63 V
stroke
3515 2493 M
[ [(Helvetica) 140.0 0.0 true true 0 ( 70)]
] -46.7 MCshow
1.000 UL
LTb
LCb setrgbcolor
3939 2633 M
0 63 V
0 1842 R
0 -63 V
stroke
3939 2493 M
[ [(Helvetica) 140.0 0.0 true true 0 ( 80)]
] -46.7 MCshow
1.000 UL
LTb
LCb setrgbcolor
4363 2633 M
0 63 V
0 1842 R
0 -63 V
stroke
4363 2493 M
[ [(Helvetica) 140.0 0.0 true true 0 ( 90)]
] -46.7 MCshow
1.000 UL
LTb
LCb setrgbcolor
4787 2633 M
0 63 V
0 1842 R
0 -63 V
stroke
4787 2493 M
[ [(Helvetica) 140.0 0.0 true true 0 ( 100)]
] -46.7 MCshow
1.000 UL
LTb
LCb setrgbcolor
1.000 UL
LTB
LCb setrgbcolor
546 4538 N
0 -1905 V
4241 0 V
0 1905 V
-4241 0 V
Z stroke
1.000 UP
1.000 UL
LTb
LCb setrgbcolor
% Begin plot #1
1.000 UP
1.000 UL
LTb
0.58 0.00 0.83 C 588 4538 M
43 -793 V
42 -140 V
43 -49 V
42 -40 V
42 -232 V
43 37 V
42 -139 V
43 -42 V
42 -91 V
43 72 V
42 -122 V
42 -110 V
43 85 V
42 -5 V
43 -48 V
42 45 V
42 -100 V
43 56 V
42 -82 V
43 -84 V
42 64 V
42 -23 V
43 2 V
42 -15 V
43 -61 V
42 27 V
42 23 V
43 -86 V
42 56 V
43 -32 V
42 -9 V
43 38 V
42 13 V
42 -44 V
43 77 V
42 -7 V
43 -27 V
42 -34 V
42 34 V
43 3 V
42 35 V
43 3 V
42 -22 V
42 -57 V
43 45 V
42 -4 V
43 -48 V
42 -9 V
43 71 V
42 -59 V
42 20 V
43 41 V
42 -36 V
43 -27 V
42 42 V
42 -2 V
43 -1 V
42 -76 V
43 82 V
42 -60 V
42 -60 V
43 63 V
42 6 V
43 43 V
42 36 V
42 -58 V
43 20 V
42 19 V
43 -14 V
42 -61 V
43 -4 V
42 -20 V
42 36 V
43 32 V
42 20 V
43 -13 V
42 17 V
42 -55 V
43 121 V
42 -89 V
43 6 V
42 15 V
42 -13 V
43 -9 V
42 -8 V
43 49 V
42 11 V
42 -21 V
43 26 V
42 -35 V
43 -16 V
42 -3 V
43 55 V
42 -9 V
42 -40 V
43 -10 V
42 -70 V
43 82 V
42 -7 V
588 4538 Pls
631 3745 Pls
673 3605 Pls
716 3556 Pls
758 3516 Pls
800 3284 Pls
843 3321 Pls
885 3182 Pls
928 3140 Pls
970 3049 Pls
1013 3121 Pls
1055 2999 Pls
1097 2889 Pls
1140 2974 Pls
1182 2969 Pls
1225 2921 Pls
1267 2966 Pls
1309 2866 Pls
1352 2922 Pls
1394 2840 Pls
1437 2756 Pls
1479 2820 Pls
1521 2797 Pls
1564 2799 Pls
1606 2784 Pls
1649 2723 Pls
1691 2750 Pls
1733 2773 Pls
1776 2687 Pls
1818 2743 Pls
1861 2711 Pls
1903 2702 Pls
1946 2740 Pls
1988 2753 Pls
2030 2709 Pls
2073 2786 Pls
2115 2779 Pls
2158 2752 Pls
2200 2718 Pls
2242 2752 Pls
2285 2755 Pls
2327 2790 Pls
2370 2793 Pls
2412 2771 Pls
2454 2714 Pls
2497 2759 Pls
2539 2755 Pls
2582 2707 Pls
2624 2698 Pls
2667 2769 Pls
2709 2710 Pls
2751 2730 Pls
2794 2771 Pls
2836 2735 Pls
2879 2708 Pls
2921 2750 Pls
2963 2748 Pls
3006 2747 Pls
3048 2671 Pls
3091 2753 Pls
3133 2693 Pls
3175 2633 Pls
3218 2696 Pls
3260 2702 Pls
3303 2745 Pls
3345 2781 Pls
3387 2723 Pls
3430 2743 Pls
3472 2762 Pls
3515 2748 Pls
3557 2687 Pls
3600 2683 Pls
3642 2663 Pls
3684 2699 Pls
3727 2731 Pls
3769 2751 Pls
3812 2738 Pls
3854 2755 Pls
3896 2700 Pls
3939 2821 Pls
3981 2732 Pls
4024 2738 Pls
4066 2753 Pls
4108 2740 Pls
4151 2731 Pls
4193 2723 Pls
4236 2772 Pls
4278 2783 Pls
4320 2762 Pls
4363 2788 Pls
4405 2753 Pls
4448 2737 Pls
4490 2734 Pls
4533 2789 Pls
4575 2780 Pls
4617 2740 Pls
4660 2730 Pls
4702 2660 Pls
4745 2742 Pls
4787 2735 Pls
% End plot #1
2.000 UL
LTb
LCb setrgbcolor
1.000 UL
LTB
LCb setrgbcolor
546 4538 N
0 -1905 V
4241 0 V
0 1905 V
-4241 0 V
Z stroke
1.000 UP
1.000 UL
LTb
LCb setrgbcolor
1.000 UL
LTb
LCb setrgbcolor
546 376 M
63 0 V
4178 0 R
-63 0 V
stroke
462 376 M
[ [(Helvetica) 140.0 0.0 true true 0 ( 0.3)]
] -46.7 MRshow
1.000 UL
LTb
LCb setrgbcolor
546 914 M
63 0 V
4178 0 R
-63 0 V
stroke
462 914 M
[ [(Helvetica) 140.0 0.0 true true 0 ( 0.5)]
] -46.7 MRshow
1.000 UL
LTb
LCb setrgbcolor
546 1453 M
63 0 V
4178 0 R
-63 0 V
stroke
462 1453 M
[ [(Helvetica) 140.0 0.0 true true 0 ( 0.7)]
] -46.7 MRshow
1.000 UL
LTb
LCb setrgbcolor
546 1991 M
63 0 V
4178 0 R
-63 0 V
stroke
462 1991 M
[ [(Helvetica) 140.0 0.0 true true 0 ( 0.9)]
] -46.7 MRshow
1.000 UL
LTb
LCb setrgbcolor
546 280 M
0 63 V
0 1842 R
0 -63 V
stroke
546 140 M
[ [(Helvetica) 140.0 0.0 true true 0 ( 0)]
] -46.7 MCshow
1.000 UL
LTb
LCb setrgbcolor
970 280 M
0 63 V
0 1842 R
0 -63 V
stroke
970 140 M
[ [(Helvetica) 140.0 0.0 true true 0 ( 50)]
] -46.7 MCshow
1.000 UL
LTb
LCb setrgbcolor
1394 280 M
0 63 V
0 1842 R
0 -63 V
stroke
1394 140 M
[ [(Helvetica) 140.0 0.0 true true 0 ( 100)]
] -46.7 MCshow
1.000 UL
LTb
LCb setrgbcolor
1818 280 M
0 63 V
0 1842 R
0 -63 V
stroke
1818 140 M
[ [(Helvetica) 140.0 0.0 true true 0 ( 150)]
] -46.7 MCshow
1.000 UL
LTb
LCb setrgbcolor
2242 280 M
0 63 V
0 1842 R
0 -63 V
stroke
2242 140 M
[ [(Helvetica) 140.0 0.0 true true 0 ( 200)]
] -46.7 MCshow
1.000 UL
LTb
LCb setrgbcolor
2667 280 M
0 63 V
0 1842 R
0 -63 V
stroke
2667 140 M
[ [(Helvetica) 140.0 0.0 true true 0 ( 250)]
] -46.7 MCshow
1.000 UL
LTb
LCb setrgbcolor
3091 280 M
0 63 V
0 1842 R
0 -63 V
stroke
3091 140 M
[ [(Helvetica) 140.0 0.0 true true 0 ( 300)]
] -46.7 MCshow
1.000 UL
LTb
LCb setrgbcolor
3515 280 M
0 63 V
0 1842 R
0 -63 V
stroke
3515 140 M
[ [(Helvetica) 140.0 0.0 true true 0 ( 350)]
] -46.7 MCshow
1.000 UL
LTb
LCb setrgbcolor
3939 280 M
0 63 V
0 1842 R
0 -63 V
stroke
3939 140 M
[ [(Helvetica) 140.0 0.0 true true 0 ( 400)]
] -46.7 MCshow
1.000 UL
LTb
LCb setrgbcolor
4363 280 M
0 63 V
0 1842 R
0 -63 V
stroke
4363 140 M
[ [(Helvetica) 140.0 0.0 true true 0 ( 450)]
] -46.7 MCshow
1.000 UL
LTb
LCb setrgbcolor
4787 280 M
0 63 V
0 1842 R
0 -63 V
stroke
4787 140 M
[ [(Helvetica) 140.0 0.0 true true 0 ( 500)]
] -46.7 MCshow
1.000 UL
LTb
LCb setrgbcolor
1.000 UL
LTB
LCb setrgbcolor
546 2185 N
546 280 L
4241 0 V
0 1905 V
-4241 0 V
Z stroke
1.000 UP
1.000 UL
LTb
LCb setrgbcolor
% Begin plot #1
1.000 UP
1.000 UL
LTb
0.58 0.00 0.83 C 554 2185 M
9 -763 V
8 -81 V
9 -140 V
8 -159 V
9 -49 V
8 -32 V
9 -82 V
8 -47 V
9 -48 V
8 -113 V
9 102 V
8 -110 V
9 3 V
8 -8 V
9 -50 V
8 34 V
9 63 V
8 -7 V
9 -71 V
8 52 V
9 -69 V
8 9 V
9 -71 V
8 24 V
9 -67 V
8 57 V
8 20 V
9 -4 V
8 -4 V
9 4 V
8 35 V
9 -141 V
8 64 V
9 -6 V
8 -106 V
9 90 V
8 -37 V
9 70 V
8 4 V
9 -62 V
8 63 V
9 -45 V
8 -25 V
9 39 V
8 -69 V
9 127 V
8 -45 V
9 -30 V
8 42 V
9 50 V
8 -107 V
9 25 V
8 62 V
9 -55 V
8 -31 V
8 -33 V
9 14 V
8 -1 V
9 1 V
8 22 V
9 51 V
8 -56 V
9 10 V
8 31 V
9 -11 V
8 10 V
9 -54 V
8 79 V
9 -73 V
8 0 V
9 -3 V
8 -43 V
9 85 V
8 -120 V
9 78 V
8 -23 V
9 -11 V
8 1 V
9 3 V
8 43 V
9 32 V
8 -96 V
8 40 V
9 38 V
8 -7 V
9 -50 V
8 72 V
9 -124 V
8 -16 V
9 21 V
8 27 V
9 -38 V
8 22 V
9 18 V
8 6 V
9 -56 V
8 77 V
9 -65 V
8 26 V
9 -50 V
8 93 V
9 -27 V
8 -14 V
9 -67 V
stroke 1437 352 M
8 50 V
9 72 V
8 -4 V
9 -42 V
8 -52 V
9 40 V
8 -42 V
8 87 V
9 -23 V
8 -63 V
9 3 V
8 0 V
9 -27 V
8 38 V
9 9 V
8 80 V
9 -45 V
8 -93 V
9 -50 V
8 0 V
9 108 V
8 -34 V
9 -1 V
8 -83 V
9 103 V
8 27 V
9 32 V
8 -33 V
9 -38 V
8 71 V
9 -47 V
8 12 V
9 -7 V
8 -40 V
8 38 V
9 1 V
8 29 V
9 -96 V
8 45 V
9 79 V
8 2 V
9 -22 V
8 -26 V
9 48 V
8 -39 V
9 -100 V
8 82 V
9 -38 V
8 37 V
9 9 V
8 -44 V
9 39 V
8 51 V
9 29 V
8 -33 V
9 -7 V
8 5 V
9 24 V
8 -51 V
9 -35 V
8 84 V
8 -32 V
9 1 V
8 48 V
9 5 V
8 -12 V
9 3 V
8 -45 V
9 25 V
8 27 V
9 27 V
8 -5 V
9 20 V
8 45 V
9 -66 V
8 1 V
9 8 V
8 -52 V
9 35 V
8 -17 V
9 -33 V
8 -24 V
9 75 V
8 -56 V
9 -24 V
8 21 V
9 -10 V
8 -28 V
9 -3 V
8 1 V
8 64 V
9 -55 V
8 27 V
9 30 V
8 -5 V
9 43 V
8 3 V
9 -47 V
8 15 V
9 27 V
8 -11 V
9 -31 V
8 72 V
9 -41 V
stroke 2319 497 M
8 29 V
9 -44 V
8 8 V
9 22 V
8 -71 V
9 -8 V
8 14 V
9 -25 V
8 -18 V
9 11 V
8 38 V
9 -36 V
8 6 V
8 24 V
9 -36 V
8 -58 V
9 102 V
8 -42 V
9 38 V
8 -66 V
9 -46 V
8 30 V
9 28 V
8 40 V
9 12 V
8 -53 V
9 0 V
8 41 V
9 -28 V
8 74 V
9 72 V
8 -61 V
9 72 V
8 -51 V
9 37 V
8 4 V
9 -117 V
8 80 V
9 62 V
8 -90 V
9 95 V
8 -84 V
8 13 V
9 46 V
8 -54 V
9 -48 V
8 48 V
9 -46 V
8 -15 V
9 -8 V
8 44 V
9 65 V
8 47 V
9 -102 V
8 60 V
9 -90 V
8 24 V
9 -38 V
8 14 V
9 -72 V
8 56 V
9 20 V
8 -5 V
9 5 V
8 74 V
9 -92 V
8 53 V
9 -61 V
8 4 V
8 36 V
9 -72 V
8 -10 V
9 94 V
8 -11 V
9 -37 V
8 57 V
9 -21 V
8 -62 V
9 46 V
8 71 V
9 -60 V
8 6 V
9 -67 V
8 29 V
9 9 V
8 48 V
9 -15 V
8 -7 V
9 -44 V
8 51 V
9 -28 V
8 -64 V
9 39 V
8 -33 V
9 18 V
8 -78 V
8 53 V
9 49 V
8 28 V
9 -7 V
8 -33 V
9 47 V
8 -14 V
9 -10 V
stroke 3201 452 M
8 1 V
9 28 V
8 -25 V
9 27 V
8 45 V
9 -115 V
8 -55 V
9 94 V
8 -40 V
9 5 V
8 54 V
9 -126 V
8 108 V
9 -56 V
8 46 V
9 -43 V
8 45 V
9 -48 V
8 8 V
9 8 V
8 35 V
8 -64 V
9 1 V
8 106 V
9 -106 V
8 -5 V
9 10 V
8 -2 V
9 14 V
8 60 V
9 -53 V
8 27 V
9 65 V
8 -73 V
9 -32 V
8 48 V
9 11 V
8 -22 V
9 -98 V
8 111 V
9 16 V
8 -58 V
9 94 V
8 -51 V
9 -22 V
8 7 V
9 -16 V
8 17 V
8 85 V
9 -110 V
8 35 V
9 -22 V
8 44 V
9 -8 V
8 46 V
9 -101 V
8 61 V
9 1 V
8 36 V
9 -22 V
8 -33 V
9 -28 V
8 19 V
9 -71 V
8 79 V
9 -61 V
8 56 V
9 -18 V
8 20 V
9 -35 V
8 -47 V
9 56 V
8 -48 V
9 -22 V
8 109 V
8 -45 V
9 33 V
8 -51 V
9 14 V
8 -13 V
9 65 V
8 16 V
9 -15 V
8 -1 V
9 -44 V
8 34 V
9 -26 V
8 -19 V
9 2 V
8 49 V
9 -28 V
8 -4 V
9 -33 V
8 108 V
9 -64 V
8 -16 V
9 51 V
8 11 V
9 2 V
8 -15 V
9 -47 V
8 27 V
9 22 V
8 0 V
stroke 4083 467 M
8 -39 V
9 11 V
8 -48 V
9 33 V
8 43 V
9 -76 V
8 60 V
9 -92 V
8 127 V
9 -96 V
8 85 V
9 -84 V
8 84 V
9 -48 V
8 11 V
9 30 V
8 -6 V
9 4 V
8 40 V
9 -74 V
8 25 V
9 -65 V
8 13 V
9 88 V
8 43 V
9 -37 V
8 -78 V
8 5 V
9 16 V
8 -90 V
9 34 V
8 52 V
9 7 V
8 32 V
9 10 V
8 0 V
9 -3 V
8 -125 V
9 19 V
8 50 V
9 -29 V
8 0 V
9 -8 V
8 85 V
9 -92 V
8 45 V
9 -15 V
8 -21 V
9 36 V
8 48 V
9 -60 V
8 -23 V
9 29 V
8 5 V
9 -17 V
8 -2 V
8 22 V
9 -78 V
8 55 V
9 -8 V
8 6 V
9 93 V
8 -122 V
9 142 V
8 -45 V
9 21 V
8 -22 V
9 6 V
8 -38 V
9 43 V
8 -104 V
9 81 V
8 -42 V
9 -5 V
8 11 V
9 59 V
8 -56 V
9 -53 V
8 -3 V
9 44 V
8 49 V
9 24 V
8 -72 V
554 2185 Pls
563 1422 Pls
571 1341 Pls
580 1201 Pls
588 1042 Pls
597 993 Pls
605 961 Pls
614 879 Pls
622 832 Pls
631 784 Pls
639 671 Pls
648 773 Pls
656 663 Pls
665 666 Pls
673 658 Pls
682 608 Pls
690 642 Pls
699 705 Pls
707 698 Pls
716 627 Pls
724 679 Pls
733 610 Pls
741 619 Pls
750 548 Pls
758 572 Pls
767 505 Pls
775 562 Pls
783 582 Pls
792 578 Pls
800 574 Pls
809 578 Pls
817 613 Pls
826 472 Pls
834 536 Pls
843 530 Pls
851 424 Pls
860 514 Pls
868 477 Pls
877 547 Pls
885 551 Pls
894 489 Pls
902 552 Pls
911 507 Pls
919 482 Pls
928 521 Pls
936 452 Pls
945 579 Pls
953 534 Pls
962 504 Pls
970 546 Pls
979 596 Pls
987 489 Pls
996 514 Pls
1004 576 Pls
1013 521 Pls
1021 490 Pls
1029 457 Pls
1038 471 Pls
1046 470 Pls
1055 471 Pls
1063 493 Pls
1072 544 Pls
1080 488 Pls
1089 498 Pls
1097 529 Pls
1106 518 Pls
1114 528 Pls
1123 474 Pls
1131 553 Pls
1140 480 Pls
1148 480 Pls
1157 477 Pls
1165 434 Pls
1174 519 Pls
1182 399 Pls
1191 477 Pls
1199 454 Pls
1208 443 Pls
1216 444 Pls
1225 447 Pls
1233 490 Pls
1242 522 Pls
1250 426 Pls
1258 466 Pls
1267 504 Pls
1275 497 Pls
1284 447 Pls
1292 519 Pls
1301 395 Pls
1309 379 Pls
1318 400 Pls
1326 427 Pls
1335 389 Pls
1343 411 Pls
1352 429 Pls
1360 435 Pls
1369 379 Pls
1377 456 Pls
1386 391 Pls
1394 417 Pls
1403 367 Pls
1411 460 Pls
1420 433 Pls
1428 419 Pls
1437 352 Pls
1445 402 Pls
1454 474 Pls
1462 470 Pls
1471 428 Pls
1479 376 Pls
1488 416 Pls
1496 374 Pls
1504 461 Pls
1513 438 Pls
1521 375 Pls
1530 378 Pls
1538 378 Pls
1547 351 Pls
1555 389 Pls
1564 398 Pls
1572 478 Pls
1581 433 Pls
1589 340 Pls
1598 290 Pls
1606 290 Pls
1615 398 Pls
1623 364 Pls
1632 363 Pls
1640 280 Pls
1649 383 Pls
1657 410 Pls
1666 442 Pls
1674 409 Pls
1683 371 Pls
1691 442 Pls
1700 395 Pls
1708 407 Pls
1717 400 Pls
1725 360 Pls
1733 398 Pls
1742 399 Pls
1750 428 Pls
1759 332 Pls
1767 377 Pls
1776 456 Pls
1784 458 Pls
1793 436 Pls
1801 410 Pls
1810 458 Pls
1818 419 Pls
1827 319 Pls
1835 401 Pls
1844 363 Pls
1852 400 Pls
1861 409 Pls
1869 365 Pls
1878 404 Pls
1886 455 Pls
1895 484 Pls
1903 451 Pls
1912 444 Pls
1920 449 Pls
1929 473 Pls
1937 422 Pls
1946 387 Pls
1954 471 Pls
1962 439 Pls
1971 440 Pls
1979 488 Pls
1988 493 Pls
1996 481 Pls
2005 484 Pls
2013 439 Pls
2022 464 Pls
2030 491 Pls
2039 518 Pls
2047 513 Pls
2056 533 Pls
2064 578 Pls
2073 512 Pls
2081 513 Pls
2090 521 Pls
2098 469 Pls
2107 504 Pls
2115 487 Pls
2124 454 Pls
2132 430 Pls
2141 505 Pls
2149 449 Pls
2158 425 Pls
2166 446 Pls
2175 436 Pls
2183 408 Pls
2192 405 Pls
2200 406 Pls
2208 470 Pls
2217 415 Pls
2225 442 Pls
2234 472 Pls
2242 467 Pls
2251 510 Pls
2259 513 Pls
2268 466 Pls
2276 481 Pls
2285 508 Pls
2293 497 Pls
2302 466 Pls
2310 538 Pls
2319 497 Pls
2327 526 Pls
2336 482 Pls
2344 490 Pls
2353 512 Pls
2361 441 Pls
2370 433 Pls
2378 447 Pls
2387 422 Pls
2395 404 Pls
2404 415 Pls
2412 453 Pls
2421 417 Pls
2429 423 Pls
2437 447 Pls
2446 411 Pls
2454 353 Pls
2463 455 Pls
2471 413 Pls
2480 451 Pls
2488 385 Pls
2497 339 Pls
2505 369 Pls
2514 397 Pls
2522 437 Pls
2531 449 Pls
2539 396 Pls
2548 396 Pls
2556 437 Pls
2565 409 Pls
2573 483 Pls
2582 555 Pls
2590 494 Pls
2599 566 Pls
2607 515 Pls
2616 552 Pls
2624 556 Pls
2633 439 Pls
2641 519 Pls
2650 581 Pls
2658 491 Pls
2667 586 Pls
2675 502 Pls
2683 515 Pls
2692 561 Pls
2700 507 Pls
2709 459 Pls
2717 507 Pls
2726 461 Pls
2734 446 Pls
2743 438 Pls
2751 482 Pls
2760 547 Pls
2768 594 Pls
2777 492 Pls
2785 552 Pls
2794 462 Pls
2802 486 Pls
2811 448 Pls
2819 462 Pls
2828 390 Pls
2836 446 Pls
2845 466 Pls
2853 461 Pls
2862 466 Pls
2870 540 Pls
2879 448 Pls
2887 501 Pls
2896 440 Pls
2904 444 Pls
2912 480 Pls
2921 408 Pls
2929 398 Pls
2938 492 Pls
2946 481 Pls
2955 444 Pls
2963 501 Pls
2972 480 Pls
2980 418 Pls
2989 464 Pls
2997 535 Pls
3006 475 Pls
3014 481 Pls
3023 414 Pls
3031 443 Pls
3040 452 Pls
3048 500 Pls
3057 485 Pls
3065 478 Pls
3074 434 Pls
3082 485 Pls
3091 457 Pls
3099 393 Pls
3108 432 Pls
3116 399 Pls
3125 417 Pls
3133 339 Pls
3141 392 Pls
3150 441 Pls
3158 469 Pls
3167 462 Pls
3175 429 Pls
3184 476 Pls
3192 462 Pls
3201 452 Pls
3209 453 Pls
3218 481 Pls
3226 456 Pls
3235 483 Pls
3243 528 Pls
3252 413 Pls
3260 358 Pls
3269 452 Pls
3277 412 Pls
3286 417 Pls
3294 471 Pls
3303 345 Pls
3311 453 Pls
3320 397 Pls
3328 443 Pls
3337 400 Pls
3345 445 Pls
3354 397 Pls
3362 405 Pls
3371 413 Pls
3379 448 Pls
3387 384 Pls
3396 385 Pls
3404 491 Pls
3413 385 Pls
3421 380 Pls
3430 390 Pls
3438 388 Pls
3447 402 Pls
3455 462 Pls
3464 409 Pls
3472 436 Pls
3481 501 Pls
3489 428 Pls
3498 396 Pls
3506 444 Pls
3515 455 Pls
3523 433 Pls
3532 335 Pls
3540 446 Pls
3549 462 Pls
3557 404 Pls
3566 498 Pls
3574 447 Pls
3583 425 Pls
3591 432 Pls
3600 416 Pls
3608 433 Pls
3616 518 Pls
3625 408 Pls
3633 443 Pls
3642 421 Pls
3650 465 Pls
3659 457 Pls
3667 503 Pls
3676 402 Pls
3684 463 Pls
3693 464 Pls
3701 500 Pls
3710 478 Pls
3718 445 Pls
3727 417 Pls
3735 436 Pls
3744 365 Pls
3752 444 Pls
3761 383 Pls
3769 439 Pls
3778 421 Pls
3786 441 Pls
3795 406 Pls
3803 359 Pls
3812 415 Pls
3820 367 Pls
3829 345 Pls
3837 454 Pls
3845 409 Pls
3854 442 Pls
3862 391 Pls
3871 405 Pls
3879 392 Pls
3888 457 Pls
3896 473 Pls
3905 458 Pls
3913 457 Pls
3922 413 Pls
3930 447 Pls
3939 421 Pls
3947 402 Pls
3956 404 Pls
3964 453 Pls
3973 425 Pls
3981 421 Pls
3990 388 Pls
3998 496 Pls
4007 432 Pls
4015 416 Pls
4024 467 Pls
4032 478 Pls
4041 480 Pls
4049 465 Pls
4058 418 Pls
4066 445 Pls
4075 467 Pls
4083 467 Pls
4091 428 Pls
4100 439 Pls
4108 391 Pls
4117 424 Pls
4125 467 Pls
4134 391 Pls
4142 451 Pls
4151 359 Pls
4159 486 Pls
4168 390 Pls
4176 475 Pls
4185 391 Pls
4193 475 Pls
4202 427 Pls
4210 438 Pls
4219 468 Pls
4227 462 Pls
4236 466 Pls
4244 506 Pls
4253 432 Pls
4261 457 Pls
4270 392 Pls
4278 405 Pls
4287 493 Pls
4295 536 Pls
4304 499 Pls
4312 421 Pls
4320 426 Pls
4329 442 Pls
4337 352 Pls
4346 386 Pls
4354 438 Pls
4363 445 Pls
4371 477 Pls
4380 487 Pls
4388 487 Pls
4397 484 Pls
4405 359 Pls
4414 378 Pls
4422 428 Pls
4431 399 Pls
4439 399 Pls
4448 391 Pls
4456 476 Pls
4465 384 Pls
4473 429 Pls
4482 414 Pls
4490 393 Pls
4499 429 Pls
4507 477 Pls
4516 417 Pls
4524 394 Pls
4533 423 Pls
4541 428 Pls
4550 411 Pls
4558 409 Pls
4566 431 Pls
4575 353 Pls
4583 408 Pls
4592 400 Pls
4600 406 Pls
4609 499 Pls
4617 377 Pls
4626 519 Pls
4634 474 Pls
4643 495 Pls
4651 473 Pls
4660 479 Pls
4668 441 Pls
4677 484 Pls
4685 380 Pls
4694 461 Pls
4702 419 Pls
4711 414 Pls
4719 425 Pls
4728 484 Pls
4736 428 Pls
4745 375 Pls
4753 372 Pls
4762 416 Pls
4770 465 Pls
4779 489 Pls
4787 417 Pls
% End plot #1
2.000 UL
LTb
LCb setrgbcolor
1.000 UL
LTB
LCb setrgbcolor
546 2185 N
546 280 L
4241 0 V
0 1905 V
-4241 0 V
Z stroke
1.000 UP
1.000 UL
LTb
LCb setrgbcolor
stroke
grestore
end
showpage
%%Trailer
%%DocumentFonts: Symbol Helvetica
%%Pages: 1
