-----Checking variables ----- 
Foldername alpha_fixed_sigma_1/
Alpha = 10
Sigma = -1.5
pbar = 1.5
Delta = 4.5
m = 0.57735
N = 100
T = 1000
Running iteration number = 1
-----------------------------

------Lambda and mu changing ----- 
Lambda = 55000
------Lambda and mu changing ----- 
Lambda = 60500
------Lambda and mu changing ----- 
Lambda = 66550
------Lambda and mu changing ----- 
Lambda = 73205
------Lambda and mu changing ----- 
Lambda = 80525.5
------Lambda and mu changing ----- 
Lambda = 88578.1
------Lambda and mu changing ----- 
Lambda = 97435.9
------Lambda and mu changing ----- 
Lambda = 107179
------Lambda and mu changing ----- 
Lambda = 117897
------Lambda and mu changing ----- 
Lambda = 129687
------Lambda and mu changing ----- 
Lambda = 142656
------Lambda and mu changing ----- 
Lambda = 156921
Convergence!! 
 Energy = 1.20887e-07 Average prices = 0.57735 Average squared = 1 Del Norm = 4.99988e-06
Z = 0.037 Energy = 1.20887e-07 Overlap = 0.928849
Replacing constraints 
 -----------------------------
Running iteration number = 2
-----------------------------

------Lambda and mu changing ----- 
Lambda = 55000
------Lambda and mu changing ----- 
Lambda = 60500
------Lambda and mu changing ----- 
Lambda = 66550
------Lambda and mu changing ----- 
Lambda = 73205
Convergence!! 
 Energy = 3.15846e-08 Average prices = 0.57735 Average squared = 1 Del Norm = 4.99985e-06
Z = 0.006 Energy = 3.15846e-08 Overlap = 0.921542
Replacing constraints 
 -----------------------------
Running iteration number = 3
-----------------------------

------Lambda and mu changing ----- 
Lambda = 55000
Convergence!! 
 Energy = 0 Average prices = 0.57735 Average squared = 1 Del Norm = 3.52173e-07
Z = 0 Energy = 0 Overlap = 0.921542
Energy reached zero. Stopping simulation
