-----Checking variables ----- 
Foldername alpha_fixed_sigma_3/
Alpha = 30
Sigma = -0.5
pbar = 1.5
Delta = 4.5
m = 0.57735
N = 100
T = 1000
Running iteration number = 1
-----------------------------

------Lambda and mu changing ----- 
Lambda = 55000
------Lambda and mu changing ----- 
Lambda = 60500
------Lambda and mu changing ----- 
Lambda = 66550
------Lambda and mu changing ----- 
Lambda = 73205
------Lambda and mu changing ----- 
Lambda = 80525.5
------Lambda and mu changing ----- 
Lambda = 88578.1
------Lambda and mu changing ----- 
Lambda = 97435.9
------Lambda and mu changing ----- 
Lambda = 107179
------Lambda and mu changing ----- 
Lambda = 117897
------Lambda and mu changing ----- 
Lambda = 129687
------Lambda and mu changing ----- 
Lambda = 142656
------Lambda and mu changing ----- 
Lambda = 156921
Convergence!! 
 Energy = 1.54512 Average prices = 0.576517 Average squared = 0.998582 Del Norm = 4.99989e-06
Z = 0.314333 Energy = 1.54512 Overlap = 0.338771
Replacing constraints 
 -----------------------------
Running iteration number = 2
-----------------------------

------Lambda and mu changing ----- 
Lambda = 55000
------Lambda and mu changing ----- 
Lambda = 60500
------Lambda and mu changing ----- 
Lambda = 66550
------Lambda and mu changing ----- 
Lambda = 73205
------Lambda and mu changing ----- 
Lambda = 80525.5
------Lambda and mu changing ----- 
Lambda = 88578.1
------Lambda and mu changing ----- 
Lambda = 97435.9
------Lambda and mu changing ----- 
Lambda = 107179
------Lambda and mu changing ----- 
Lambda = 117897
------Lambda and mu changing ----- 
Lambda = 129687
------Lambda and mu changing ----- 
Lambda = 142656
------Lambda and mu changing ----- 
Lambda = 156921
------Lambda and mu changing ----- 
Lambda = 172614
------Lambda and mu changing ----- 
Lambda = 189875
------Lambda and mu changing ----- 
Lambda = 208862
Convergence!! 
 Energy = 0.587513 Average prices = 0.577168 Average squared = 0.999541 Del Norm = 6.03469e-06
Z = 0.193333 Energy = 0.587513 Overlap = 0.300114
Replacing constraints 
 -----------------------------
Running iteration number = 3
-----------------------------

------Lambda and mu changing ----- 
Lambda = 55000
------Lambda and mu changing ----- 
Lambda = 60500
------Lambda and mu changing ----- 
Lambda = 66550
------Lambda and mu changing ----- 
Lambda = 73205
------Lambda and mu changing ----- 
Lambda = 80525.5
------Lambda and mu changing ----- 
Lambda = 88578.1
------Lambda and mu changing ----- 
Lambda = 97435.9
------Lambda and mu changing ----- 
Lambda = 107179
------Lambda and mu changing ----- 
Lambda = 117897
------Lambda and mu changing ----- 
Lambda = 129687
------Lambda and mu changing ----- 
Lambda = 142656
------Lambda and mu changing ----- 
Lambda = 156921
------Lambda and mu changing ----- 
Lambda = 172614
------Lambda and mu changing ----- 
Lambda = 189875
------Lambda and mu changing ----- 
Lambda = 208862
Convergence!! 
 Energy = 0.317633 Average prices = 0.577269 Average squared = 0.999729 Del Norm = 0.00013822
Z = 0.137 Energy = 0.317633 Overlap = 0.285444
Replacing constraints 
 -----------------------------
Running iteration number = 4
-----------------------------

------Lambda and mu changing ----- 
Lambda = 55000
------Lambda and mu changing ----- 
Lambda = 60500
------Lambda and mu changing ----- 
Lambda = 66550
------Lambda and mu changing ----- 
Lambda = 73205
------Lambda and mu changing ----- 
Lambda = 80525.5
------Lambda and mu changing ----- 
Lambda = 88578.1
------Lambda and mu changing ----- 
Lambda = 97435.9
------Lambda and mu changing ----- 
Lambda = 107179
------Lambda and mu changing ----- 
Lambda = 117897
------Lambda and mu changing ----- 
Lambda = 129687
------Lambda and mu changing ----- 
Lambda = 142656
------Lambda and mu changing ----- 
Lambda = 156921
------Lambda and mu changing ----- 
Lambda = 172614
------Lambda and mu changing ----- 
Lambda = 189875
------Lambda and mu changing ----- 
Lambda = 208862
Convergence!! 
 Energy = 0.15938 Average prices = 0.577326 Average squared = 0.999843 Del Norm = 0.000898411
Z = 0.106667 Energy = 0.15938 Overlap = 0.194033
Replacing constraints 
 -----------------------------
Running iteration number = 5
-----------------------------

------Lambda and mu changing ----- 
Lambda = 55000
------Lambda and mu changing ----- 
Lambda = 60500
------Lambda and mu changing ----- 
Lambda = 66550
------Lambda and mu changing ----- 
Lambda = 73205
------Lambda and mu changing ----- 
Lambda = 80525.5
------Lambda and mu changing ----- 
Lambda = 88578.1
------Lambda and mu changing ----- 
Lambda = 97435.9
------Lambda and mu changing ----- 
Lambda = 107179
------Lambda and mu changing ----- 
Lambda = 117897
------Lambda and mu changing ----- 
Lambda = 129687
------Lambda and mu changing ----- 
Lambda = 142656
------Lambda and mu changing ----- 
Lambda = 156921
------Lambda and mu changing ----- 
Lambda = 172614
------Lambda and mu changing ----- 
Lambda = 189875
------Lambda and mu changing ----- 
Lambda = 208862
Convergence!! 
 Energy = 0.133403 Average prices = 0.577314 Average squared = 0.999868 Del Norm = 3.95753e-05
Z = 0.104 Energy = 0.133403 Overlap = 0.301579
Replacing constraints 
 -----------------------------
Running iteration number = 6
-----------------------------

------Lambda and mu changing ----- 
Lambda = 55000
------Lambda and mu changing ----- 
Lambda = 60500
------Lambda and mu changing ----- 
Lambda = 66550
------Lambda and mu changing ----- 
Lambda = 73205
------Lambda and mu changing ----- 
Lambda = 80525.5
------Lambda and mu changing ----- 
Lambda = 88578.1
------Lambda and mu changing ----- 
Lambda = 97435.9
------Lambda and mu changing ----- 
Lambda = 107179
------Lambda and mu changing ----- 
Lambda = 117897
------Lambda and mu changing ----- 
Lambda = 129687
------Lambda and mu changing ----- 
Lambda = 142656
------Lambda and mu changing ----- 
Lambda = 156921
------Lambda and mu changing ----- 
Lambda = 172614
------Lambda and mu changing ----- 
Lambda = 189875
------Lambda and mu changing ----- 
Lambda = 208862
Convergence!! 
 Energy = 0.0818893 Average prices = 0.577315 Average squared = 0.999915 Del Norm = 0.000169704
Z = 0.0886667 Energy = 0.0818893 Overlap = 0.300089
Replacing constraints 
 -----------------------------
Running iteration number = 7
-----------------------------

------Lambda and mu changing ----- 
Lambda = 55000
------Lambda and mu changing ----- 
Lambda = 60500
------Lambda and mu changing ----- 
Lambda = 66550
------Lambda and mu changing ----- 
Lambda = 73205
------Lambda and mu changing ----- 
Lambda = 80525.5
------Lambda and mu changing ----- 
Lambda = 88578.1
------Lambda and mu changing ----- 
Lambda = 97435.9
------Lambda and mu changing ----- 
Lambda = 107179
------Lambda and mu changing ----- 
Lambda = 117897
------Lambda and mu changing ----- 
Lambda = 129687
------Lambda and mu changing ----- 
Lambda = 142656
------Lambda and mu changing ----- 
Lambda = 156921
------Lambda and mu changing ----- 
Lambda = 172614
------Lambda and mu changing ----- 
Lambda = 189875
------Lambda and mu changing ----- 
Lambda = 208862
Convergence!! 
 Energy = 0.0530231 Average prices = 0.577357 Average squared = 0.99993 Del Norm = 0.000129694
Z = 0.08 Energy = 0.0530231 Overlap = 0.347178
Replacing constraints 
 -----------------------------
Running iteration number = 8
-----------------------------

------Lambda and mu changing ----- 
Lambda = 55000
------Lambda and mu changing ----- 
Lambda = 60500
------Lambda and mu changing ----- 
Lambda = 66550
------Lambda and mu changing ----- 
Lambda = 73205
------Lambda and mu changing ----- 
Lambda = 80525.5
------Lambda and mu changing ----- 
Lambda = 88578.1
------Lambda and mu changing ----- 
Lambda = 97435.9
------Lambda and mu changing ----- 
Lambda = 107179
------Lambda and mu changing ----- 
Lambda = 117897
------Lambda and mu changing ----- 
Lambda = 129687
------Lambda and mu changing ----- 
Lambda = 142656
------Lambda and mu changing ----- 
Lambda = 156921
------Lambda and mu changing ----- 
Lambda = 172614
------Lambda and mu changing ----- 
Lambda = 189875
------Lambda and mu changing ----- 
Lambda = 208862
Convergence!! 
 Energy = 0.0626297 Average prices = 0.577296 Average squared = 0.99994 Del Norm = 0.000439569
Z = 0.0763333 Energy = 0.0626297 Overlap = 0.213431
Replacing constraints 
 -----------------------------
Running iteration number = 9
-----------------------------

------Lambda and mu changing ----- 
Lambda = 55000
------Lambda and mu changing ----- 
Lambda = 60500
------Lambda and mu changing ----- 
Lambda = 66550
------Lambda and mu changing ----- 
Lambda = 73205
------Lambda and mu changing ----- 
Lambda = 80525.5
------Lambda and mu changing ----- 
Lambda = 88578.1
------Lambda and mu changing ----- 
Lambda = 97435.9
------Lambda and mu changing ----- 
Lambda = 107179
------Lambda and mu changing ----- 
Lambda = 117897
------Lambda and mu changing ----- 
Lambda = 129687
------Lambda and mu changing ----- 
Lambda = 142656
------Lambda and mu changing ----- 
Lambda = 156921
------Lambda and mu changing ----- 
Lambda = 172614
------Lambda and mu changing ----- 
Lambda = 189875
------Lambda and mu changing ----- 
Lambda = 208862
Convergence!! 
 Energy = 0.0728614 Average prices = 0.577359 Average squared = 0.999909 Del Norm = 0.00025536
Z = 0.0843333 Energy = 0.0728614 Overlap = 0.246167
Replacing constraints 
 -----------------------------
Running iteration number = 10
-----------------------------

------Lambda and mu changing ----- 
Lambda = 55000
------Lambda and mu changing ----- 
Lambda = 60500
------Lambda and mu changing ----- 
Lambda = 66550
------Lambda and mu changing ----- 
Lambda = 73205
------Lambda and mu changing ----- 
Lambda = 80525.5
------Lambda and mu changing ----- 
Lambda = 88578.1
------Lambda and mu changing ----- 
Lambda = 97435.9
------Lambda and mu changing ----- 
Lambda = 107179
------Lambda and mu changing ----- 
Lambda = 117897
------Lambda and mu changing ----- 
Lambda = 129687
------Lambda and mu changing ----- 
Lambda = 142656
------Lambda and mu changing ----- 
Lambda = 156921
------Lambda and mu changing ----- 
Lambda = 172614
------Lambda and mu changing ----- 
Lambda = 189875
------Lambda and mu changing ----- 
Lambda = 208862
Convergence!! 
 Energy = 0.0733826 Average prices = 0.577319 Average squared = 0.999924 Del Norm = 0.00118456
Z = 0.0813333 Energy = 0.0733826 Overlap = 0.287689
Replacing constraints 
 -----------------------------
Running iteration number = 11
-----------------------------

------Lambda and mu changing ----- 
Lambda = 55000
------Lambda and mu changing ----- 
Lambda = 60500
------Lambda and mu changing ----- 
Lambda = 66550
------Lambda and mu changing ----- 
Lambda = 73205
------Lambda and mu changing ----- 
Lambda = 80525.5
------Lambda and mu changing ----- 
Lambda = 88578.1
------Lambda and mu changing ----- 
Lambda = 97435.9
------Lambda and mu changing ----- 
Lambda = 107179
------Lambda and mu changing ----- 
Lambda = 117897
------Lambda and mu changing ----- 
Lambda = 129687
------Lambda and mu changing ----- 
Lambda = 142656
------Lambda and mu changing ----- 
Lambda = 156921
------Lambda and mu changing ----- 
Lambda = 172614
------Lambda and mu changing ----- 
Lambda = 189875
------Lambda and mu changing ----- 
Lambda = 208862
Convergence!! 
 Energy = 0.0474833 Average prices = 0.577341 Average squared = 0.999942 Del Norm = 0.000156853
Z = 0.0693333 Energy = 0.0474833 Overlap = 0.289039
Replacing constraints 
 -----------------------------
Running iteration number = 12
-----------------------------

------Lambda and mu changing ----- 
Lambda = 55000
------Lambda and mu changing ----- 
Lambda = 60500
------Lambda and mu changing ----- 
Lambda = 66550
------Lambda and mu changing ----- 
Lambda = 73205
------Lambda and mu changing ----- 
Lambda = 80525.5
------Lambda and mu changing ----- 
Lambda = 88578.1
------Lambda and mu changing ----- 
Lambda = 97435.9
------Lambda and mu changing ----- 
Lambda = 107179
------Lambda and mu changing ----- 
Lambda = 117897
------Lambda and mu changing ----- 
Lambda = 129687
------Lambda and mu changing ----- 
Lambda = 142656
------Lambda and mu changing ----- 
Lambda = 156921
------Lambda and mu changing ----- 
Lambda = 172614
------Lambda and mu changing ----- 
Lambda = 189875
------Lambda and mu changing ----- 
Lambda = 208862
Convergence!! 
 Energy = 0.0488556 Average prices = 0.577311 Average squared = 0.99995 Del Norm = 0.00017204
Z = 0.0693333 Energy = 0.0488556 Overlap = 0.335412
Replacing constraints 
 -----------------------------
Running iteration number = 13
-----------------------------

------Lambda and mu changing ----- 
Lambda = 55000
------Lambda and mu changing ----- 
Lambda = 60500
------Lambda and mu changing ----- 
Lambda = 66550
------Lambda and mu changing ----- 
Lambda = 73205
------Lambda and mu changing ----- 
Lambda = 80525.5
------Lambda and mu changing ----- 
Lambda = 88578.1
------Lambda and mu changing ----- 
Lambda = 97435.9
------Lambda and mu changing ----- 
Lambda = 107179
------Lambda and mu changing ----- 
Lambda = 117897
------Lambda and mu changing ----- 
Lambda = 129687
------Lambda and mu changing ----- 
Lambda = 142656
------Lambda and mu changing ----- 
Lambda = 156921
------Lambda and mu changing ----- 
Lambda = 172614
------Lambda and mu changing ----- 
Lambda = 189875
------Lambda and mu changing ----- 
Lambda = 208862
Convergence!! 
 Energy = 0.0499187 Average prices = 0.577312 Average squared = 0.999951 Del Norm = 0.00291102
Z = 0.063 Energy = 0.0499187 Overlap = 0.335731
Replacing constraints 
 -----------------------------
Running iteration number = 14
-----------------------------

------Lambda and mu changing ----- 
Lambda = 55000
------Lambda and mu changing ----- 
Lambda = 60500
------Lambda and mu changing ----- 
Lambda = 66550
------Lambda and mu changing ----- 
Lambda = 73205
------Lambda and mu changing ----- 
Lambda = 80525.5
------Lambda and mu changing ----- 
Lambda = 88578.1
------Lambda and mu changing ----- 
Lambda = 97435.9
------Lambda and mu changing ----- 
Lambda = 107179
------Lambda and mu changing ----- 
Lambda = 117897
------Lambda and mu changing ----- 
Lambda = 129687
------Lambda and mu changing ----- 
Lambda = 142656
------Lambda and mu changing ----- 
Lambda = 156921
------Lambda and mu changing ----- 
Lambda = 172614
------Lambda and mu changing ----- 
Lambda = 189875
------Lambda and mu changing ----- 
Lambda = 208862
Convergence!! 
 Energy = 0.0118146 Average prices = 0.577352 Average squared = 0.999976 Del Norm = 0.0033491
Z = 0.0503333 Energy = 0.0118146 Overlap = 0.385651
Replacing constraints 
 -----------------------------
Running iteration number = 15
-----------------------------

------Lambda and mu changing ----- 
Lambda = 55000
------Lambda and mu changing ----- 
Lambda = 60500
------Lambda and mu changing ----- 
Lambda = 66550
------Lambda and mu changing ----- 
Lambda = 73205
------Lambda and mu changing ----- 
Lambda = 80525.5
------Lambda and mu changing ----- 
Lambda = 88578.1
------Lambda and mu changing ----- 
Lambda = 97435.9
------Lambda and mu changing ----- 
Lambda = 107179
------Lambda and mu changing ----- 
Lambda = 117897
------Lambda and mu changing ----- 
Lambda = 129687
------Lambda and mu changing ----- 
Lambda = 142656
------Lambda and mu changing ----- 
Lambda = 156921
------Lambda and mu changing ----- 
Lambda = 172614
------Lambda and mu changing ----- 
Lambda = 189875
------Lambda and mu changing ----- 
Lambda = 208862
Convergence!! 
 Energy = 0.0180364 Average prices = 0.577343 Average squared = 0.999973 Del Norm = 0.00465078
Z = 0.0513333 Energy = 0.0180364 Overlap = 0.290407
Replacing constraints 
 -----------------------------
Running iteration number = 16
-----------------------------

------Lambda and mu changing ----- 
Lambda = 55000
------Lambda and mu changing ----- 
Lambda = 60500
------Lambda and mu changing ----- 
Lambda = 66550
------Lambda and mu changing ----- 
Lambda = 73205
------Lambda and mu changing ----- 
Lambda = 80525.5
------Lambda and mu changing ----- 
Lambda = 88578.1
------Lambda and mu changing ----- 
Lambda = 97435.9
------Lambda and mu changing ----- 
Lambda = 107179
------Lambda and mu changing ----- 
Lambda = 117897
------Lambda and mu changing ----- 
Lambda = 129687
------Lambda and mu changing ----- 
Lambda = 142656
------Lambda and mu changing ----- 
Lambda = 156921
------Lambda and mu changing ----- 
Lambda = 172614
------Lambda and mu changing ----- 
Lambda = 189875
------Lambda and mu changing ----- 
Lambda = 208862
Convergence!! 
 Energy = 0.00839631 Average prices = 0.577357 Average squared = 0.99998 Del Norm = 0.00376776
Z = 0.0486667 Energy = 0.00839631 Overlap = 0.341318
Replacing constraints 
 -----------------------------
Running iteration number = 17
-----------------------------

------Lambda and mu changing ----- 
Lambda = 55000
------Lambda and mu changing ----- 
Lambda = 60500
------Lambda and mu changing ----- 
Lambda = 66550
------Lambda and mu changing ----- 
Lambda = 73205
------Lambda and mu changing ----- 
Lambda = 80525.5
------Lambda and mu changing ----- 
Lambda = 88578.1
------Lambda and mu changing ----- 
Lambda = 97435.9
------Lambda and mu changing ----- 
Lambda = 107179
------Lambda and mu changing ----- 
Lambda = 117897
------Lambda and mu changing ----- 
Lambda = 129687
------Lambda and mu changing ----- 
Lambda = 142656
------Lambda and mu changing ----- 
Lambda = 156921
------Lambda and mu changing ----- 
Lambda = 172614
------Lambda and mu changing ----- 
Lambda = 189875
------Lambda and mu changing ----- 
Lambda = 208862
Convergence!! 
 Energy = 0.00721761 Average prices = 0.577341 Average squared = 0.999987 Del Norm = 0.000942868
Z = 0.0426667 Energy = 0.00721761 Overlap = 0.312709
Replacing constraints 
 -----------------------------
Running iteration number = 18
-----------------------------

------Lambda and mu changing ----- 
Lambda = 55000
------Lambda and mu changing ----- 
Lambda = 60500
------Lambda and mu changing ----- 
Lambda = 66550
------Lambda and mu changing ----- 
Lambda = 73205
------Lambda and mu changing ----- 
Lambda = 80525.5
------Lambda and mu changing ----- 
Lambda = 88578.1
------Lambda and mu changing ----- 
Lambda = 97435.9
------Lambda and mu changing ----- 
Lambda = 107179
------Lambda and mu changing ----- 
Lambda = 117897
------Lambda and mu changing ----- 
Lambda = 129687
------Lambda and mu changing ----- 
Lambda = 142656
------Lambda and mu changing ----- 
Lambda = 156921
------Lambda and mu changing ----- 
Lambda = 172614
------Lambda and mu changing ----- 
Lambda = 189875
------Lambda and mu changing ----- 
Lambda = 208862
Convergence!! 
 Energy = 0.00674457 Average prices = 0.577326 Average squared = 0.999992 Del Norm = 0.0037169
Z = 0.039 Energy = 0.00674457 Overlap = 0.313532
Replacing constraints 
 -----------------------------
Running iteration number = 19
-----------------------------

------Lambda and mu changing ----- 
Lambda = 55000
------Lambda and mu changing ----- 
Lambda = 60500
------Lambda and mu changing ----- 
Lambda = 66550
------Lambda and mu changing ----- 
Lambda = 73205
------Lambda and mu changing ----- 
Lambda = 80525.5
------Lambda and mu changing ----- 
Lambda = 88578.1
------Lambda and mu changing ----- 
Lambda = 97435.9
------Lambda and mu changing ----- 
Lambda = 107179
------Lambda and mu changing ----- 
Lambda = 117897
------Lambda and mu changing ----- 
Lambda = 129687
------Lambda and mu changing ----- 
Lambda = 142656
------Lambda and mu changing ----- 
Lambda = 156921
------Lambda and mu changing ----- 
Lambda = 172614
------Lambda and mu changing ----- 
Lambda = 189875
------Lambda and mu changing ----- 
Lambda = 208862
Convergence!! 
 Energy = 0.00180949 Average prices = 0.577357 Average squared = 0.999991 Del Norm = 0.00247936
Z = 0.0386667 Energy = 0.00180949 Overlap = 0.301145
Replacing constraints 
 -----------------------------
Running iteration number = 20
-----------------------------

------Lambda and mu changing ----- 
Lambda = 55000
------Lambda and mu changing ----- 
Lambda = 60500
------Lambda and mu changing ----- 
Lambda = 66550
------Lambda and mu changing ----- 
Lambda = 73205
------Lambda and mu changing ----- 
Lambda = 80525.5
------Lambda and mu changing ----- 
Lambda = 88578.1
------Lambda and mu changing ----- 
Lambda = 97435.9
------Lambda and mu changing ----- 
Lambda = 107179
------Lambda and mu changing ----- 
Lambda = 117897
------Lambda and mu changing ----- 
Lambda = 129687
------Lambda and mu changing ----- 
Lambda = 142656
------Lambda and mu changing ----- 
Lambda = 156921
------Lambda and mu changing ----- 
Lambda = 172614
------Lambda and mu changing ----- 
Lambda = 189875
------Lambda and mu changing ----- 
Lambda = 208862
Convergence!! 
 Energy = 0.00441185 Average prices = 0.577353 Average squared = 0.999988 Del Norm = 0.00424075
Z = 0.0413333 Energy = 0.00441185 Overlap = 0.260584
Replacing constraints 
 -----------------------------
Running iteration number = 21
-----------------------------

------Lambda and mu changing ----- 
Lambda = 55000
------Lambda and mu changing ----- 
Lambda = 60500
------Lambda and mu changing ----- 
Lambda = 66550
------Lambda and mu changing ----- 
Lambda = 73205
------Lambda and mu changing ----- 
Lambda = 80525.5
------Lambda and mu changing ----- 
Lambda = 88578.1
------Lambda and mu changing ----- 
Lambda = 97435.9
------Lambda and mu changing ----- 
Lambda = 107179
------Lambda and mu changing ----- 
Lambda = 117897
------Lambda and mu changing ----- 
Lambda = 129687
------Lambda and mu changing ----- 
Lambda = 142656
------Lambda and mu changing ----- 
Lambda = 156921
------Lambda and mu changing ----- 
Lambda = 172614
------Lambda and mu changing ----- 
Lambda = 189875
------Lambda and mu changing ----- 
Lambda = 208862
Convergence!! 
 Energy = 0.000496216 Average prices = 0.577351 Average squared = 0.999997 Del Norm = 0.00137043
Z = 0.0336667 Energy = 0.000496216 Overlap = 0.325282
Replacing constraints 
 -----------------------------
Running iteration number = 22
-----------------------------

------Lambda and mu changing ----- 
Lambda = 55000
------Lambda and mu changing ----- 
Lambda = 60500
------Lambda and mu changing ----- 
Lambda = 66550
------Lambda and mu changing ----- 
Lambda = 73205
------Lambda and mu changing ----- 
Lambda = 80525.5
------Lambda and mu changing ----- 
Lambda = 88578.1
------Lambda and mu changing ----- 
Lambda = 97435.9
------Lambda and mu changing ----- 
Lambda = 107179
------Lambda and mu changing ----- 
Lambda = 117897
------Lambda and mu changing ----- 
Lambda = 129687
------Lambda and mu changing ----- 
Lambda = 142656
------Lambda and mu changing ----- 
Lambda = 156921
------Lambda and mu changing ----- 
Lambda = 172614
------Lambda and mu changing ----- 
Lambda = 189875
------Lambda and mu changing ----- 
Lambda = 208862
Convergence!! 
 Energy = 0.000468115 Average prices = 0.577348 Average squared = 0.999998 Del Norm = 0.00182026
Z = 0.0283333 Energy = 0.000468115 Overlap = 0.335715
Replacing constraints 
 -----------------------------
Running iteration number = 23
-----------------------------

------Lambda and mu changing ----- 
Lambda = 55000
------Lambda and mu changing ----- 
Lambda = 60500
------Lambda and mu changing ----- 
Lambda = 66550
------Lambda and mu changing ----- 
Lambda = 73205
------Lambda and mu changing ----- 
Lambda = 80525.5
------Lambda and mu changing ----- 
Lambda = 88578.1
------Lambda and mu changing ----- 
Lambda = 97435.9
------Lambda and mu changing ----- 
Lambda = 107179
------Lambda and mu changing ----- 
Lambda = 117897
------Lambda and mu changing ----- 
Lambda = 129687
------Lambda and mu changing ----- 
Lambda = 142656
------Lambda and mu changing ----- 
Lambda = 156921
------Lambda and mu changing ----- 
Lambda = 172614
------Lambda and mu changing ----- 
Lambda = 189875
------Lambda and mu changing ----- 
Lambda = 208862
Convergence!! 
 Energy = 0.00106084 Average prices = 0.577343 Average squared = 0.999998 Del Norm = 0.00183524
Z = 0.0306667 Energy = 0.00106084 Overlap = 0.323248
Replacing constraints 
 -----------------------------
Running iteration number = 24
-----------------------------

------Lambda and mu changing ----- 
Lambda = 55000
------Lambda and mu changing ----- 
Lambda = 60500
------Lambda and mu changing ----- 
Lambda = 66550
------Lambda and mu changing ----- 
Lambda = 73205
------Lambda and mu changing ----- 
Lambda = 80525.5
------Lambda and mu changing ----- 
Lambda = 88578.1
------Lambda and mu changing ----- 
Lambda = 97435.9
------Lambda and mu changing ----- 
Lambda = 107179
------Lambda and mu changing ----- 
Lambda = 117897
------Lambda and mu changing ----- 
Lambda = 129687
------Lambda and mu changing ----- 
Lambda = 142656
------Lambda and mu changing ----- 
Lambda = 156921
------Lambda and mu changing ----- 
Lambda = 172614
------Lambda and mu changing ----- 
Lambda = 189875
------Lambda and mu changing ----- 
Lambda = 208862
Convergence!! 
 Energy = 5.54521e-05 Average prices = 0.577351 Average squared = 0.999999 Del Norm = 0.000531364
Z = 0.0213333 Energy = 5.54521e-05 Overlap = 0.350884
Replacing constraints 
 -----------------------------
Running iteration number = 25
-----------------------------

------Lambda and mu changing ----- 
Lambda = 55000
------Lambda and mu changing ----- 
Lambda = 60500
------Lambda and mu changing ----- 
Lambda = 66550
------Lambda and mu changing ----- 
Lambda = 73205
------Lambda and mu changing ----- 
Lambda = 80525.5
------Lambda and mu changing ----- 
Lambda = 88578.1
------Lambda and mu changing ----- 
Lambda = 97435.9
------Lambda and mu changing ----- 
Lambda = 107179
------Lambda and mu changing ----- 
Lambda = 117897
------Lambda and mu changing ----- 
Lambda = 129687
------Lambda and mu changing ----- 
Lambda = 142656
Convergence!! 
 Energy = 1.25745e-07 Average prices = 0.57735 Average squared = 1 Del Norm = 4.99988e-06
Z = 0.0106667 Energy = 1.25745e-07 Overlap = 0.383207
Replacing constraints 
 -----------------------------
Running iteration number = 26
-----------------------------

------Lambda and mu changing ----- 
Lambda = 55000
------Lambda and mu changing ----- 
Lambda = 60500
------Lambda and mu changing ----- 
Lambda = 66550
------Lambda and mu changing ----- 
Lambda = 73205
------Lambda and mu changing ----- 
Lambda = 80525.5
------Lambda and mu changing ----- 
Lambda = 88578.1
------Lambda and mu changing ----- 
Lambda = 97435.9
------Lambda and mu changing ----- 
Lambda = 107179
------Lambda and mu changing ----- 
Lambda = 117897
------Lambda and mu changing ----- 
Lambda = 129687
------Lambda and mu changing ----- 
Lambda = 142656
------Lambda and mu changing ----- 
Lambda = 156921
------Lambda and mu changing ----- 
Lambda = 172614
------Lambda and mu changing ----- 
Lambda = 189875
------Lambda and mu changing ----- 
Lambda = 208862
Convergence!! 
 Energy = 3.72687e-05 Average prices = 0.577351 Average squared = 0.999999 Del Norm = 0.00039377
Z = 0.0183333 Energy = 3.72687e-05 Overlap = 0.422946
Replacing constraints 
 -----------------------------
Running iteration number = 27
-----------------------------

------Lambda and mu changing ----- 
Lambda = 55000
------Lambda and mu changing ----- 
Lambda = 60500
------Lambda and mu changing ----- 
Lambda = 66550
------Lambda and mu changing ----- 
Lambda = 73205
------Lambda and mu changing ----- 
Lambda = 80525.5
------Lambda and mu changing ----- 
Lambda = 88578.1
------Lambda and mu changing ----- 
Lambda = 97435.9
------Lambda and mu changing ----- 
Lambda = 107179
------Lambda and mu changing ----- 
Lambda = 117897
------Lambda and mu changing ----- 
Lambda = 129687
------Lambda and mu changing ----- 
Lambda = 142656
------Lambda and mu changing ----- 
Lambda = 156921
------Lambda and mu changing ----- 
Lambda = 172614
------Lambda and mu changing ----- 
Lambda = 189875
------Lambda and mu changing ----- 
Lambda = 208862
Convergence!! 
 Energy = 0.000448518 Average prices = 0.577351 Average squared = 0.999997 Del Norm = 0.00118082
Z = 0.0283333 Energy = 0.000448518 Overlap = 0.393254
Replacing constraints 
 -----------------------------
Running iteration number = 28
-----------------------------

------Lambda and mu changing ----- 
Lambda = 55000
------Lambda and mu changing ----- 
Lambda = 60500
------Lambda and mu changing ----- 
Lambda = 66550
------Lambda and mu changing ----- 
Lambda = 73205
------Lambda and mu changing ----- 
Lambda = 80525.5
------Lambda and mu changing ----- 
Lambda = 88578.1
------Lambda and mu changing ----- 
Lambda = 97435.9
------Lambda and mu changing ----- 
Lambda = 107179
------Lambda and mu changing ----- 
Lambda = 117897
------Lambda and mu changing ----- 
Lambda = 129687
------Lambda and mu changing ----- 
Lambda = 142656
------Lambda and mu changing ----- 
Lambda = 156921
------Lambda and mu changing ----- 
Lambda = 172614
------Lambda and mu changing ----- 
Lambda = 189875
------Lambda and mu changing ----- 
Lambda = 208862
Convergence!! 
 Energy = 0.00245353 Average prices = 0.577356 Average squared = 0.999991 Del Norm = 0.00440064
Z = 0.0323333 Energy = 0.00245353 Overlap = 0.328652
Replacing constraints 
 -----------------------------
Running iteration number = 29
-----------------------------

------Lambda and mu changing ----- 
Lambda = 55000
------Lambda and mu changing ----- 
Lambda = 60500
------Lambda and mu changing ----- 
Lambda = 66550
------Lambda and mu changing ----- 
Lambda = 73205
------Lambda and mu changing ----- 
Lambda = 80525.5
------Lambda and mu changing ----- 
Lambda = 88578.1
------Lambda and mu changing ----- 
Lambda = 97435.9
------Lambda and mu changing ----- 
Lambda = 107179
------Lambda and mu changing ----- 
Lambda = 117897
------Lambda and mu changing ----- 
Lambda = 129687
------Lambda and mu changing ----- 
Lambda = 142656
------Lambda and mu changing ----- 
Lambda = 156921
------Lambda and mu changing ----- 
Lambda = 172614
------Lambda and mu changing ----- 
Lambda = 189875
------Lambda and mu changing ----- 
Lambda = 208862
Convergence!! 
 Energy = 0.0106577 Average prices = 0.577337 Average squared = 0.999985 Del Norm = 0.00473074
Z = 0.0436667 Energy = 0.0106577 Overlap = 0.227741
Replacing constraints 
 -----------------------------
Running iteration number = 30
-----------------------------

------Lambda and mu changing ----- 
Lambda = 55000
------Lambda and mu changing ----- 
Lambda = 60500
------Lambda and mu changing ----- 
Lambda = 66550
------Lambda and mu changing ----- 
Lambda = 73205
------Lambda and mu changing ----- 
Lambda = 80525.5
------Lambda and mu changing ----- 
Lambda = 88578.1
------Lambda and mu changing ----- 
Lambda = 97435.9
------Lambda and mu changing ----- 
Lambda = 107179
------Lambda and mu changing ----- 
Lambda = 117897
------Lambda and mu changing ----- 
Lambda = 129687
------Lambda and mu changing ----- 
Lambda = 142656
------Lambda and mu changing ----- 
Lambda = 156921
------Lambda and mu changing ----- 
Lambda = 172614
------Lambda and mu changing ----- 
Lambda = 189875
------Lambda and mu changing ----- 
Lambda = 208862
Convergence!! 
 Energy = 0.00700871 Average prices = 0.577346 Average squared = 0.999986 Del Norm = 0.0122087
Z = 0.0413333 Energy = 0.00700871 Overlap = 0.253231
Replacing constraints 
 -----------------------------
Running iteration number = 31
-----------------------------

------Lambda and mu changing ----- 
Lambda = 55000
------Lambda and mu changing ----- 
Lambda = 60500
------Lambda and mu changing ----- 
Lambda = 66550
------Lambda and mu changing ----- 
Lambda = 73205
------Lambda and mu changing ----- 
Lambda = 80525.5
------Lambda and mu changing ----- 
Lambda = 88578.1
------Lambda and mu changing ----- 
Lambda = 97435.9
------Lambda and mu changing ----- 
Lambda = 107179
------Lambda and mu changing ----- 
Lambda = 117897
------Lambda and mu changing ----- 
Lambda = 129687
------Lambda and mu changing ----- 
Lambda = 142656
------Lambda and mu changing ----- 
Lambda = 156921
------Lambda and mu changing ----- 
Lambda = 172614
------Lambda and mu changing ----- 
Lambda = 189875
------Lambda and mu changing ----- 
Lambda = 208862
Convergence!! 
 Energy = 0.00388016 Average prices = 0.577351 Average squared = 0.999989 Del Norm = 0.00149966
Z = 0.042 Energy = 0.00388016 Overlap = 0.322715
Replacing constraints 
 -----------------------------
Running iteration number = 32
-----------------------------

------Lambda and mu changing ----- 
Lambda = 55000
------Lambda and mu changing ----- 
Lambda = 60500
------Lambda and mu changing ----- 
Lambda = 66550
------Lambda and mu changing ----- 
Lambda = 73205
------Lambda and mu changing ----- 
Lambda = 80525.5
------Lambda and mu changing ----- 
Lambda = 88578.1
------Lambda and mu changing ----- 
Lambda = 97435.9
------Lambda and mu changing ----- 
Lambda = 107179
------Lambda and mu changing ----- 
Lambda = 117897
------Lambda and mu changing ----- 
Lambda = 129687
------Lambda and mu changing ----- 
Lambda = 142656
------Lambda and mu changing ----- 
Lambda = 156921
------Lambda and mu changing ----- 
Lambda = 172614
------Lambda and mu changing ----- 
Lambda = 189875
------Lambda and mu changing ----- 
Lambda = 208862
Convergence!! 
 Energy = 0.00615151 Average prices = 0.577336 Average squared = 0.999991 Del Norm = 0.00258225
Z = 0.039 Energy = 0.00615151 Overlap = 0.292661
Replacing constraints 
 -----------------------------
Running iteration number = 33
-----------------------------

------Lambda and mu changing ----- 
Lambda = 55000
------Lambda and mu changing ----- 
Lambda = 60500
------Lambda and mu changing ----- 
Lambda = 66550
------Lambda and mu changing ----- 
Lambda = 73205
------Lambda and mu changing ----- 
Lambda = 80525.5
------Lambda and mu changing ----- 
Lambda = 88578.1
------Lambda and mu changing ----- 
Lambda = 97435.9
------Lambda and mu changing ----- 
Lambda = 107179
------Lambda and mu changing ----- 
Lambda = 117897
------Lambda and mu changing ----- 
Lambda = 129687
------Lambda and mu changing ----- 
Lambda = 142656
------Lambda and mu changing ----- 
Lambda = 156921
------Lambda and mu changing ----- 
Lambda = 172614
------Lambda and mu changing ----- 
Lambda = 189875
------Lambda and mu changing ----- 
Lambda = 208862
Convergence!! 
 Energy = 0.000867716 Average prices = 0.577349 Average squared = 0.999996 Del Norm = 0.00338393
Z = 0.033 Energy = 0.000867716 Overlap = 0.366516
Replacing constraints 
 -----------------------------
Running iteration number = 34
-----------------------------

------Lambda and mu changing ----- 
Lambda = 55000
------Lambda and mu changing ----- 
Lambda = 60500
------Lambda and mu changing ----- 
Lambda = 66550
------Lambda and mu changing ----- 
Lambda = 73205
------Lambda and mu changing ----- 
Lambda = 80525.5
------Lambda and mu changing ----- 
Lambda = 88578.1
------Lambda and mu changing ----- 
Lambda = 97435.9
------Lambda and mu changing ----- 
Lambda = 107179
------Lambda and mu changing ----- 
Lambda = 117897
------Lambda and mu changing ----- 
Lambda = 129687
------Lambda and mu changing ----- 
Lambda = 142656
------Lambda and mu changing ----- 
Lambda = 156921
------Lambda and mu changing ----- 
Lambda = 172614
------Lambda and mu changing ----- 
Lambda = 189875
------Lambda and mu changing ----- 
Lambda = 208862
Convergence!! 
 Energy = 0.00115199 Average prices = 0.577345 Average squared = 0.999996 Del Norm = 0.00166535
Z = 0.0316667 Energy = 0.00115199 Overlap = 0.392594
Replacing constraints 
 -----------------------------
Running iteration number = 35
-----------------------------

------Lambda and mu changing ----- 
Lambda = 55000
------Lambda and mu changing ----- 
Lambda = 60500
------Lambda and mu changing ----- 
Lambda = 66550
------Lambda and mu changing ----- 
Lambda = 73205
------Lambda and mu changing ----- 
Lambda = 80525.5
------Lambda and mu changing ----- 
Lambda = 88578.1
------Lambda and mu changing ----- 
Lambda = 97435.9
------Lambda and mu changing ----- 
Lambda = 107179
------Lambda and mu changing ----- 
Lambda = 117897
------Lambda and mu changing ----- 
Lambda = 129687
------Lambda and mu changing ----- 
Lambda = 142656
------Lambda and mu changing ----- 
Lambda = 156921
------Lambda and mu changing ----- 
Lambda = 172614
------Lambda and mu changing ----- 
Lambda = 189875
------Lambda and mu changing ----- 
Lambda = 208862
Convergence!! 
 Energy = 0.00270178 Average prices = 0.577353 Average squared = 0.999991 Del Norm = 0.00609667
Z = 0.0396667 Energy = 0.00270178 Overlap = 0.336271
Replacing constraints 
 -----------------------------
Running iteration number = 36
-----------------------------

------Lambda and mu changing ----- 
Lambda = 55000
------Lambda and mu changing ----- 
Lambda = 60500
------Lambda and mu changing ----- 
Lambda = 66550
------Lambda and mu changing ----- 
Lambda = 73205
------Lambda and mu changing ----- 
Lambda = 80525.5
------Lambda and mu changing ----- 
Lambda = 88578.1
------Lambda and mu changing ----- 
Lambda = 97435.9
------Lambda and mu changing ----- 
Lambda = 107179
------Lambda and mu changing ----- 
Lambda = 117897
------Lambda and mu changing ----- 
Lambda = 129687
------Lambda and mu changing ----- 
Lambda = 142656
------Lambda and mu changing ----- 
Lambda = 156921
------Lambda and mu changing ----- 
Lambda = 172614
------Lambda and mu changing ----- 
Lambda = 189875
------Lambda and mu changing ----- 
Lambda = 208862
Convergence!! 
 Energy = 0.00118459 Average prices = 0.577348 Average squared = 0.999996 Del Norm = 0.0030371
Z = 0.0326667 Energy = 0.00118459 Overlap = 0.337546
Replacing constraints 
 -----------------------------
Running iteration number = 37
-----------------------------

------Lambda and mu changing ----- 
Lambda = 55000
------Lambda and mu changing ----- 
Lambda = 60500
------Lambda and mu changing ----- 
Lambda = 66550
------Lambda and mu changing ----- 
Lambda = 73205
------Lambda and mu changing ----- 
Lambda = 80525.5
------Lambda and mu changing ----- 
Lambda = 88578.1
------Lambda and mu changing ----- 
Lambda = 97435.9
------Lambda and mu changing ----- 
Lambda = 107179
------Lambda and mu changing ----- 
Lambda = 117897
------Lambda and mu changing ----- 
Lambda = 129687
------Lambda and mu changing ----- 
Lambda = 142656
------Lambda and mu changing ----- 
Lambda = 156921
------Lambda and mu changing ----- 
Lambda = 172614
------Lambda and mu changing ----- 
Lambda = 189875
------Lambda and mu changing ----- 
Lambda = 208862
Convergence!! 
 Energy = 0.000385605 Average prices = 0.57735 Average squared = 0.999997 Del Norm = 0.00115876
Z = 0.0293333 Energy = 0.000385605 Overlap = 0.317688
Replacing constraints 
 -----------------------------
Running iteration number = 38
-----------------------------

------Lambda and mu changing ----- 
Lambda = 55000
------Lambda and mu changing ----- 
Lambda = 60500
------Lambda and mu changing ----- 
Lambda = 66550
------Lambda and mu changing ----- 
Lambda = 73205
------Lambda and mu changing ----- 
Lambda = 80525.5
------Lambda and mu changing ----- 
Lambda = 88578.1
------Lambda and mu changing ----- 
Lambda = 97435.9
------Lambda and mu changing ----- 
Lambda = 107179
------Lambda and mu changing ----- 
Lambda = 117897
------Lambda and mu changing ----- 
Lambda = 129687
------Lambda and mu changing ----- 
Lambda = 142656
------Lambda and mu changing ----- 
Lambda = 156921
------Lambda and mu changing ----- 
Lambda = 172614
------Lambda and mu changing ----- 
Lambda = 189875
------Lambda and mu changing ----- 
Lambda = 208862
Convergence!! 
 Energy = 0.00219115 Average prices = 0.577347 Average squared = 0.999993 Del Norm = 0.00154035
Z = 0.0366667 Energy = 0.00219115 Overlap = 0.32649
Replacing constraints 
 -----------------------------
Running iteration number = 39
-----------------------------

------Lambda and mu changing ----- 
Lambda = 55000
------Lambda and mu changing ----- 
Lambda = 60500
------Lambda and mu changing ----- 
Lambda = 66550
------Lambda and mu changing ----- 
Lambda = 73205
------Lambda and mu changing ----- 
Lambda = 80525.5
------Lambda and mu changing ----- 
Lambda = 88578.1
------Lambda and mu changing ----- 
Lambda = 97435.9
------Lambda and mu changing ----- 
Lambda = 107179
------Lambda and mu changing ----- 
Lambda = 117897
------Lambda and mu changing ----- 
Lambda = 129687
------Lambda and mu changing ----- 
Lambda = 142656
------Lambda and mu changing ----- 
Lambda = 156921
------Lambda and mu changing ----- 
Lambda = 172614
------Lambda and mu changing ----- 
Lambda = 189875
------Lambda and mu changing ----- 
Lambda = 208862
Convergence!! 
 Energy = 0.00115167 Average prices = 0.577349 Average squared = 0.999996 Del Norm = 0.00335582
Z = 0.0326667 Energy = 0.00115167 Overlap = 0.320209
Replacing constraints 
 -----------------------------
Running iteration number = 40
-----------------------------

------Lambda and mu changing ----- 
Lambda = 55000
------Lambda and mu changing ----- 
Lambda = 60500
------Lambda and mu changing ----- 
Lambda = 66550
------Lambda and mu changing ----- 
Lambda = 73205
------Lambda and mu changing ----- 
Lambda = 80525.5
------Lambda and mu changing ----- 
Lambda = 88578.1
------Lambda and mu changing ----- 
Lambda = 97435.9
------Lambda and mu changing ----- 
Lambda = 107179
------Lambda and mu changing ----- 
Lambda = 117897
------Lambda and mu changing ----- 
Lambda = 129687
------Lambda and mu changing ----- 
Lambda = 142656
------Lambda and mu changing ----- 
Lambda = 156921
------Lambda and mu changing ----- 
Lambda = 172614
------Lambda and mu changing ----- 
Lambda = 189875
------Lambda and mu changing ----- 
Lambda = 208862
Convergence!! 
 Energy = 0.00225767 Average prices = 0.577347 Average squared = 0.999994 Del Norm = 0.0038569
Z = 0.0326667 Energy = 0.00225767 Overlap = 0.271158
Replacing constraints 
 -----------------------------
Running iteration number = 41
-----------------------------

------Lambda and mu changing ----- 
Lambda = 55000
------Lambda and mu changing ----- 
Lambda = 60500
------Lambda and mu changing ----- 
Lambda = 66550
------Lambda and mu changing ----- 
Lambda = 73205
------Lambda and mu changing ----- 
Lambda = 80525.5
------Lambda and mu changing ----- 
Lambda = 88578.1
------Lambda and mu changing ----- 
Lambda = 97435.9
------Lambda and mu changing ----- 
Lambda = 107179
------Lambda and mu changing ----- 
Lambda = 117897
------Lambda and mu changing ----- 
Lambda = 129687
------Lambda and mu changing ----- 
Lambda = 142656
------Lambda and mu changing ----- 
Lambda = 156921
------Lambda and mu changing ----- 
Lambda = 172614
------Lambda and mu changing ----- 
Lambda = 189875
------Lambda and mu changing ----- 
Lambda = 208862
Convergence!! 
 Energy = 0.00328763 Average prices = 0.577346 Average squared = 0.999992 Del Norm = 0.00655519
Z = 0.035 Energy = 0.00328763 Overlap = 0.318728
Replacing constraints 
 -----------------------------
Running iteration number = 42
-----------------------------

------Lambda and mu changing ----- 
Lambda = 55000
------Lambda and mu changing ----- 
Lambda = 60500
------Lambda and mu changing ----- 
Lambda = 66550
------Lambda and mu changing ----- 
Lambda = 73205
------Lambda and mu changing ----- 
Lambda = 80525.5
------Lambda and mu changing ----- 
Lambda = 88578.1
------Lambda and mu changing ----- 
Lambda = 97435.9
------Lambda and mu changing ----- 
Lambda = 107179
------Lambda and mu changing ----- 
Lambda = 117897
------Lambda and mu changing ----- 
Lambda = 129687
------Lambda and mu changing ----- 
Lambda = 142656
------Lambda and mu changing ----- 
Lambda = 156921
------Lambda and mu changing ----- 
Lambda = 172614
------Lambda and mu changing ----- 
Lambda = 189875
------Lambda and mu changing ----- 
Lambda = 208862
Convergence!! 
 Energy = 0.00171228 Average prices = 0.577348 Average squared = 0.999994 Del Norm = 0.00470517
Z = 0.034 Energy = 0.00171228 Overlap = 0.340726
Replacing constraints 
 -----------------------------
Running iteration number = 43
-----------------------------

------Lambda and mu changing ----- 
Lambda = 55000
------Lambda and mu changing ----- 
Lambda = 60500
------Lambda and mu changing ----- 
Lambda = 66550
------Lambda and mu changing ----- 
Lambda = 73205
------Lambda and mu changing ----- 
Lambda = 80525.5
------Lambda and mu changing ----- 
Lambda = 88578.1
------Lambda and mu changing ----- 
Lambda = 97435.9
------Lambda and mu changing ----- 
Lambda = 107179
------Lambda and mu changing ----- 
Lambda = 117897
------Lambda and mu changing ----- 
Lambda = 129687
------Lambda and mu changing ----- 
Lambda = 142656
------Lambda and mu changing ----- 
Lambda = 156921
------Lambda and mu changing ----- 
Lambda = 172614
------Lambda and mu changing ----- 
Lambda = 189875
------Lambda and mu changing ----- 
Lambda = 208862
Convergence!! 
 Energy = 0.00167438 Average prices = 0.577353 Average squared = 0.999993 Del Norm = 0.00425286
Z = 0.0323333 Energy = 0.00167438 Overlap = 0.319947
Replacing constraints 
 -----------------------------
Running iteration number = 44
-----------------------------

------Lambda and mu changing ----- 
Lambda = 55000
------Lambda and mu changing ----- 
Lambda = 60500
------Lambda and mu changing ----- 
Lambda = 66550
------Lambda and mu changing ----- 
Lambda = 73205
------Lambda and mu changing ----- 
Lambda = 80525.5
------Lambda and mu changing ----- 
Lambda = 88578.1
------Lambda and mu changing ----- 
Lambda = 97435.9
------Lambda and mu changing ----- 
Lambda = 107179
------Lambda and mu changing ----- 
Lambda = 117897
------Lambda and mu changing ----- 
Lambda = 129687
------Lambda and mu changing ----- 
Lambda = 142656
------Lambda and mu changing ----- 
Lambda = 156921
------Lambda and mu changing ----- 
Lambda = 172614
------Lambda and mu changing ----- 
Lambda = 189875
------Lambda and mu changing ----- 
Lambda = 208862
Convergence!! 
 Energy = 0.000635316 Average prices = 0.577348 Average squared = 0.999997 Del Norm = 0.0025612
Z = 0.03 Energy = 0.000635316 Overlap = 0.245201
Replacing constraints 
 -----------------------------
Running iteration number = 45
-----------------------------

------Lambda and mu changing ----- 
Lambda = 55000
------Lambda and mu changing ----- 
Lambda = 60500
------Lambda and mu changing ----- 
Lambda = 66550
------Lambda and mu changing ----- 
Lambda = 73205
------Lambda and mu changing ----- 
Lambda = 80525.5
------Lambda and mu changing ----- 
Lambda = 88578.1
------Lambda and mu changing ----- 
Lambda = 97435.9
------Lambda and mu changing ----- 
Lambda = 107179
------Lambda and mu changing ----- 
Lambda = 117897
------Lambda and mu changing ----- 
Lambda = 129687
------Lambda and mu changing ----- 
Lambda = 142656
------Lambda and mu changing ----- 
Lambda = 156921
------Lambda and mu changing ----- 
Lambda = 172614
------Lambda and mu changing ----- 
Lambda = 189875
------Lambda and mu changing ----- 
Lambda = 208862
Convergence!! 
 Energy = 0.000699519 Average prices = 0.577352 Average squared = 0.999996 Del Norm = 0.00296395
Z = 0.029 Energy = 0.000699519 Overlap = 0.314215
Replacing constraints 
 -----------------------------
Running iteration number = 46
-----------------------------

------Lambda and mu changing ----- 
Lambda = 55000
------Lambda and mu changing ----- 
Lambda = 60500
------Lambda and mu changing ----- 
Lambda = 66550
------Lambda and mu changing ----- 
Lambda = 73205
------Lambda and mu changing ----- 
Lambda = 80525.5
------Lambda and mu changing ----- 
Lambda = 88578.1
------Lambda and mu changing ----- 
Lambda = 97435.9
------Lambda and mu changing ----- 
Lambda = 107179
------Lambda and mu changing ----- 
Lambda = 117897
------Lambda and mu changing ----- 
Lambda = 129687
------Lambda and mu changing ----- 
Lambda = 142656
------Lambda and mu changing ----- 
Lambda = 156921
------Lambda and mu changing ----- 
Lambda = 172614
------Lambda and mu changing ----- 
Lambda = 189875
------Lambda and mu changing ----- 
Lambda = 208862
Convergence!! 
 Energy = 0.00013199 Average prices = 0.577349 Average squared = 0.999999 Del Norm = 0.000642503
Z = 0.0233333 Energy = 0.00013199 Overlap = 0.329552
Replacing constraints 
 -----------------------------
Running iteration number = 47
-----------------------------

------Lambda and mu changing ----- 
Lambda = 55000
------Lambda and mu changing ----- 
Lambda = 60500
------Lambda and mu changing ----- 
Lambda = 66550
------Lambda and mu changing ----- 
Lambda = 73205
------Lambda and mu changing ----- 
Lambda = 80525.5
------Lambda and mu changing ----- 
Lambda = 88578.1
------Lambda and mu changing ----- 
Lambda = 97435.9
------Lambda and mu changing ----- 
Lambda = 107179
------Lambda and mu changing ----- 
Lambda = 117897
------Lambda and mu changing ----- 
Lambda = 129687
------Lambda and mu changing ----- 
Lambda = 142656
------Lambda and mu changing ----- 
Lambda = 156921
------Lambda and mu changing ----- 
Lambda = 172614
------Lambda and mu changing ----- 
Lambda = 189875
------Lambda and mu changing ----- 
Lambda = 208862
Convergence!! 
 Energy = 1.80107e-05 Average prices = 0.57735 Average squared = 0.999999 Del Norm = 0.000258128
Z = 0.0196667 Energy = 1.80107e-05 Overlap = 0.300087
Replacing constraints 
 -----------------------------
Running iteration number = 48
-----------------------------

------Lambda and mu changing ----- 
Lambda = 55000
------Lambda and mu changing ----- 
Lambda = 60500
------Lambda and mu changing ----- 
Lambda = 66550
------Lambda and mu changing ----- 
Lambda = 73205
------Lambda and mu changing ----- 
Lambda = 80525.5
------Lambda and mu changing ----- 
Lambda = 88578.1
------Lambda and mu changing ----- 
Lambda = 97435.9
------Lambda and mu changing ----- 
Lambda = 107179
------Lambda and mu changing ----- 
Lambda = 117897
------Lambda and mu changing ----- 
Lambda = 129687
------Lambda and mu changing ----- 
Lambda = 142656
------Lambda and mu changing ----- 
Lambda = 156921
------Lambda and mu changing ----- 
Lambda = 172614
------Lambda and mu changing ----- 
Lambda = 189875
------Lambda and mu changing ----- 
Lambda = 208862
Convergence!! 
 Energy = 4.89976e-06 Average prices = 0.57735 Average squared = 1 Del Norm = 6.77016e-05
Z = 0.0156667 Energy = 4.89976e-06 Overlap = 0.310713
Replacing constraints 
 -----------------------------
Running iteration number = 49
-----------------------------

------Lambda and mu changing ----- 
Lambda = 55000
------Lambda and mu changing ----- 
Lambda = 60500
------Lambda and mu changing ----- 
Lambda = 66550
------Lambda and mu changing ----- 
Lambda = 73205
------Lambda and mu changing ----- 
Lambda = 80525.5
------Lambda and mu changing ----- 
Lambda = 88578.1
------Lambda and mu changing ----- 
Lambda = 97435.9
------Lambda and mu changing ----- 
Lambda = 107179
------Lambda and mu changing ----- 
Lambda = 117897
------Lambda and mu changing ----- 
Lambda = 129687
------Lambda and mu changing ----- 
Lambda = 142656
------Lambda and mu changing ----- 
Lambda = 156921
------Lambda and mu changing ----- 
Lambda = 172614
------Lambda and mu changing ----- 
Lambda = 189875
------Lambda and mu changing ----- 
Lambda = 208862
Convergence!! 
 Energy = 5.06034e-07 Average prices = 0.57735 Average squared = 1 Del Norm = 1.0977e-05
Z = 0.0153333 Energy = 5.06034e-07 Overlap = 0.277961
Replacing constraints 
 -----------------------------
Running iteration number = 50
-----------------------------

------Lambda and mu changing ----- 
Lambda = 55000
------Lambda and mu changing ----- 
Lambda = 60500
------Lambda and mu changing ----- 
Lambda = 66550
------Lambda and mu changing ----- 
Lambda = 73205
------Lambda and mu changing ----- 
Lambda = 80525.5
------Lambda and mu changing ----- 
Lambda = 88578.1
------Lambda and mu changing ----- 
Lambda = 97435.9
------Lambda and mu changing ----- 
Lambda = 107179
------Lambda and mu changing ----- 
Lambda = 117897
------Lambda and mu changing ----- 
Lambda = 129687
------Lambda and mu changing ----- 
Lambda = 142656
------Lambda and mu changing ----- 
Lambda = 156921
------Lambda and mu changing ----- 
Lambda = 172614
------Lambda and mu changing ----- 
Lambda = 189875
------Lambda and mu changing ----- 
Lambda = 208862
Convergence!! 
 Energy = 4.10632e-05 Average prices = 0.57735 Average squared = 0.999999 Del Norm = 0.000418417
Z = 0.017 Energy = 4.10632e-05 Overlap = 0.288614
Replacing constraints 
 -----------------------------
Running iteration number = 51
-----------------------------

------Lambda and mu changing ----- 
Lambda = 55000
------Lambda and mu changing ----- 
Lambda = 60500
------Lambda and mu changing ----- 
Lambda = 66550
------Lambda and mu changing ----- 
Lambda = 73205
------Lambda and mu changing ----- 
Lambda = 80525.5
------Lambda and mu changing ----- 
Lambda = 88578.1
------Lambda and mu changing ----- 
Lambda = 97435.9
------Lambda and mu changing ----- 
Lambda = 107179
------Lambda and mu changing ----- 
Lambda = 117897
------Lambda and mu changing ----- 
Lambda = 129687
------Lambda and mu changing ----- 
Lambda = 142656
------Lambda and mu changing ----- 
Lambda = 156921
------Lambda and mu changing ----- 
Lambda = 172614
------Lambda and mu changing ----- 
Lambda = 189875
------Lambda and mu changing ----- 
Lambda = 208862
Convergence!! 
 Energy = 2.61527e-07 Average prices = 0.57735 Average squared = 1 Del Norm = 7.7219e-06
Z = 0.013 Energy = 2.61527e-07 Overlap = 0.364992
Replacing constraints 
 -----------------------------
Running iteration number = 52
-----------------------------

------Lambda and mu changing ----- 
Lambda = 55000
------Lambda and mu changing ----- 
Lambda = 60500
------Lambda and mu changing ----- 
Lambda = 66550
------Lambda and mu changing ----- 
Lambda = 73205
------Lambda and mu changing ----- 
Lambda = 80525.5
------Lambda and mu changing ----- 
Lambda = 88578.1
------Lambda and mu changing ----- 
Lambda = 97435.9
------Lambda and mu changing ----- 
Lambda = 107179
------Lambda and mu changing ----- 
Lambda = 117897
------Lambda and mu changing ----- 
Lambda = 129687
------Lambda and mu changing ----- 
Lambda = 142656
------Lambda and mu changing ----- 
Lambda = 156921
------Lambda and mu changing ----- 
Lambda = 172614
------Lambda and mu changing ----- 
Lambda = 189875
------Lambda and mu changing ----- 
Lambda = 208862
Convergence!! 
 Energy = 1.555e-07 Average prices = 0.57735 Average squared = 1 Del Norm = 4.99996e-06
Z = 0.0133333 Energy = 1.555e-07 Overlap = 0.402822
Replacing constraints 
 -----------------------------
Running iteration number = 53
-----------------------------

------Lambda and mu changing ----- 
Lambda = 55000
------Lambda and mu changing ----- 
Lambda = 60500
------Lambda and mu changing ----- 
Lambda = 66550
------Lambda and mu changing ----- 
Lambda = 73205
------Lambda and mu changing ----- 
Lambda = 80525.5
------Lambda and mu changing ----- 
Lambda = 88578.1
------Lambda and mu changing ----- 
Lambda = 97435.9
------Lambda and mu changing ----- 
Lambda = 107179
------Lambda and mu changing ----- 
Lambda = 117897
------Lambda and mu changing ----- 
Lambda = 129687
------Lambda and mu changing ----- 
Lambda = 142656
------Lambda and mu changing ----- 
Lambda = 156921
------Lambda and mu changing ----- 
Lambda = 172614
------Lambda and mu changing ----- 
Lambda = 189875
------Lambda and mu changing ----- 
Lambda = 208862
Convergence!! 
 Energy = 0.000112568 Average prices = 0.57735 Average squared = 0.999999 Del Norm = 0.00072479
Z = 0.0223333 Energy = 0.000112568 Overlap = 0.351201
Replacing constraints 
 -----------------------------
Running iteration number = 54
-----------------------------

------Lambda and mu changing ----- 
Lambda = 55000
------Lambda and mu changing ----- 
Lambda = 60500
------Lambda and mu changing ----- 
Lambda = 66550
------Lambda and mu changing ----- 
Lambda = 73205
------Lambda and mu changing ----- 
Lambda = 80525.5
------Lambda and mu changing ----- 
Lambda = 88578.1
------Lambda and mu changing ----- 
Lambda = 97435.9
------Lambda and mu changing ----- 
Lambda = 107179
------Lambda and mu changing ----- 
Lambda = 117897
Convergence!! 
 Energy = 9.23929e-08 Average prices = 0.57735 Average squared = 1 Del Norm = 4.99981e-06
Z = 0.00833333 Energy = 9.23929e-08 Overlap = 0.330953
Replacing constraints 
 -----------------------------
Running iteration number = 55
-----------------------------

------Lambda and mu changing ----- 
Lambda = 55000
------Lambda and mu changing ----- 
Lambda = 60500
------Lambda and mu changing ----- 
Lambda = 66550
------Lambda and mu changing ----- 
Lambda = 73205
------Lambda and mu changing ----- 
Lambda = 80525.5
------Lambda and mu changing ----- 
Lambda = 88578.1
------Lambda and mu changing ----- 
Lambda = 97435.9
------Lambda and mu changing ----- 
Lambda = 107179
------Lambda and mu changing ----- 
Lambda = 117897
------Lambda and mu changing ----- 
Lambda = 129687
Convergence!! 
 Energy = 9.93514e-08 Average prices = 0.57735 Average squared = 1 Del Norm = 4.99983e-06
Z = 0.00733333 Energy = 9.93514e-08 Overlap = 0.319475
Replacing constraints 
 -----------------------------
Running iteration number = 56
-----------------------------

------Lambda and mu changing ----- 
Lambda = 55000
------Lambda and mu changing ----- 
Lambda = 60500
------Lambda and mu changing ----- 
Lambda = 66550
------Lambda and mu changing ----- 
Lambda = 73205
------Lambda and mu changing ----- 
Lambda = 80525.5
Convergence!! 
 Energy = 5.1438e-08 Average prices = 0.57735 Average squared = 1 Del Norm = 4.99969e-06
Z = 0.00366667 Energy = 5.1438e-08 Overlap = 0.318244
Replacing constraints 
 -----------------------------
Running iteration number = 57
-----------------------------

------Lambda and mu changing ----- 
Lambda = 55000
------Lambda and mu changing ----- 
Lambda = 60500
------Lambda and mu changing ----- 
Lambda = 66550
------Lambda and mu changing ----- 
Lambda = 73205
------Lambda and mu changing ----- 
Lambda = 80525.5
------Lambda and mu changing ----- 
Lambda = 88578.1
Convergence!! 
 Energy = 5.69393e-08 Average prices = 0.57735 Average squared = 1 Del Norm = 4.99996e-06
Z = 0.00433333 Energy = 5.69393e-08 Overlap = 0.34591
Replacing constraints 
 -----------------------------
Running iteration number = 58
-----------------------------

------Lambda and mu changing ----- 
Lambda = 55000
------Lambda and mu changing ----- 
Lambda = 60500
------Lambda and mu changing ----- 
Lambda = 66550
------Lambda and mu changing ----- 
Lambda = 73205
------Lambda and mu changing ----- 
Lambda = 80525.5
------Lambda and mu changing ----- 
Lambda = 88578.1
Convergence!! 
 Energy = 6.71754e-08 Average prices = 0.57735 Average squared = 1 Del Norm = 4.99999e-06
Z = 0.006 Energy = 6.71754e-08 Overlap = 0.365473
Replacing constraints 
 -----------------------------
Running iteration number = 59
-----------------------------

------Lambda and mu changing ----- 
Lambda = 55000
------Lambda and mu changing ----- 
Lambda = 60500
------Lambda and mu changing ----- 
Lambda = 66550
------Lambda and mu changing ----- 
Lambda = 73205
------Lambda and mu changing ----- 
Lambda = 80525.5
------Lambda and mu changing ----- 
Lambda = 88578.1
------Lambda and mu changing ----- 
Lambda = 97435.9
------Lambda and mu changing ----- 
Lambda = 107179
------Lambda and mu changing ----- 
Lambda = 117897
------Lambda and mu changing ----- 
Lambda = 129687
------Lambda and mu changing ----- 
Lambda = 142656
------Lambda and mu changing ----- 
Lambda = 156921
------Lambda and mu changing ----- 
Lambda = 172614
------Lambda and mu changing ----- 
Lambda = 189875
Convergence!! 
 Energy = 1.45432e-07 Average prices = 0.57735 Average squared = 1 Del Norm = 4.99996e-06
Z = 0.0113333 Energy = 1.45432e-07 Overlap = 0.343744
Replacing constraints 
 -----------------------------
Running iteration number = 60
-----------------------------

------Lambda and mu changing ----- 
Lambda = 55000
------Lambda and mu changing ----- 
Lambda = 60500
------Lambda and mu changing ----- 
Lambda = 66550
------Lambda and mu changing ----- 
Lambda = 73205
------Lambda and mu changing ----- 
Lambda = 80525.5
------Lambda and mu changing ----- 
Lambda = 88578.1
------Lambda and mu changing ----- 
Lambda = 97435.9
------Lambda and mu changing ----- 
Lambda = 107179
Convergence!! 
 Energy = 1.00034e-07 Average prices = 0.57735 Average squared = 1 Del Norm = 4.99987e-06
Z = 0.00866667 Energy = 1.00034e-07 Overlap = 0.346558
Replacing constraints 
 -----------------------------
Running iteration number = 61
-----------------------------

------Lambda and mu changing ----- 
Lambda = 55000
------Lambda and mu changing ----- 
Lambda = 60500
------Lambda and mu changing ----- 
Lambda = 66550
------Lambda and mu changing ----- 
Lambda = 73205
------Lambda and mu changing ----- 
Lambda = 80525.5
------Lambda and mu changing ----- 
Lambda = 88578.1
------Lambda and mu changing ----- 
Lambda = 97435.9
------Lambda and mu changing ----- 
Lambda = 107179
------Lambda and mu changing ----- 
Lambda = 117897
Convergence!! 
 Energy = 8.93642e-08 Average prices = 0.57735 Average squared = 1 Del Norm = 4.99985e-06
Z = 0.008 Energy = 8.93642e-08 Overlap = 0.366183
Replacing constraints 
 -----------------------------
Running iteration number = 62
-----------------------------

------Lambda and mu changing ----- 
Lambda = 55000
------Lambda and mu changing ----- 
Lambda = 60500
------Lambda and mu changing ----- 
Lambda = 66550
------Lambda and mu changing ----- 
Lambda = 73205
------Lambda and mu changing ----- 
Lambda = 80525.5
------Lambda and mu changing ----- 
Lambda = 88578.1
------Lambda and mu changing ----- 
Lambda = 97435.9
------Lambda and mu changing ----- 
Lambda = 107179
------Lambda and mu changing ----- 
Lambda = 117897
------Lambda and mu changing ----- 
Lambda = 129687
------Lambda and mu changing ----- 
Lambda = 142656
Convergence!! 
 Energy = 1.08759e-07 Average prices = 0.57735 Average squared = 1 Del Norm = 4.99999e-06
Z = 0.009 Energy = 1.08759e-07 Overlap = 0.343297
Replacing constraints 
 -----------------------------
Running iteration number = 63
-----------------------------

------Lambda and mu changing ----- 
Lambda = 55000
------Lambda and mu changing ----- 
Lambda = 60500
------Lambda and mu changing ----- 
Lambda = 66550
------Lambda and mu changing ----- 
Lambda = 73205
------Lambda and mu changing ----- 
Lambda = 80525.5
------Lambda and mu changing ----- 
Lambda = 88578.1
------Lambda and mu changing ----- 
Lambda = 97435.9
------Lambda and mu changing ----- 
Lambda = 107179
------Lambda and mu changing ----- 
Lambda = 117897
------Lambda and mu changing ----- 
Lambda = 129687
------Lambda and mu changing ----- 
Lambda = 142656
------Lambda and mu changing ----- 
Lambda = 156921
------Lambda and mu changing ----- 
Lambda = 172614
------Lambda and mu changing ----- 
Lambda = 189875
------Lambda and mu changing ----- 
Lambda = 208862
Convergence!! 
 Energy = 3.68311e-06 Average prices = 0.57735 Average squared = 1 Del Norm = 6.04642e-05
Z = 0.0156667 Energy = 3.68311e-06 Overlap = 0.309218
Replacing constraints 
 -----------------------------
Running iteration number = 64
-----------------------------

------Lambda and mu changing ----- 
Lambda = 55000
------Lambda and mu changing ----- 
Lambda = 60500
------Lambda and mu changing ----- 
Lambda = 66550
------Lambda and mu changing ----- 
Lambda = 73205
------Lambda and mu changing ----- 
Lambda = 80525.5
------Lambda and mu changing ----- 
Lambda = 88578.1
------Lambda and mu changing ----- 
Lambda = 97435.9
------Lambda and mu changing ----- 
Lambda = 107179
------Lambda and mu changing ----- 
Lambda = 117897
------Lambda and mu changing ----- 
Lambda = 129687
------Lambda and mu changing ----- 
Lambda = 142656
------Lambda and mu changing ----- 
Lambda = 156921
------Lambda and mu changing ----- 
Lambda = 172614
------Lambda and mu changing ----- 
Lambda = 189875
------Lambda and mu changing ----- 
Lambda = 208862
Convergence!! 
 Energy = 3.64671e-05 Average prices = 0.577351 Average squared = 0.999999 Del Norm = 0.000323132
Z = 0.0203333 Energy = 3.64671e-05 Overlap = 0.377228
Replacing constraints 
 -----------------------------
Running iteration number = 65
-----------------------------

------Lambda and mu changing ----- 
Lambda = 55000
------Lambda and mu changing ----- 
Lambda = 60500
------Lambda and mu changing ----- 
Lambda = 66550
------Lambda and mu changing ----- 
Lambda = 73205
------Lambda and mu changing ----- 
Lambda = 80525.5
------Lambda and mu changing ----- 
Lambda = 88578.1
------Lambda and mu changing ----- 
Lambda = 97435.9
------Lambda and mu changing ----- 
Lambda = 107179
------Lambda and mu changing ----- 
Lambda = 117897
------Lambda and mu changing ----- 
Lambda = 129687
------Lambda and mu changing ----- 
Lambda = 142656
------Lambda and mu changing ----- 
Lambda = 156921
------Lambda and mu changing ----- 
Lambda = 172614
------Lambda and mu changing ----- 
Lambda = 189875
------Lambda and mu changing ----- 
Lambda = 208862
Convergence!! 
 Energy = 0.0006252 Average prices = 0.577349 Average squared = 0.999997 Del Norm = 0.00199001
Z = 0.0266667 Energy = 0.0006252 Overlap = 0.357626
Replacing constraints 
 -----------------------------
Running iteration number = 66
-----------------------------

------Lambda and mu changing ----- 
Lambda = 55000
------Lambda and mu changing ----- 
Lambda = 60500
------Lambda and mu changing ----- 
Lambda = 66550
------Lambda and mu changing ----- 
Lambda = 73205
------Lambda and mu changing ----- 
Lambda = 80525.5
------Lambda and mu changing ----- 
Lambda = 88578.1
------Lambda and mu changing ----- 
Lambda = 97435.9
------Lambda and mu changing ----- 
Lambda = 107179
------Lambda and mu changing ----- 
Lambda = 117897
------Lambda and mu changing ----- 
Lambda = 129687
------Lambda and mu changing ----- 
Lambda = 142656
------Lambda and mu changing ----- 
Lambda = 156921
------Lambda and mu changing ----- 
Lambda = 172614
------Lambda and mu changing ----- 
Lambda = 189875
------Lambda and mu changing ----- 
Lambda = 208862
Convergence!! 
 Energy = 5.42372e-06 Average prices = 0.57735 Average squared = 1 Del Norm = 9.49965e-05
Z = 0.017 Energy = 5.42372e-06 Overlap = 0.320437
Replacing constraints 
 -----------------------------
Running iteration number = 67
-----------------------------

------Lambda and mu changing ----- 
Lambda = 55000
------Lambda and mu changing ----- 
Lambda = 60500
------Lambda and mu changing ----- 
Lambda = 66550
------Lambda and mu changing ----- 
Lambda = 73205
------Lambda and mu changing ----- 
Lambda = 80525.5
------Lambda and mu changing ----- 
Lambda = 88578.1
------Lambda and mu changing ----- 
Lambda = 97435.9
------Lambda and mu changing ----- 
Lambda = 107179
------Lambda and mu changing ----- 
Lambda = 117897
------Lambda and mu changing ----- 
Lambda = 129687
------Lambda and mu changing ----- 
Lambda = 142656
------Lambda and mu changing ----- 
Lambda = 156921
------Lambda and mu changing ----- 
Lambda = 172614
------Lambda and mu changing ----- 
Lambda = 189875
------Lambda and mu changing ----- 
Lambda = 208862
Convergence!! 
 Energy = 6.24669e-06 Average prices = 0.57735 Average squared = 1 Del Norm = 9.46635e-05
Z = 0.015 Energy = 6.24669e-06 Overlap = 0.253738
Replacing constraints 
 -----------------------------
Running iteration number = 68
-----------------------------

------Lambda and mu changing ----- 
Lambda = 55000
------Lambda and mu changing ----- 
Lambda = 60500
------Lambda and mu changing ----- 
Lambda = 66550
------Lambda and mu changing ----- 
Lambda = 73205
------Lambda and mu changing ----- 
Lambda = 80525.5
------Lambda and mu changing ----- 
Lambda = 88578.1
------Lambda and mu changing ----- 
Lambda = 97435.9
------Lambda and mu changing ----- 
Lambda = 107179
------Lambda and mu changing ----- 
Lambda = 117897
------Lambda and mu changing ----- 
Lambda = 129687
------Lambda and mu changing ----- 
Lambda = 142656
------Lambda and mu changing ----- 
Lambda = 156921
------Lambda and mu changing ----- 
Lambda = 172614
------Lambda and mu changing ----- 
Lambda = 189875
------Lambda and mu changing ----- 
Lambda = 208862
Convergence!! 
 Energy = 5.39894e-07 Average prices = 0.57735 Average squared = 1 Del Norm = 1.2789e-05
Z = 0.0133333 Energy = 5.39894e-07 Overlap = 0.245107
Replacing constraints 
 -----------------------------
Running iteration number = 69
-----------------------------

------Lambda and mu changing ----- 
Lambda = 55000
------Lambda and mu changing ----- 
Lambda = 60500
------Lambda and mu changing ----- 
Lambda = 66550
------Lambda and mu changing ----- 
Lambda = 73205
------Lambda and mu changing ----- 
Lambda = 80525.5
------Lambda and mu changing ----- 
Lambda = 88578.1
------Lambda and mu changing ----- 
Lambda = 97435.9
------Lambda and mu changing ----- 
Lambda = 107179
------Lambda and mu changing ----- 
Lambda = 117897
------Lambda and mu changing ----- 
Lambda = 129687
------Lambda and mu changing ----- 
Lambda = 142656
------Lambda and mu changing ----- 
Lambda = 156921
------Lambda and mu changing ----- 
Lambda = 172614
------Lambda and mu changing ----- 
Lambda = 189875
------Lambda and mu changing ----- 
Lambda = 208862
Convergence!! 
 Energy = 1.69939e-05 Average prices = 0.57735 Average squared = 1 Del Norm = 0.000245459
Z = 0.018 Energy = 1.69939e-05 Overlap = 0.2742
Replacing constraints 
 -----------------------------
Running iteration number = 70
-----------------------------

------Lambda and mu changing ----- 
Lambda = 55000
------Lambda and mu changing ----- 
Lambda = 60500
------Lambda and mu changing ----- 
Lambda = 66550
------Lambda and mu changing ----- 
Lambda = 73205
------Lambda and mu changing ----- 
Lambda = 80525.5
------Lambda and mu changing ----- 
Lambda = 88578.1
------Lambda and mu changing ----- 
Lambda = 97435.9
------Lambda and mu changing ----- 
Lambda = 107179
------Lambda and mu changing ----- 
Lambda = 117897
------Lambda and mu changing ----- 
Lambda = 129687
------Lambda and mu changing ----- 
Lambda = 142656
------Lambda and mu changing ----- 
Lambda = 156921
------Lambda and mu changing ----- 
Lambda = 172614
------Lambda and mu changing ----- 
Lambda = 189875
------Lambda and mu changing ----- 
Lambda = 208862
Convergence!! 
 Energy = 0.000343468 Average prices = 0.57735 Average squared = 0.999998 Del Norm = 0.00146857
Z = 0.027 Energy = 0.000343468 Overlap = 0.271607
Replacing constraints 
 -----------------------------
Running iteration number = 71
-----------------------------

------Lambda and mu changing ----- 
Lambda = 55000
------Lambda and mu changing ----- 
Lambda = 60500
------Lambda and mu changing ----- 
Lambda = 66550
------Lambda and mu changing ----- 
Lambda = 73205
------Lambda and mu changing ----- 
Lambda = 80525.5
------Lambda and mu changing ----- 
Lambda = 88578.1
------Lambda and mu changing ----- 
Lambda = 97435.9
------Lambda and mu changing ----- 
Lambda = 107179
------Lambda and mu changing ----- 
Lambda = 117897
------Lambda and mu changing ----- 
Lambda = 129687
------Lambda and mu changing ----- 
Lambda = 142656
------Lambda and mu changing ----- 
Lambda = 156921
------Lambda and mu changing ----- 
Lambda = 172614
------Lambda and mu changing ----- 
Lambda = 189875
------Lambda and mu changing ----- 
Lambda = 208862
Convergence!! 
 Energy = 8.73568e-05 Average prices = 0.577349 Average squared = 0.999999 Del Norm = 0.000628821
Z = 0.0206667 Energy = 8.73568e-05 Overlap = 0.282291
Replacing constraints 
 -----------------------------
Running iteration number = 72
-----------------------------

------Lambda and mu changing ----- 
Lambda = 55000
------Lambda and mu changing ----- 
Lambda = 60500
------Lambda and mu changing ----- 
Lambda = 66550
------Lambda and mu changing ----- 
Lambda = 73205
------Lambda and mu changing ----- 
Lambda = 80525.5
------Lambda and mu changing ----- 
Lambda = 88578.1
------Lambda and mu changing ----- 
Lambda = 97435.9
------Lambda and mu changing ----- 
Lambda = 107179
------Lambda and mu changing ----- 
Lambda = 117897
------Lambda and mu changing ----- 
Lambda = 129687
------Lambda and mu changing ----- 
Lambda = 142656
------Lambda and mu changing ----- 
Lambda = 156921
------Lambda and mu changing ----- 
Lambda = 172614
Convergence!! 
 Energy = 1.48228e-07 Average prices = 0.57735 Average squared = 1 Del Norm = 4.99984e-06
Z = 0.0116667 Energy = 1.48228e-07 Overlap = 0.279851
Replacing constraints 
 -----------------------------
Running iteration number = 73
-----------------------------

------Lambda and mu changing ----- 
Lambda = 55000
------Lambda and mu changing ----- 
Lambda = 60500
------Lambda and mu changing ----- 
Lambda = 66550
------Lambda and mu changing ----- 
Lambda = 73205
------Lambda and mu changing ----- 
Lambda = 80525.5
------Lambda and mu changing ----- 
Lambda = 88578.1
------Lambda and mu changing ----- 
Lambda = 97435.9
------Lambda and mu changing ----- 
Lambda = 107179
------Lambda and mu changing ----- 
Lambda = 117897
------Lambda and mu changing ----- 
Lambda = 129687
------Lambda and mu changing ----- 
Lambda = 142656
------Lambda and mu changing ----- 
Lambda = 156921
------Lambda and mu changing ----- 
Lambda = 172614
------Lambda and mu changing ----- 
Lambda = 189875
------Lambda and mu changing ----- 
Lambda = 208862
Convergence!! 
 Energy = 3.35406e-07 Average prices = 0.57735 Average squared = 1 Del Norm = 8.50279e-06
Z = 0.013 Energy = 3.35406e-07 Overlap = 0.331811
Replacing constraints 
 -----------------------------
Running iteration number = 74
-----------------------------

------Lambda and mu changing ----- 
Lambda = 55000
------Lambda and mu changing ----- 
Lambda = 60500
------Lambda and mu changing ----- 
Lambda = 66550
------Lambda and mu changing ----- 
Lambda = 73205
------Lambda and mu changing ----- 
Lambda = 80525.5
------Lambda and mu changing ----- 
Lambda = 88578.1
------Lambda and mu changing ----- 
Lambda = 97435.9
------Lambda and mu changing ----- 
Lambda = 107179
------Lambda and mu changing ----- 
Lambda = 117897
------Lambda and mu changing ----- 
Lambda = 129687
------Lambda and mu changing ----- 
Lambda = 142656
Convergence!! 
 Energy = 1.08013e-07 Average prices = 0.57735 Average squared = 1 Del Norm = 4.99994e-06
Z = 0.00733333 Energy = 1.08013e-07 Overlap = 0.335081
Replacing constraints 
 -----------------------------
Running iteration number = 75
-----------------------------

------Lambda and mu changing ----- 
Lambda = 55000
------Lambda and mu changing ----- 
Lambda = 60500
------Lambda and mu changing ----- 
Lambda = 66550
------Lambda and mu changing ----- 
Lambda = 73205
------Lambda and mu changing ----- 
Lambda = 80525.5
------Lambda and mu changing ----- 
Lambda = 88578.1
Convergence!! 
 Energy = 6.00519e-08 Average prices = 0.57735 Average squared = 1 Del Norm = 4.99998e-06
Z = 0.00566667 Energy = 6.00519e-08 Overlap = 0.329616
Replacing constraints 
 -----------------------------
Running iteration number = 76
-----------------------------

------Lambda and mu changing ----- 
Lambda = 55000
------Lambda and mu changing ----- 
Lambda = 60500
------Lambda and mu changing ----- 
Lambda = 66550
------Lambda and mu changing ----- 
Lambda = 73205
------Lambda and mu changing ----- 
Lambda = 80525.5
------Lambda and mu changing ----- 
Lambda = 88578.1
------Lambda and mu changing ----- 
Lambda = 97435.9
------Lambda and mu changing ----- 
Lambda = 107179
------Lambda and mu changing ----- 
Lambda = 117897
------Lambda and mu changing ----- 
Lambda = 129687
------Lambda and mu changing ----- 
Lambda = 142656
------Lambda and mu changing ----- 
Lambda = 156921
Convergence!! 
 Energy = 1.17161e-07 Average prices = 0.57735 Average squared = 1 Del Norm = 4.99982e-06
Z = 0.0116667 Energy = 1.17161e-07 Overlap = 0.33528
Replacing constraints 
 -----------------------------
Running iteration number = 77
-----------------------------

------Lambda and mu changing ----- 
Lambda = 55000
------Lambda and mu changing ----- 
Lambda = 60500
------Lambda and mu changing ----- 
Lambda = 66550
------Lambda and mu changing ----- 
Lambda = 73205
------Lambda and mu changing ----- 
Lambda = 80525.5
------Lambda and mu changing ----- 
Lambda = 88578.1
------Lambda and mu changing ----- 
Lambda = 97435.9
Convergence!! 
 Energy = 7.5876e-08 Average prices = 0.57735 Average squared = 1 Del Norm = 4.99996e-06
Z = 0.00433333 Energy = 7.5876e-08 Overlap = 0.342338
Replacing constraints 
 -----------------------------
Running iteration number = 78
-----------------------------

------Lambda and mu changing ----- 
Lambda = 55000
------Lambda and mu changing ----- 
Lambda = 60500
------Lambda and mu changing ----- 
Lambda = 66550
------Lambda and mu changing ----- 
Lambda = 73205
------Lambda and mu changing ----- 
Lambda = 80525.5
Convergence!! 
 Energy = 5.10592e-08 Average prices = 0.57735 Average squared = 1 Del Norm = 4.99997e-06
Z = 0.005 Energy = 5.10592e-08 Overlap = 0.359986
Replacing constraints 
 -----------------------------
Running iteration number = 79
-----------------------------

------Lambda and mu changing ----- 
Lambda = 55000
------Lambda and mu changing ----- 
Lambda = 60500
------Lambda and mu changing ----- 
Lambda = 66550
------Lambda and mu changing ----- 
Lambda = 73205
------Lambda and mu changing ----- 
Lambda = 80525.5
Convergence!! 
 Energy = 4.81078e-08 Average prices = 0.57735 Average squared = 1 Del Norm = 4.99983e-06
Z = 0.00466667 Energy = 4.81078e-08 Overlap = 0.359746
Replacing constraints 
 -----------------------------
Running iteration number = 80
-----------------------------

------Lambda and mu changing ----- 
Lambda = 55000
------Lambda and mu changing ----- 
Lambda = 60500
------Lambda and mu changing ----- 
Lambda = 66550
------Lambda and mu changing ----- 
Lambda = 73205
------Lambda and mu changing ----- 
Lambda = 80525.5
------Lambda and mu changing ----- 
Lambda = 88578.1
------Lambda and mu changing ----- 
Lambda = 97435.9
Convergence!! 
 Energy = 6.76578e-08 Average prices = 0.57735 Average squared = 1 Del Norm = 4.99971e-06
Z = 0.00433333 Energy = 6.76578e-08 Overlap = 0.358377
Replacing constraints 
 -----------------------------
Running iteration number = 81
-----------------------------

------Lambda and mu changing ----- 
Lambda = 55000
------Lambda and mu changing ----- 
Lambda = 60500
------Lambda and mu changing ----- 
Lambda = 66550
------Lambda and mu changing ----- 
Lambda = 73205
------Lambda and mu changing ----- 
Lambda = 80525.5
------Lambda and mu changing ----- 
Lambda = 88578.1
Convergence!! 
 Energy = 5.31816e-08 Average prices = 0.57735 Average squared = 1 Del Norm = 4.99958e-06
Z = 0.00433333 Energy = 5.31816e-08 Overlap = 0.346536
Replacing constraints 
 -----------------------------
Running iteration number = 82
-----------------------------

------Lambda and mu changing ----- 
Lambda = 55000
------Lambda and mu changing ----- 
Lambda = 60500
------Lambda and mu changing ----- 
Lambda = 66550
------Lambda and mu changing ----- 
Lambda = 73205
------Lambda and mu changing ----- 
Lambda = 80525.5
Convergence!! 
 Energy = 3.9475e-08 Average prices = 0.57735 Average squared = 1 Del Norm = 4.9998e-06
Z = 0.00333333 Energy = 3.9475e-08 Overlap = 0.337061
Replacing constraints 
 -----------------------------
Running iteration number = 83
-----------------------------

------Lambda and mu changing ----- 
Lambda = 55000
------Lambda and mu changing ----- 
Lambda = 60500
------Lambda and mu changing ----- 
Lambda = 66550
------Lambda and mu changing ----- 
Lambda = 73205
------Lambda and mu changing ----- 
Lambda = 80525.5
------Lambda and mu changing ----- 
Lambda = 88578.1
------Lambda and mu changing ----- 
Lambda = 97435.9
Convergence!! 
 Energy = 6.47366e-08 Average prices = 0.57735 Average squared = 1 Del Norm = 4.99989e-06
Z = 0.00566667 Energy = 6.47366e-08 Overlap = 0.327189
Replacing constraints 
 -----------------------------
Running iteration number = 84
-----------------------------

------Lambda and mu changing ----- 
Lambda = 55000
------Lambda and mu changing ----- 
Lambda = 60500
------Lambda and mu changing ----- 
Lambda = 66550
------Lambda and mu changing ----- 
Lambda = 73205
------Lambda and mu changing ----- 
Lambda = 80525.5
------Lambda and mu changing ----- 
Lambda = 88578.1
------Lambda and mu changing ----- 
Lambda = 97435.9
Convergence!! 
 Energy = 7.56481e-08 Average prices = 0.57735 Average squared = 1 Del Norm = 4.99974e-06
Z = 0.00533333 Energy = 7.56481e-08 Overlap = 0.320332
Replacing constraints 
 -----------------------------
Running iteration number = 85
-----------------------------

------Lambda and mu changing ----- 
Lambda = 55000
------Lambda and mu changing ----- 
Lambda = 60500
------Lambda and mu changing ----- 
Lambda = 66550
------Lambda and mu changing ----- 
Lambda = 73205
------Lambda and mu changing ----- 
Lambda = 80525.5
------Lambda and mu changing ----- 
Lambda = 88578.1
------Lambda and mu changing ----- 
Lambda = 97435.9
------Lambda and mu changing ----- 
Lambda = 107179
Convergence!! 
 Energy = 7.54127e-08 Average prices = 0.57735 Average squared = 1 Del Norm = 4.99989e-06
Z = 0.00733333 Energy = 7.54127e-08 Overlap = 0.32342
Replacing constraints 
 -----------------------------
Running iteration number = 86
-----------------------------

------Lambda and mu changing ----- 
Lambda = 55000
------Lambda and mu changing ----- 
Lambda = 60500
------Lambda and mu changing ----- 
Lambda = 66550
------Lambda and mu changing ----- 
Lambda = 73205
------Lambda and mu changing ----- 
Lambda = 80525.5
------Lambda and mu changing ----- 
Lambda = 88578.1
Convergence!! 
 Energy = 5.06915e-08 Average prices = 0.57735 Average squared = 1 Del Norm = 4.99992e-06
Z = 0.00366667 Energy = 5.06915e-08 Overlap = 0.33578
Replacing constraints 
 -----------------------------
Running iteration number = 87
-----------------------------

------Lambda and mu changing ----- 
Lambda = 55000
------Lambda and mu changing ----- 
Lambda = 60500
------Lambda and mu changing ----- 
Lambda = 66550
Convergence!! 
 Energy = 3.96456e-08 Average prices = 0.57735 Average squared = 1 Del Norm = 4.99963e-06
Z = 0.003 Energy = 3.96456e-08 Overlap = 0.346551
Replacing constraints 
 -----------------------------
Running iteration number = 88
-----------------------------

------Lambda and mu changing ----- 
Lambda = 55000
------Lambda and mu changing ----- 
Lambda = 60500
------Lambda and mu changing ----- 
Lambda = 66550
------Lambda and mu changing ----- 
Lambda = 73205
------Lambda and mu changing ----- 
Lambda = 80525.5
------Lambda and mu changing ----- 
Lambda = 88578.1
Convergence!! 
 Energy = 6.31652e-08 Average prices = 0.57735 Average squared = 1 Del Norm = 4.99967e-06
Z = 0.003 Energy = 6.31652e-08 Overlap = 0.330441
Replacing constraints 
 -----------------------------
Running iteration number = 89
-----------------------------

------Lambda and mu changing ----- 
Lambda = 55000
------Lambda and mu changing ----- 
Lambda = 60500
Convergence!! 
 Energy = 2.28909e-08 Average prices = 0.57735 Average squared = 1 Del Norm = 4.99998e-06
Z = 0.000333333 Energy = 2.28909e-08 Overlap = 0.328535
Replacing constraints 
 -----------------------------
Running iteration number = 90
-----------------------------

------Lambda and mu changing ----- 
Lambda = 55000
------Lambda and mu changing ----- 
Lambda = 60500
------Lambda and mu changing ----- 
Lambda = 66550
------Lambda and mu changing ----- 
Lambda = 73205
Convergence!! 
 Energy = 3.55883e-08 Average prices = 0.57735 Average squared = 1 Del Norm = 4.99996e-06
Z = 0.00166667 Energy = 3.55883e-08 Overlap = 0.331183
Replacing constraints 
 -----------------------------
Running iteration number = 91
-----------------------------

------Lambda and mu changing ----- 
Lambda = 55000
------Lambda and mu changing ----- 
Lambda = 60500
------Lambda and mu changing ----- 
Lambda = 66550
------Lambda and mu changing ----- 
Lambda = 73205
Convergence!! 
 Energy = 3.57476e-08 Average prices = 0.57735 Average squared = 1 Del Norm = 4.99955e-06
Z = 0.00133333 Energy = 3.57476e-08 Overlap = 0.334383
Replacing constraints 
 -----------------------------
Running iteration number = 92
-----------------------------

------Lambda and mu changing ----- 
Lambda = 55000
------Lambda and mu changing ----- 
Lambda = 60500
------Lambda and mu changing ----- 
Lambda = 66550
------Lambda and mu changing ----- 
Lambda = 73205
Convergence!! 
 Energy = 3.64264e-08 Average prices = 0.57735 Average squared = 1 Del Norm = 4.99944e-06
Z = 0.00166667 Energy = 3.64264e-08 Overlap = 0.342787
Replacing constraints 
 -----------------------------
Running iteration number = 93
-----------------------------

------Lambda and mu changing ----- 
Lambda = 55000
------Lambda and mu changing ----- 
Lambda = 60500
------Lambda and mu changing ----- 
Lambda = 66550
Convergence!! 
 Energy = 2.42822e-08 Average prices = 0.57735 Average squared = 1 Del Norm = 4.99934e-06
Z = 0.001 Energy = 2.42822e-08 Overlap = 0.339696
Replacing constraints 
 -----------------------------
Running iteration number = 94
-----------------------------

------Lambda and mu changing ----- 
Lambda = 55000
Convergence!! 
 Energy = 0 Average prices = 0.57735 Average squared = 1 Del Norm = 3.68419e-08
Z = 0 Energy = 0 Overlap = 0.339696
Energy reached zero. Stopping simulation
