0.000000000000000000e+00 5.200000000000000178e-01 7.242000000000001214e-02 1.181189000000000044e+00 1.665215582807736405e-01 6.038850855373337906e-02
5.000000000000000000e-01 1.020000000000000018e+00 2.368699999999999972e-01 1.037353599999999965e+01 2.339257947726295139e+00 2.356376026610283170e-01
1.000000000000000000e+00 1.520000000000000018e+00 6.236500000000000377e-01 5.422754999999999370e+01 3.993189081886628689e+00 6.361830254539453389e-01
1.500000000000000000e+00 2.020000000000000018e+00 9.045900000000000052e-01 1.341440000000000055e+02 4.898913849818467448e+00 9.124001521970599438e-01
