#plot principale

set size 1,1;
set origin 0,0;
set title '';
set xra[-3:2];
set yra[0.1:];
set  logscale y; 

set xlabel "$\sigma$";
set ylabel "$\alpha$";


# color definitions
set style line 1 lc rgb '#800000' lt 1 lw 4   #bordeaux
set style line 2 lc rgb '#ff0000' lt 1 lw 4   #rosso
set style line 3 lc rgb '#ff4500' lt 1 lw 4   #arancione
set style line 4 lc rgb '#ffa500' lt 1 lw 4   #giallo
set style line 5 lc rgb '#4876FF' lt 1 lw 4   #azzurro
set style line 6 lc rgb '#0000FF' lt 1 lw 4   #blu
set style line 7 lc rgb '#008000' lt 1 lw 4   #verde
set style line 8 lc rgb '#000000' lt 1 lw 4   #nero
set style line 9 lc rgb '#000000' lt 3 lw 4   #nero dotted
set style line 10 lc rgb '#000000' lt 1 lw 4   #nero thin 
set style line 11 lc rgb '#7F00FF' lt 1 lw 4   #viola


plot 'Jamming_RS.txt' u 1:2 w l ls 11 title '\alpha_{\mathrm{J}}(\sigma)'
replot 'all.dat' u 1:2 w l ls 2 title '\alpha_{\mathrm{dAT}}(\sigma)'
replot 'dyn3.dat' u 1:2 w l ls 7 title '\alpha_{\mathrm{dyn}}(\sigma)'
replot 'stat3.dat' u 1:2 w l ls 8 title '\alpha_{\mathrm{K}}(\sigma)'
replot 'gard3.dat' u 1:2 w l ls 6 title '\alpha_{\mathrm{G}}(\sigma)'
replot 'dATUNSAT.txt' u 1:2 w l ls 2 notitle





